# Blender MTL File: 'Cabana.blend'
# Material Count: 1

newmtl Carpet_patterned
Ns 0.000000
Ka 1.000000 1.000000 1.000000
Kd 0.800000 0.800000 0.800000
Ks 0.113636 0.113636 0.113636
Ke 0.000000 0.000000 0.000000
Ni 1.450000
d 1.000000
illum 2
map_Kd ojo.jpg
