# Blender v2.92.0 OBJ File: 'Cabana.blend'
# www.blender.org
mtllib barriles.mtl
o Cylinder.016
v -0.063416 1.199283 -1.858543
v -0.091020 1.151470 -1.993374
v -0.279729 1.151470 -1.993374
v -0.307334 1.199283 -1.858543
v -0.374083 0.988043 -1.993374
v -0.429293 0.988043 -1.858543
v -0.279729 0.824617 -1.993374
v -0.307334 0.776804 -1.858543
v -0.091020 0.824617 -1.993374
v -0.063416 0.776804 -1.858543
v -0.256470 0.864902 -1.993374
v -0.114279 0.864902 -1.993374
v 0.003334 0.988043 -1.993374
v 0.058544 0.988043 -1.858543
v 0.007543 0.988043 -1.484764
v 0.058543 0.988043 -1.619595
v -0.063416 1.199283 -1.619596
v -0.088916 1.155115 -1.484764
v -0.088916 0.820972 -1.484764
v -0.063416 0.776804 -1.619595
v -0.281833 0.820972 -1.484764
v -0.307334 0.776804 -1.619595
v -0.378292 0.988043 -1.484764
v -0.429293 0.988043 -1.619596
v -0.281833 1.155115 -1.484764
v -0.307334 1.199283 -1.619596
v -0.256470 1.111185 -1.993374
v -0.327566 0.988043 -1.993374
v -0.043183 0.988043 -1.993374
v -0.114279 1.111185 -1.993374
v -0.319551 0.988043 -1.971140
v -0.252463 0.871843 -1.971140
v -0.118286 1.104243 -1.971140
v -0.252463 1.104243 -1.971140
v -0.051198 0.988043 -1.971140
v -0.118286 0.871843 -1.971140
v -0.111548 1.115915 -1.484764
v -0.259201 1.115915 -1.484764
v -0.255040 1.108707 -1.503763
v -0.115709 1.108707 -1.503763
v -0.333028 0.988043 -1.484764
v -0.259201 0.860172 -1.484764
v -0.255040 0.867380 -1.503763
v -0.324705 0.988043 -1.503763
v -0.111548 0.860172 -1.484764
v -0.115709 0.867380 -1.503763
v -0.037721 0.988043 -1.484764
v -0.046045 0.988043 -1.503763
vt 0.321762 0.708696
vt 0.321888 0.859952
vt 0.012440 0.859703
vt 0.013055 0.708982
vt 0.841053 0.709050
vt 0.841223 0.859441
vt 0.564096 0.859401
vt 0.563111 0.708601
vt 0.321882 0.859941
vt 0.321759 0.708706
vt 0.012433 0.859701
vt 0.013055 0.708976
vt 0.321709 0.912192
vt 0.013258 0.912072
vt 0.841049 0.709049
vt 0.841214 0.859447
vt 0.564102 0.859416
vt 0.563104 0.708591
vt 0.562530 0.332420
vt 0.562783 0.480092
vt 0.322056 0.480037
vt 0.321942 0.332748
vt 0.840537 0.332123
vt 0.840750 0.480016
vt 0.321938 0.332761
vt 0.322052 0.480041
vt 0.012518 0.479433
vt 0.013020 0.332332
vt 0.562523 0.332418
vt 0.562775 0.480082
vt 0.840524 0.332149
vt 0.840754 0.480028
vt 0.012519 0.479437
vt 0.013018 0.332337
vt 0.840809 0.912794
vt 0.563451 0.912463
vt 0.840813 0.912797
vt 0.563444 0.912469
vt 0.321703 0.912220
vt 0.013258 0.912073
vt 0.563130 0.980047
vt 0.321638 0.979752
vt 0.321630 0.979726
vt 0.013055 0.979494
vt 0.563134 0.980046
vt 0.013055 0.979493
vt 0.840600 0.979988
vt 0.840603 0.979987
vt 0.784728 0.010960
vt 0.852159 0.127758
vt 0.784723 0.244548
vt 0.649868 0.244538
vt 0.582426 0.127758
vt 0.649866 0.010956
vt 0.321750 0.281943
vt 0.012969 0.281652
vt 0.012675 0.249239
vt 0.321999 0.249739
vt 0.562665 0.281481
vt 0.321732 0.281957
vt 0.322001 0.249742
vt 0.562539 0.249196
vt 0.012971 0.281650
vt 0.012673 0.249238
vt 0.562693 0.281468
vt 0.562535 0.249194
vt 0.840446 0.281262
vt 0.840523 0.249722
vt 0.840434 0.281266
vt 0.840524 0.249723
vt 0.649867 0.010955
vt 0.784730 0.010954
vt 0.852157 0.127750
vt 0.784738 0.244547
vt 0.649871 0.244552
vt 0.582429 0.127752
vn 0.0000 0.9425 -0.3342
vn -0.8162 0.4712 -0.3342
vn -0.8162 -0.4712 -0.3342
vn 0.0000 -0.9425 -0.3342
vn -0.0000 0.0000 -1.0000
vn 0.8162 -0.4712 -0.3342
vn 0.8162 0.4712 -0.3342
vn 0.8230 0.4752 0.3113
vn 0.8230 -0.4752 0.3113
vn 0.0000 -0.9503 0.3113
vn -0.8230 -0.4752 0.3113
vn -0.8230 0.4752 0.3113
vn -0.0000 0.9503 0.3113
vn 0.8267 0.4773 -0.2980
vn 0.0000 -0.9546 -0.2980
vn -0.8267 -0.4773 -0.2980
vn 0.0000 0.9546 -0.2980
vn 0.8267 -0.4773 -0.2980
vn -0.8267 0.4773 -0.2980
vn -0.0000 -0.9350 0.3547
vn 0.8097 0.4675 0.3547
vn -0.0000 0.9350 0.3547
vn -0.8097 -0.4675 0.3547
vn 0.8097 -0.4675 0.3547
vn -0.8097 0.4675 0.3547
vn 0.0000 0.0000 1.0000
vn 0.8660 -0.5000 0.0000
vn 0.0000 -1.0000 0.0000
vn 0.8660 0.5000 0.0000
vn 0.0000 1.0000 0.0000
vn -0.8660 -0.5000 -0.0000
vn -0.8660 0.5000 0.0000
usemtl cerrado
s 1
f 1/1/1 2/2/1 3/3/1 4/4/1
f 4/5/2 3/6/2 5/7/2 6/8/2
f 6/8/3 5/7/3 7/9/3 8/10/3
f 8/10/4 7/9/4 9/11/4 10/12/4
f 9/11/5 7/9/5 11/13/5 12/14/5
f 10/15/6 9/16/6 13/17/6 14/18/6
f 14/18/7 13/17/7 2/2/7 1/1/7
f 15/19/8 16/20/8 17/21/8 18/22/8
f 19/23/9 20/24/9 16/20/9 15/19/9
f 21/25/10 22/26/10 20/27/10 19/28/10
f 23/29/11 24/30/11 22/26/11 21/25/11
f 25/31/12 26/32/12 24/30/12 23/29/12
f 18/22/13 17/21/13 26/33/13 25/34/13
f 5/7/5 3/6/5 27/35/5 28/36/5
f 13/17/5 9/16/5 12/37/5 29/38/5
f 3/3/5 2/2/5 30/39/5 27/40/5
f 7/9/5 5/7/5 28/36/5 11/13/5
f 2/2/5 13/17/5 29/38/5 30/39/5
f 11/13/14 28/36/14 31/41/14 32/42/14
f 27/40/15 30/39/15 33/43/15 34/44/15
f 30/39/16 29/38/16 35/45/16 33/43/16
f 12/14/17 11/13/17 32/42/17 36/46/17
f 28/36/18 27/35/18 34/47/18 31/41/18
f 29/38/19 12/37/19 36/48/19 35/45/19
f 34/49/5 33/50/5 35/51/5 36/52/5 32/53/5 31/54/5
f 37/55/20 38/56/20 39/57/20 40/58/20
f 41/59/21 42/60/21 43/61/21 44/62/21
f 42/60/22 45/63/22 46/64/22 43/61/22
f 47/65/23 37/55/23 40/58/23 48/66/23
f 38/67/24 41/59/24 44/62/24 39/68/24
f 45/69/25 47/65/25 48/66/25 46/70/25
f 44/71/26 43/72/26 46/73/26 48/74/26 40/75/26 39/76/26
f 21/25/26 42/60/26 41/59/26 23/29/26
f 23/29/26 41/59/26 38/67/26 25/31/26
f 25/34/26 38/56/26 37/55/26 18/22/26
f 18/22/26 37/55/26 47/65/26 15/19/26
f 15/19/26 47/65/26 45/69/26 19/23/26
f 19/28/26 45/63/26 42/60/26 21/25/26
f 16/20/27 20/24/27 10/15/27 14/18/27
f 20/27/28 22/26/28 8/10/28 10/12/28
f 17/21/29 16/20/29 14/18/29 1/1/29
f 26/33/30 17/21/30 1/1/30 4/4/30
f 22/26/31 24/30/31 6/8/31 8/10/31
f 24/30/32 26/32/32 4/5/32 6/8/32
o Cylinder.017
v -0.014370 1.199283 -1.188746
v 0.061451 1.151470 -1.303605
v -0.071986 1.151470 -1.437042
v -0.186846 1.199283 -1.361222
v -0.138705 0.988043 -1.503761
v -0.273084 0.988043 -1.447460
v -0.071986 0.824617 -1.437042
v -0.186846 0.776804 -1.361222
v 0.061451 0.824617 -1.303605
v -0.014370 0.776804 -1.188746
v -0.055540 0.864902 -1.420596
v 0.045004 0.864902 -1.320051
v 0.128169 0.988043 -1.236887
v 0.071868 0.988043 -1.102507
v -0.228496 0.988044 -0.874269
v -0.097093 0.988044 -0.933546
v -0.183332 1.199283 -1.019784
v -0.296703 1.155115 -0.942475
v -0.296703 0.820972 -0.942475
v -0.183332 0.776804 -1.019784
v -0.433116 0.820972 -1.078889
v -0.355808 0.776804 -1.192260
v -0.501323 0.988043 -1.147095
v -0.442046 0.988043 -1.278498
v -0.433116 1.155115 -1.078889
v -0.355807 1.199283 -1.192260
v -0.055540 1.111185 -1.420596
v -0.105813 0.988043 -1.470868
v 0.095277 0.988043 -1.269779
v 0.045004 1.111185 -1.320051
v -0.115867 0.988043 -1.449478
v -0.068429 0.871844 -1.402040
v 0.026448 1.104243 -1.307163
v -0.068429 1.104243 -1.402040
v 0.073887 0.988043 -1.259725
v 0.026448 0.871844 -1.307163
v -0.312706 1.115915 -0.958479
v -0.417113 1.115915 -1.062886
v -0.400736 1.108707 -1.073377
v -0.302215 1.108707 -0.974856
v -0.469316 0.988043 -1.115089
v -0.417113 0.860172 -1.062886
v -0.400736 0.867380 -1.073377
v -0.449997 0.988043 -1.122637
v -0.312706 0.860172 -0.958479
v -0.302215 0.867380 -0.974855
v -0.260503 0.988044 -0.906275
v -0.252954 0.988044 -0.925595
vt 0.321762 0.708696
vt 0.321888 0.859952
vt 0.012440 0.859703
vt 0.013055 0.708982
vt 0.841053 0.709050
vt 0.841223 0.859441
vt 0.564096 0.859401
vt 0.563111 0.708601
vt 0.321882 0.859941
vt 0.321759 0.708706
vt 0.012433 0.859701
vt 0.013055 0.708976
vt 0.321709 0.912192
vt 0.013258 0.912072
vt 0.841049 0.709049
vt 0.841214 0.859447
vt 0.564102 0.859416
vt 0.563104 0.708591
vt 0.562530 0.332420
vt 0.562783 0.480092
vt 0.322056 0.480037
vt 0.321942 0.332748
vt 0.840537 0.332123
vt 0.840750 0.480016
vt 0.321938 0.332761
vt 0.322052 0.480041
vt 0.012518 0.479433
vt 0.013020 0.332332
vt 0.562523 0.332418
vt 0.562775 0.480082
vt 0.840524 0.332149
vt 0.840754 0.480028
vt 0.012519 0.479437
vt 0.013018 0.332337
vt 0.840809 0.912794
vt 0.563451 0.912463
vt 0.840813 0.912797
vt 0.563444 0.912469
vt 0.321703 0.912220
vt 0.013258 0.912073
vt 0.563130 0.980047
vt 0.321638 0.979752
vt 0.321630 0.979726
vt 0.013055 0.979494
vt 0.563134 0.980046
vt 0.013055 0.979493
vt 0.840600 0.979988
vt 0.840603 0.979987
vt 0.784728 0.010960
vt 0.852159 0.127758
vt 0.784723 0.244548
vt 0.649868 0.244538
vt 0.582426 0.127758
vt 0.649866 0.010956
vt 0.321750 0.281943
vt 0.012969 0.281652
vt 0.012675 0.249239
vt 0.321999 0.249739
vt 0.562665 0.281481
vt 0.321732 0.281957
vt 0.322001 0.249742
vt 0.562539 0.249196
vt 0.012971 0.281650
vt 0.012673 0.249238
vt 0.562693 0.281468
vt 0.562535 0.249194
vt 0.840446 0.281262
vt 0.840523 0.249722
vt 0.840434 0.281266
vt 0.840524 0.249723
vt 0.649867 0.010955
vt 0.784730 0.010954
vt 0.852157 0.127750
vt 0.784738 0.244547
vt 0.649871 0.244552
vt 0.582429 0.127752
vn 0.2363 0.9425 -0.2363
vn -0.3408 0.4712 -0.8135
vn -0.3408 -0.4712 -0.8135
vn 0.2363 -0.9425 -0.2363
vn 0.7071 0.0000 -0.7071
vn 0.8135 -0.4712 0.3408
vn 0.8135 0.4712 0.3408
vn 0.3618 0.4752 0.8021
vn 0.3618 -0.4752 0.8021
vn -0.2201 -0.9503 0.2201
vn -0.8021 -0.4752 -0.3618
vn -0.8021 0.4752 -0.3618
vn -0.2201 0.9503 0.2201
vn 0.7953 0.4773 0.3738
vn 0.2107 -0.9546 -0.2107
vn -0.3738 -0.4773 -0.7953
vn 0.2107 0.9546 -0.2107
vn 0.7953 -0.4773 0.3738
vn -0.3738 0.4773 -0.7953
vn -0.2508 -0.9350 0.2508
vn 0.3217 0.4675 0.8234
vn -0.2508 0.9350 0.2508
vn -0.8234 -0.4675 -0.3217
vn 0.3217 -0.4675 0.8234
vn -0.8234 0.4675 -0.3217
vn -0.7071 0.0000 0.7071
vn 0.6124 -0.5000 0.6124
vn -0.0000 -1.0000 0.0000
vn 0.6124 0.5000 0.6124
vn 0.0000 1.0000 0.0000
vn -0.6124 -0.5000 -0.6124
vn -0.6124 0.5000 -0.6124
usemtl cerrado
s 1
f 49/77/33 50/78/33 51/79/33 52/80/33
f 52/81/34 51/82/34 53/83/34 54/84/34
f 54/84/35 53/83/35 55/85/35 56/86/35
f 56/86/36 55/85/36 57/87/36 58/88/36
f 57/87/37 55/85/37 59/89/37 60/90/37
f 58/91/38 57/92/38 61/93/38 62/94/38
f 62/94/39 61/93/39 50/78/39 49/77/39
f 63/95/40 64/96/40 65/97/40 66/98/40
f 67/99/41 68/100/41 64/96/41 63/95/41
f 69/101/42 70/102/42 68/103/42 67/104/42
f 71/105/43 72/106/43 70/102/43 69/101/43
f 73/107/44 74/108/44 72/106/44 71/105/44
f 66/98/45 65/97/45 74/109/45 73/110/45
f 53/83/37 51/82/37 75/111/37 76/112/37
f 61/93/37 57/92/37 60/113/37 77/114/37
f 51/79/37 50/78/37 78/115/37 75/116/37
f 55/85/37 53/83/37 76/112/37 59/89/37
f 50/78/37 61/93/37 77/114/37 78/115/37
f 59/89/46 76/112/46 79/117/46 80/118/46
f 75/116/47 78/115/47 81/119/47 82/120/47
f 78/115/48 77/114/48 83/121/48 81/119/48
f 60/90/49 59/89/49 80/118/49 84/122/49
f 76/112/50 75/111/50 82/123/50 79/117/50
f 77/114/51 60/113/51 84/124/51 83/121/51
f 82/125/37 81/126/37 83/127/37 84/128/37 80/129/37 79/130/37
f 85/131/52 86/132/52 87/133/52 88/134/52
f 89/135/53 90/136/53 91/137/53 92/138/53
f 90/136/54 93/139/54 94/140/54 91/137/54
f 95/141/55 85/131/55 88/134/55 96/142/55
f 86/143/56 89/135/56 92/138/56 87/144/56
f 93/145/57 95/141/57 96/142/57 94/146/57
f 92/147/58 91/148/58 94/149/58 96/150/58 88/151/58 87/152/58
f 69/101/58 90/136/58 89/135/58 71/105/58
f 71/105/58 89/135/58 86/143/58 73/107/58
f 73/110/58 86/132/58 85/131/58 66/98/58
f 66/98/58 85/131/58 95/141/58 63/95/58
f 63/95/58 95/141/58 93/145/58 67/99/58
f 67/104/58 93/139/58 90/136/58 69/101/58
f 64/96/59 68/100/59 58/91/59 62/94/59
f 68/103/60 70/102/60 56/86/60 58/88/60
f 65/97/61 64/96/61 62/94/61 49/77/61
f 74/109/62 65/97/62 49/77/62 52/80/62
f 70/102/63 72/106/63 54/84/63 56/86/63
f 72/106/64 74/108/64 52/81/64 54/84/64
o Cylinder.018
v -2.959766 1.147659 1.244075
v -2.959766 1.281619 1.187086
v -3.123193 1.281619 1.092732
v -3.172546 1.147659 1.121227
v -3.123193 1.281619 0.904024
v -3.172546 1.147659 0.875529
v -2.959766 1.281619 0.809669
v -2.959766 1.147659 0.752681
v -2.796340 1.281619 0.904024
v -2.746986 1.147659 0.875529
v -2.959766 1.281618 0.858012
v -2.838206 1.281618 0.928195
v -2.796340 1.281619 1.092732
v -2.746986 1.147659 1.121226
v -2.792695 0.773009 1.094836
v -2.746986 0.906968 1.121226
v -2.959766 0.906968 1.244075
v -2.959766 0.773009 1.191295
v -2.792695 0.773009 0.901919
v -2.746986 0.906968 0.875529
v -2.959766 0.773009 0.805460
v -2.959766 0.906968 0.752681
v -3.126838 0.773009 0.901919
v -3.172546 0.906968 0.875529
v -3.126838 0.773009 1.094836
v -3.172546 0.906968 1.121226
v -3.081327 1.281618 1.068561
v -3.081327 1.281618 0.928195
v -2.838206 1.281618 1.068561
v -2.959766 1.281618 1.138744
v -3.091065 1.205628 0.922573
v -2.959766 1.205628 0.846768
v -2.959766 1.205628 1.149988
v -3.091065 1.205628 1.074183
v -2.828468 1.205628 1.074183
v -2.828468 1.205628 0.922573
vt 0.321750 0.708677
vt 0.321891 0.859943
vt 0.012441 0.859701
vt 0.013070 0.708982
vt 0.841063 0.709052
vt 0.841230 0.859437
vt 0.564097 0.859420
vt 0.563099 0.708566
vt 0.321862 0.859936
vt 0.321765 0.708701
vt 0.012452 0.859707
vt 0.013066 0.708959
vt 0.321729 0.912193
vt 0.013278 0.912078
vt 0.841059 0.709048
vt 0.841237 0.859432
vt 0.564106 0.859404
vt 0.563118 0.708590
vt 0.562547 0.332433
vt 0.562810 0.480103
vt 0.322056 0.480022
vt 0.321944 0.332782
vt 0.840511 0.332152
vt 0.840733 0.480030
vt 0.321940 0.332758
vt 0.322051 0.480036
vt 0.012529 0.479430
vt 0.013034 0.332364
vt 0.562524 0.332412
vt 0.562789 0.480080
vt 0.840517 0.332128
vt 0.840755 0.480017
vt 0.012535 0.479445
vt 0.013026 0.332361
vt 0.840830 0.912788
vt 0.563457 0.912455
vt 0.840814 0.912793
vt 0.563453 0.912463
vt 0.321713 0.912204
vt 0.013260 0.912087
vt 0.563130 0.980038
vt 0.321639 0.979728
vt 0.321634 0.979751
vt 0.013055 0.979486
vt 0.563131 0.980032
vt 0.013069 0.979491
vt 0.840596 0.979981
vt 0.840598 0.979977
vt 0.784735 0.010951
vt 0.852171 0.127754
vt 0.784735 0.244558
vt 0.649862 0.244558
vt 0.582426 0.127754
vt 0.649862 0.010951
vn -0.4692 0.3457 0.8126
vn -0.9383 0.3457 -0.0000
vn -0.4692 0.3457 -0.8126
vn 0.4692 0.3457 -0.8126
vn -0.0000 1.0000 0.0000
vn 0.9383 0.3457 0.0000
vn 0.4692 0.3457 0.8126
vn 0.4732 -0.3229 0.8196
vn 0.9464 -0.3229 0.0000
vn 0.4732 -0.3229 -0.8196
vn -0.4732 -0.3229 -0.8196
vn -0.9464 -0.3229 0.0000
vn -0.4732 -0.3229 0.8196
vn 0.4959 -0.1271 0.8590
vn 0.4959 -0.1271 -0.8590
vn -0.4959 -0.1271 -0.8590
vn -0.4959 -0.1271 0.8590
vn 0.9919 -0.1271 0.0000
vn -0.9919 -0.1271 0.0000
vn -0.5000 -0.0000 0.8660
vn -1.0000 0.0000 0.0000
vn -0.5000 0.0000 -0.8660
vn 0.5000 -0.0000 -0.8660
vn 0.5000 0.0000 0.8660
vn 1.0000 0.0000 0.0000
usemtl fruta
s 1
f 97/153/65 98/154/65 99/155/65 100/156/65
f 100/157/66 99/158/66 101/159/66 102/160/66
f 102/160/67 101/159/67 103/161/67 104/162/67
f 104/162/68 103/161/68 105/163/68 106/164/68
f 105/163/69 103/161/69 107/165/69 108/166/69
f 106/167/70 105/168/70 109/169/70 110/170/70
f 110/170/71 109/169/71 98/154/71 97/153/71
f 111/171/72 112/172/72 113/173/72 114/174/72
f 115/175/73 116/176/73 112/172/73 111/171/73
f 117/177/74 118/178/74 116/179/74 115/180/74
f 119/181/75 120/182/75 118/178/75 117/177/75
f 121/183/76 122/184/76 120/182/76 119/181/76
f 114/174/77 113/173/77 122/185/77 121/186/77
f 101/159/69 99/158/69 123/187/69 124/188/69
f 109/169/69 105/168/69 108/189/69 125/190/69
f 99/155/69 98/154/69 126/191/69 123/192/69
f 103/161/69 101/159/69 124/188/69 107/165/69
f 98/154/69 109/169/69 125/190/69 126/191/69
f 107/165/78 124/188/78 127/193/78 128/194/78
f 123/192/79 126/191/79 129/195/79 130/196/79
f 126/191/80 125/190/80 131/197/80 129/195/80
f 108/166/81 107/165/81 128/194/81 132/198/81
f 124/188/82 123/187/82 130/199/82 127/193/82
f 125/190/83 108/189/83 132/200/83 131/197/83
f 130/201/69 129/202/69 131/203/69 132/204/69 128/205/69 127/206/69
f 113/173/84 97/153/84 100/156/84 122/185/84
f 120/182/85 122/184/85 100/157/85 102/160/85
f 118/178/86 120/182/86 102/160/86 104/162/86
f 116/179/87 118/178/87 104/162/87 106/164/87
f 110/170/88 97/153/88 113/173/88 112/172/88
f 112/172/89 116/176/89 106/167/89 110/170/89
o Cylinder.005_Cylinder.004
v -2.908291 1.147659 0.720184
v -2.908291 1.281618 0.663195
v -3.071717 1.281618 0.568841
v -3.121071 1.147659 0.597335
v -3.071717 1.281619 0.380132
v -3.121071 1.147659 0.351638
v -2.908291 1.281619 0.285778
v -2.908291 1.147659 0.228789
v -2.744865 1.281619 0.380132
v -2.695511 1.147659 0.351638
v -2.908291 1.281618 0.334121
v -2.786731 1.281618 0.404304
v -2.744865 1.281618 0.568841
v -2.695511 1.147659 0.597335
v -2.741220 0.773009 0.570945
v -2.695511 0.906968 0.597335
v -2.908291 0.906968 0.720184
v -2.908291 0.773009 0.667404
v -2.741220 0.773009 0.378028
v -2.695511 0.906968 0.351638
v -2.908291 0.773009 0.281569
v -2.908291 0.906968 0.228789
v -3.075362 0.773009 0.378028
v -3.121071 0.906968 0.351638
v -3.075362 0.773009 0.570945
v -3.121071 0.906968 0.597335
v -3.029851 1.281618 0.544669
v -3.029851 1.281618 0.404304
v -2.786731 1.281618 0.544669
v -2.908291 1.281618 0.614852
v -3.039589 1.205628 0.398681
v -2.908291 1.205628 0.322876
v -2.908291 1.205628 0.626097
v -3.039589 1.205628 0.550291
v -2.776993 1.205628 0.550292
v -2.776993 1.205628 0.398681
vt 0.321750 0.708677
vt 0.321891 0.859943
vt 0.012441 0.859701
vt 0.013070 0.708982
vt 0.841063 0.709052
vt 0.841230 0.859437
vt 0.564097 0.859420
vt 0.563099 0.708566
vt 0.321862 0.859936
vt 0.321765 0.708701
vt 0.012452 0.859707
vt 0.013066 0.708959
vt 0.321729 0.912193
vt 0.013278 0.912078
vt 0.841059 0.709048
vt 0.841237 0.859432
vt 0.564106 0.859404
vt 0.563118 0.708590
vt 0.562547 0.332433
vt 0.562810 0.480103
vt 0.322056 0.480022
vt 0.321944 0.332782
vt 0.840511 0.332152
vt 0.840733 0.480030
vt 0.321940 0.332758
vt 0.322051 0.480036
vt 0.012529 0.479430
vt 0.013034 0.332364
vt 0.562524 0.332412
vt 0.562789 0.480080
vt 0.840517 0.332128
vt 0.840755 0.480017
vt 0.012535 0.479445
vt 0.013026 0.332361
vt 0.840830 0.912788
vt 0.563457 0.912455
vt 0.840814 0.912793
vt 0.563453 0.912463
vt 0.321713 0.912204
vt 0.013260 0.912087
vt 0.563130 0.980038
vt 0.321639 0.979728
vt 0.321634 0.979751
vt 0.013055 0.979486
vt 0.563131 0.980032
vt 0.013069 0.979491
vt 0.840596 0.979981
vt 0.840598 0.979977
vt 0.784735 0.010951
vt 0.852171 0.127754
vt 0.784735 0.244558
vt 0.649862 0.244558
vt 0.582426 0.127754
vt 0.649862 0.010951
vn -0.4692 0.3457 0.8126
vn -0.9383 0.3457 0.0000
vn -0.4692 0.3457 -0.8126
vn 0.4692 0.3457 -0.8126
vn -0.0000 1.0000 0.0000
vn 0.9383 0.3457 0.0000
vn 0.4692 0.3457 0.8126
vn 0.4732 -0.3229 0.8196
vn 0.9464 -0.3229 0.0000
vn 0.4732 -0.3229 -0.8196
vn -0.4732 -0.3229 -0.8196
vn -0.9464 -0.3229 0.0000
vn -0.4732 -0.3229 0.8196
vn 0.4959 -0.1271 0.8590
vn 0.4959 -0.1271 -0.8590
vn -0.4959 -0.1271 -0.8590
vn -0.4959 -0.1271 0.8590
vn 0.9919 -0.1271 0.0000
vn -0.9919 -0.1271 0.0000
vn -0.5000 -0.0000 0.8660
vn -1.0000 0.0000 0.0000
vn -0.5000 -0.0000 -0.8660
vn 0.5000 0.0000 -0.8660
vn 0.5000 0.0000 0.8660
vn 1.0000 0.0000 0.0000
usemtl agua
s 1
f 133/207/90 134/208/90 135/209/90 136/210/90
f 136/211/91 135/212/91 137/213/91 138/214/91
f 138/214/92 137/213/92 139/215/92 140/216/92
f 140/216/93 139/215/93 141/217/93 142/218/93
f 141/217/94 139/215/94 143/219/94 144/220/94
f 142/221/95 141/222/95 145/223/95 146/224/95
f 146/224/96 145/223/96 134/208/96 133/207/96
f 147/225/97 148/226/97 149/227/97 150/228/97
f 151/229/98 152/230/98 148/226/98 147/225/98
f 153/231/99 154/232/99 152/233/99 151/234/99
f 155/235/100 156/236/100 154/232/100 153/231/100
f 157/237/101 158/238/101 156/236/101 155/235/101
f 150/228/102 149/227/102 158/239/102 157/240/102
f 137/213/94 135/212/94 159/241/94 160/242/94
f 145/223/94 141/222/94 144/243/94 161/244/94
f 135/209/94 134/208/94 162/245/94 159/246/94
f 139/215/94 137/213/94 160/242/94 143/219/94
f 134/208/94 145/223/94 161/244/94 162/245/94
f 143/219/103 160/242/103 163/247/103 164/248/103
f 159/246/104 162/245/104 165/249/104 166/250/104
f 162/245/105 161/244/105 167/251/105 165/249/105
f 144/220/106 143/219/106 164/248/106 168/252/106
f 160/242/107 159/241/107 166/253/107 163/247/107
f 161/244/108 144/243/108 168/254/108 167/251/108
f 166/255/94 165/256/94 167/257/94 168/258/94 164/259/94 163/260/94
f 149/227/109 133/207/109 136/210/109 158/239/109
f 156/236/110 158/238/110 136/211/110 138/214/110
f 154/232/111 156/236/111 138/214/111 140/216/111
f 152/233/112 154/232/112 140/216/112 142/218/112
f 146/224/113 133/207/113 149/227/113 148/226/113
f 148/226/114 152/230/114 142/221/114 146/224/114
o Cylinder.004_Cylinder.003
v -2.440793 1.140454 1.247571
v -2.442727 1.272638 1.186989
v -2.609081 1.272638 1.097899
v -2.660580 1.140454 1.129865
v -2.615103 1.272638 0.909286
v -2.668536 1.140454 0.880671
v -2.454772 1.272638 0.809765
v -2.456706 1.140454 0.749183
v -2.288418 1.272638 0.898855
v -2.236919 1.140454 0.866889
v -2.453234 1.272638 0.857915
v -2.329348 1.272638 0.924262
v -2.282395 1.272638 1.087467
v -2.228962 1.140454 1.116083
v -2.278685 0.764028 1.089454
v -2.228962 0.896213 1.116083
v -2.440793 0.896213 1.247571
v -2.442593 0.764028 1.191196
v -2.284841 0.764028 0.896635
v -2.236919 0.896213 0.866889
v -2.454906 0.764028 0.805558
v -2.456706 0.896213 0.749182
v -2.618814 0.764028 0.907299
v -2.668536 0.896213 0.880671
v -2.612657 0.764028 1.100119
v -2.660580 0.896213 1.129865
v -2.568150 1.272638 1.072492
v -2.572635 1.272638 0.932030
v -2.324863 1.272638 1.064724
v -2.444264 1.272638 1.138839
v -2.565652 1.250528 0.935770
v -2.452981 1.250528 0.865833
v -2.444517 1.250528 1.130921
v -2.561419 1.250528 1.068314
v -2.331847 1.250528 1.060984
v -2.336079 1.250528 0.928440
vt 0.321779 0.708692
vt 0.321881 0.859934
vt 0.012440 0.859695
vt 0.013054 0.708973
vt 0.841068 0.709052
vt 0.841226 0.859426
vt 0.564108 0.859409
vt 0.563115 0.708609
vt 0.321891 0.859946
vt 0.321770 0.708692
vt 0.012432 0.859699
vt 0.013066 0.708973
vt 0.321717 0.912184
vt 0.013266 0.912058
vt 0.841053 0.709049
vt 0.841220 0.859444
vt 0.564107 0.859425
vt 0.563115 0.708583
vt 0.562538 0.332429
vt 0.562763 0.480083
vt 0.322065 0.480035
vt 0.321945 0.332751
vt 0.840518 0.332148
vt 0.840740 0.480015
vt 0.321935 0.332747
vt 0.322062 0.480042
vt 0.012527 0.479429
vt 0.013034 0.332344
vt 0.562553 0.332410
vt 0.562800 0.480100
vt 0.840521 0.332139
vt 0.840743 0.480033
vt 0.012520 0.479429
vt 0.013037 0.332342
vt 0.840823 0.912765
vt 0.563460 0.912460
vt 0.840824 0.912788
vt 0.563457 0.912454
vt 0.321720 0.912179
vt 0.013275 0.912077
vt 0.563126 0.980024
vt 0.321644 0.979756
vt 0.321650 0.979735
vt 0.013070 0.979484
vt 0.563134 0.980039
vt 0.013055 0.979479
vt 0.840591 0.979985
vt 0.840599 0.979984
vt 0.784741 0.010975
vt 0.852157 0.127744
vt 0.784716 0.244563
vt 0.649854 0.244543
vt 0.582438 0.127768
vt 0.649868 0.010948
vn -0.4388 0.3691 0.8193
vn -0.9289 0.3691 0.0297
vn -0.4901 0.3691 -0.7896
vn 0.4388 0.3691 -0.8193
vn -0.0000 1.0000 0.0000
vn 0.9289 0.3691 -0.0297
vn 0.4901 0.3691 0.7896
vn 0.4947 -0.3466 0.7970
vn 0.9375 -0.3466 -0.0299
vn 0.4428 -0.3466 -0.8269
vn -0.4947 -0.3466 -0.7970
vn -0.9375 -0.3466 0.0299
vn -0.4428 -0.3466 0.8269
vn 0.5037 0.2964 0.8115
vn 0.4509 0.2964 -0.8419
vn -0.5037 0.2964 -0.8115
vn -0.4509 0.2964 0.8419
vn 0.9546 0.2964 -0.0305
vn -0.9546 0.2963 0.0305
vn 0.5274 -0.0000 0.8496
vn -0.4721 -0.0000 0.8815
vn -0.9995 0.0000 0.0319
vn -0.5274 0.0000 -0.8496
vn 0.4721 0.0000 -0.8815
vn 0.9995 0.0000 -0.0319
usemtl agua
s 1
f 169/261/115 170/262/115 171/263/115 172/264/115
f 172/265/116 171/266/116 173/267/116 174/268/116
f 174/268/117 173/267/117 175/269/117 176/270/117
f 176/270/118 175/269/118 177/271/118 178/272/118
f 177/271/119 175/269/119 179/273/119 180/274/119
f 178/275/120 177/276/120 181/277/120 182/278/120
f 182/278/121 181/277/121 170/262/121 169/261/121
f 183/279/122 184/280/122 185/281/122 186/282/122
f 187/283/123 188/284/123 184/280/123 183/279/123
f 189/285/124 190/286/124 188/287/124 187/288/124
f 191/289/125 192/290/125 190/286/125 189/285/125
f 193/291/126 194/292/126 192/290/126 191/289/126
f 186/282/127 185/281/127 194/293/127 193/294/127
f 173/267/119 171/266/119 195/295/119 196/296/119
f 181/277/119 177/276/119 180/297/119 197/298/119
f 171/263/119 170/262/119 198/299/119 195/300/119
f 175/269/119 173/267/119 196/296/119 179/273/119
f 170/262/119 181/277/119 197/298/119 198/299/119
f 179/273/128 196/296/128 199/301/128 200/302/128
f 195/300/129 198/299/129 201/303/129 202/304/129
f 198/299/130 197/298/130 203/305/130 201/303/130
f 180/274/131 179/273/131 200/302/131 204/306/131
f 196/296/132 195/295/132 202/307/132 199/301/132
f 197/298/133 180/297/133 204/308/133 203/305/133
f 202/309/119 201/310/119 203/311/119 204/312/119 200/313/119 199/314/119
f 185/281/134 184/280/134 182/278/134 169/261/134
f 194/293/135 185/281/135 169/261/135 172/264/135
f 192/290/136 194/292/136 172/265/136 174/268/136
f 190/286/137 192/290/137 174/268/137 176/270/137
f 188/287/138 190/286/138 176/270/138 178/272/138
f 184/280/139 188/284/139 178/275/139 182/278/139
o Cylinder.003_Cylinder.002
v -2.307857 1.140454 0.680184
v -2.342109 1.272638 0.630176
v -2.530259 1.272638 0.644685
v -2.556440 1.140454 0.699353
v -2.636899 1.272638 0.488997
v -2.697333 1.140454 0.493657
v -2.555389 1.272638 0.318800
v -2.589642 1.140454 0.268793
v -2.367239 1.272638 0.304291
v -2.341058 1.140454 0.249624
v -2.528165 1.272638 0.358546
v -2.388048 1.272638 0.347741
v -2.260600 1.272638 0.459980
v -2.200166 1.140454 0.455319
v -2.256403 0.764028 0.459656
v -2.200166 0.896213 0.455319
v -2.307857 0.896213 0.680183
v -2.339731 0.764028 0.633649
v -2.365422 0.764028 0.300495
v -2.341058 0.896213 0.249624
v -2.557768 0.764028 0.315328
v -2.589642 0.896213 0.268793
v -2.641096 0.764028 0.489321
v -2.697333 0.896213 0.493657
v -2.532077 0.764028 0.648481
v -2.556440 0.896213 0.699353
v -2.509451 1.272638 0.601236
v -2.588866 1.272638 0.485293
v -2.308632 1.272638 0.463683
v -2.369334 1.272638 0.590431
v -2.580968 1.250528 0.484684
v -2.523689 1.250528 0.365082
v -2.373810 1.250528 0.583895
v -2.506029 1.250528 0.594091
v -2.316531 1.250528 0.464293
v -2.391470 1.250528 0.354886
vt 0.321779 0.708692
vt 0.321881 0.859934
vt 0.012440 0.859695
vt 0.013054 0.708973
vt 0.841068 0.709052
vt 0.841226 0.859426
vt 0.564108 0.859409
vt 0.563115 0.708609
vt 0.321891 0.859946
vt 0.321770 0.708692
vt 0.012432 0.859699
vt 0.013066 0.708973
vt 0.321717 0.912184
vt 0.013266 0.912058
vt 0.841053 0.709049
vt 0.841220 0.859444
vt 0.564107 0.859425
vt 0.563115 0.708583
vt 0.562538 0.332429
vt 0.562763 0.480083
vt 0.322065 0.480035
vt 0.321945 0.332751
vt 0.840518 0.332148
vt 0.840740 0.480015
vt 0.321935 0.332747
vt 0.322062 0.480042
vt 0.012527 0.479429
vt 0.013034 0.332344
vt 0.562553 0.332410
vt 0.562800 0.480100
vt 0.840521 0.332139
vt 0.840743 0.480033
vt 0.012520 0.479429
vt 0.013037 0.332342
vt 0.840823 0.912765
vt 0.563460 0.912460
vt 0.840824 0.912788
vt 0.563457 0.912454
vt 0.321720 0.912179
vt 0.013275 0.912077
vt 0.563126 0.980024
vt 0.321644 0.979756
vt 0.321650 0.979735
vt 0.013070 0.979484
vt 0.563134 0.980039
vt 0.013055 0.979479
vt 0.840591 0.979985
vt 0.840599 0.979984
vt 0.784741 0.010975
vt 0.852157 0.127744
vt 0.784716 0.244563
vt 0.649854 0.244543
vt 0.582438 0.127768
vt 0.649868 0.010948
vn 0.0715 0.3691 0.9266
vn -0.7668 0.3691 0.5252
vn -0.8382 0.3691 -0.4014
vn -0.0715 0.3691 -0.9266
vn -0.0000 1.0000 0.0000
vn 0.7668 0.3691 -0.5252
vn 0.8382 0.3691 0.4014
vn 0.8460 -0.3466 0.4052
vn 0.7739 -0.3466 -0.5301
vn -0.0721 -0.3466 -0.9352
vn -0.8460 -0.3466 -0.4052
vn -0.7739 -0.3466 0.5301
vn 0.0721 -0.3466 0.9352
vn 0.8614 0.2964 0.4125
vn -0.0734 0.2964 -0.9522
vn -0.8614 0.2964 -0.4125
vn 0.0734 0.2964 0.9522
vn 0.7880 0.2964 -0.5397
vn -0.7880 0.2964 0.5397
vn 0.9019 -0.0000 0.4319
vn 0.0769 -0.0000 0.9970
vn -0.8250 0.0000 0.5651
vn -0.9019 0.0000 -0.4319
vn -0.0769 -0.0000 -0.9970
vn 0.8250 -0.0000 -0.5651
usemtl pina
s 1
f 205/315/140 206/316/140 207/317/140 208/318/140
f 208/319/141 207/320/141 209/321/141 210/322/141
f 210/322/142 209/321/142 211/323/142 212/324/142
f 212/324/143 211/323/143 213/325/143 214/326/143
f 213/325/144 211/323/144 215/327/144 216/328/144
f 214/329/145 213/330/145 217/331/145 218/332/145
f 218/332/146 217/331/146 206/316/146 205/315/146
f 219/333/147 220/334/147 221/335/147 222/336/147
f 223/337/148 224/338/148 220/334/148 219/333/148
f 225/339/149 226/340/149 224/341/149 223/342/149
f 227/343/150 228/344/150 226/340/150 225/339/150
f 229/345/151 230/346/151 228/344/151 227/343/151
f 222/336/152 221/335/152 230/347/152 229/348/152
f 209/321/144 207/320/144 231/349/144 232/350/144
f 217/331/144 213/330/144 216/351/144 233/352/144
f 207/317/144 206/316/144 234/353/144 231/354/144
f 211/323/144 209/321/144 232/350/144 215/327/144
f 206/316/144 217/331/144 233/352/144 234/353/144
f 215/327/153 232/350/153 235/355/153 236/356/153
f 231/354/154 234/353/154 237/357/154 238/358/154
f 234/353/155 233/352/155 239/359/155 237/357/155
f 216/328/156 215/327/156 236/356/156 240/360/156
f 232/350/157 231/349/157 238/361/157 235/355/157
f 233/352/158 216/351/158 240/362/158 239/359/158
f 238/363/144 237/364/144 239/365/144 240/366/144 236/367/144 235/368/144
f 221/335/159 220/334/159 218/332/159 205/315/159
f 230/347/160 221/335/160 205/315/160 208/318/160
f 228/344/161 230/346/161 208/319/161 210/322/161
f 226/340/162 228/344/162 210/322/162 212/324/162
f 224/341/163 226/340/163 212/324/163 214/326/163
f 220/334/164 224/338/164 214/329/164 218/332/164
o Cylinder.019
v -2.448750 1.140454 1.784221
v -2.448750 1.272638 1.723608
v -2.612177 1.272638 1.629254
v -2.664670 1.140454 1.659560
v -2.612177 1.272638 1.440545
v -2.664669 1.140454 1.410239
v -2.448750 1.272638 1.346191
v -2.448750 1.140454 1.285578
v -2.285324 1.272638 1.440545
v -2.232832 1.140454 1.410239
v -2.448750 1.272638 1.394367
v -2.327045 1.272638 1.464633
v -2.285324 1.272638 1.629254
v -2.232832 1.140454 1.659560
v -2.281679 0.764029 1.631358
v -2.232832 0.896213 1.659560
v -2.448750 0.896213 1.784221
v -2.448750 0.764028 1.727817
v -2.281679 0.764029 1.438441
v -2.232832 0.896213 1.410239
v -2.448750 0.764029 1.341982
v -2.448750 0.896213 1.285578
v -2.615822 0.764029 1.438441
v -2.664669 0.896213 1.410239
v -2.615822 0.764029 1.631358
v -2.664670 0.896213 1.659560
v -2.570456 1.272638 1.605166
v -2.570456 1.272638 1.464633
v -2.327045 1.272638 1.605166
v -2.448750 1.272638 1.675433
v -2.563596 1.250528 1.468594
v -2.448750 1.250528 1.402288
v -2.448750 1.250528 1.667511
v -2.563596 1.250528 1.601205
v -2.333906 1.250528 1.601205
v -2.333906 1.250528 1.468594
vt 0.321779 0.708692
vt 0.321881 0.859934
vt 0.012440 0.859695
vt 0.013054 0.708973
vt 0.841068 0.709052
vt 0.841226 0.859426
vt 0.564108 0.859409
vt 0.563115 0.708609
vt 0.321891 0.859946
vt 0.321770 0.708692
vt 0.012432 0.859699
vt 0.013066 0.708973
vt 0.321717 0.912184
vt 0.013266 0.912058
vt 0.841053 0.709049
vt 0.841220 0.859444
vt 0.564107 0.859425
vt 0.563115 0.708583
vt 0.562538 0.332429
vt 0.562763 0.480083
vt 0.322065 0.480035
vt 0.321945 0.332751
vt 0.840518 0.332148
vt 0.840740 0.480015
vt 0.321935 0.332747
vt 0.322062 0.480042
vt 0.012527 0.479429
vt 0.013034 0.332344
vt 0.562553 0.332410
vt 0.562800 0.480100
vt 0.840521 0.332139
vt 0.840743 0.480033
vt 0.012520 0.479429
vt 0.013037 0.332342
vt 0.840823 0.912765
vt 0.563460 0.912460
vt 0.840824 0.912788
vt 0.563457 0.912454
vt 0.321720 0.912179
vt 0.013275 0.912077
vt 0.563126 0.980024
vt 0.321644 0.979756
vt 0.321650 0.979735
vt 0.013070 0.979484
vt 0.563134 0.980039
vt 0.013055 0.979479
vt 0.840591 0.979985
vt 0.840599 0.979984
vt 0.784741 0.010975
vt 0.852157 0.127744
vt 0.784716 0.244563
vt 0.649854 0.244543
vt 0.582438 0.127768
vt 0.649868 0.010948
vn -0.4647 0.3691 0.8049
vn -0.9294 0.3691 -0.0000
vn -0.4647 0.3691 -0.8049
vn 0.4647 0.3691 -0.8049
vn -0.0000 1.0000 0.0000
vn 0.9294 0.3691 -0.0000
vn 0.4647 0.3691 0.8049
vn 0.4690 -0.3466 0.8123
vn 0.9380 -0.3466 0.0000
vn 0.4690 -0.3466 -0.8123
vn -0.4690 -0.3466 -0.8123
vn -0.9380 -0.3466 -0.0000
vn -0.4690 -0.3466 0.8123
vn 0.4775 0.2963 0.8271
vn 0.4775 0.2964 -0.8271
vn -0.4775 0.2964 -0.8271
vn -0.4775 0.2964 0.8271
vn 0.9551 0.2963 0.0000
vn -0.9551 0.2964 0.0000
vn 0.5000 -0.0000 0.8660
vn -0.5000 0.0000 0.8660
vn -1.0000 0.0000 -0.0000
vn -0.5000 0.0000 -0.8660
vn 0.5000 0.0000 -0.8660
vn 1.0000 0.0000 0.0000
usemtl fruta
s 1
f 241/369/165 242/370/165 243/371/165 244/372/165
f 244/373/166 243/374/166 245/375/166 246/376/166
f 246/376/167 245/375/167 247/377/167 248/378/167
f 248/378/168 247/377/168 249/379/168 250/380/168
f 249/379/169 247/377/169 251/381/169 252/382/169
f 250/383/170 249/384/170 253/385/170 254/386/170
f 254/386/171 253/385/171 242/370/171 241/369/171
f 255/387/172 256/388/172 257/389/172 258/390/172
f 259/391/173 260/392/173 256/388/173 255/387/173
f 261/393/174 262/394/174 260/395/174 259/396/174
f 263/397/175 264/398/175 262/394/175 261/393/175
f 265/399/176 266/400/176 264/398/176 263/397/176
f 258/390/177 257/389/177 266/401/177 265/402/177
f 245/375/169 243/374/169 267/403/169 268/404/169
f 253/385/169 249/384/169 252/405/169 269/406/169
f 243/371/169 242/370/169 270/407/169 267/408/169
f 247/377/169 245/375/169 268/404/169 251/381/169
f 242/370/169 253/385/169 269/406/169 270/407/169
f 251/381/178 268/404/178 271/409/178 272/410/178
f 267/408/179 270/407/179 273/411/179 274/412/179
f 270/407/180 269/406/180 275/413/180 273/411/180
f 252/382/181 251/381/181 272/410/181 276/414/181
f 268/404/182 267/403/182 274/415/182 271/409/182
f 269/406/183 252/405/183 276/416/183 275/413/183
f 274/417/169 273/418/169 275/419/169 276/420/169 272/421/169 271/422/169
f 257/389/184 256/388/184 254/386/184 241/369/184
f 266/401/185 257/389/185 241/369/185 244/372/185
f 264/398/186 266/400/186 244/373/186 246/376/186
f 262/394/187 264/398/187 246/376/187 248/378/187
f 260/395/188 262/394/188 248/378/188 250/380/188
f 256/388/189 260/392/189 250/383/189 254/386/189
o Cylinder.000
v -0.065496 1.199283 -0.533623
v 0.069335 1.151470 -0.561228
v 0.069335 1.151470 -0.749936
v -0.065496 1.199283 -0.777541
v 0.069335 0.988044 -0.844291
v -0.065496 0.988044 -0.899500
v 0.069335 0.824617 -0.749936
v -0.065496 0.776805 -0.777541
v 0.069335 0.824617 -0.561228
v -0.065496 0.776805 -0.533623
v 0.069334 0.864902 -0.726678
v 0.069334 0.864902 -0.584486
v 0.069335 0.988044 -0.466874
v -0.065496 0.988044 -0.411664
v -0.439275 0.988044 -0.462665
v -0.304444 0.988044 -0.411664
v -0.304444 1.199283 -0.533623
v -0.439275 1.155115 -0.559124
v -0.439275 0.820972 -0.559124
v -0.304444 0.776805 -0.533623
v -0.439275 0.820972 -0.752041
v -0.304444 0.776805 -0.777541
v -0.439275 0.988044 -0.848500
v -0.304444 0.988044 -0.899500
v -0.439275 1.155115 -0.752041
v -0.304444 1.199283 -0.777541
v 0.069334 1.111185 -0.726678
v 0.069334 0.988044 -0.797774
v 0.069334 0.988044 -0.513390
v 0.069334 1.111185 -0.584486
v 0.047100 0.988044 -0.789758
v 0.047100 0.871844 -0.722670
v 0.047100 1.104244 -0.588494
v 0.047100 1.104244 -0.722670
v 0.047100 0.988044 -0.521406
v 0.047100 0.871844 -0.588494
v -0.439275 1.115915 -0.581755
v -0.439275 1.115915 -0.729409
v -0.420277 1.108707 -0.725247
v -0.420277 1.108707 -0.585917
v -0.439275 0.988044 -0.803236
v -0.439275 0.860172 -0.729409
v -0.420277 0.867380 -0.725247
v -0.420277 0.988044 -0.794913
v -0.439275 0.860172 -0.581755
v -0.420277 0.867380 -0.585917
v -0.439275 0.988044 -0.507929
v -0.420277 0.988044 -0.516252
vt 0.321762 0.708696
vt 0.321888 0.859952
vt 0.012440 0.859703
vt 0.013055 0.708982
vt 0.841053 0.709050
vt 0.841223 0.859441
vt 0.564096 0.859401
vt 0.563111 0.708601
vt 0.321882 0.859941
vt 0.321759 0.708706
vt 0.012433 0.859701
vt 0.013055 0.708976
vt 0.321709 0.912192
vt 0.013258 0.912072
vt 0.841049 0.709049
vt 0.841214 0.859447
vt 0.564102 0.859416
vt 0.563104 0.708591
vt 0.562530 0.332420
vt 0.562783 0.480092
vt 0.322056 0.480037
vt 0.321942 0.332748
vt 0.840537 0.332123
vt 0.840750 0.480016
vt 0.321938 0.332761
vt 0.322052 0.480041
vt 0.012518 0.479433
vt 0.013020 0.332332
vt 0.562523 0.332418
vt 0.562775 0.480082
vt 0.840524 0.332149
vt 0.840754 0.480028
vt 0.012519 0.479437
vt 0.013018 0.332337
vt 0.840809 0.912794
vt 0.563451 0.912463
vt 0.840813 0.912797
vt 0.563444 0.912469
vt 0.321703 0.912220
vt 0.013258 0.912073
vt 0.563130 0.980047
vt 0.321638 0.979752
vt 0.321630 0.979726
vt 0.013055 0.979494
vt 0.563134 0.980046
vt 0.013055 0.979493
vt 0.840600 0.979988
vt 0.840603 0.979987
vt 0.784728 0.010960
vt 0.852159 0.127758
vt 0.784723 0.244548
vt 0.649868 0.244538
vt 0.582426 0.127758
vt 0.649866 0.010956
vt 0.321750 0.281943
vt 0.012969 0.281652
vt 0.012675 0.249239
vt 0.321999 0.249739
vt 0.562665 0.281481
vt 0.321732 0.281957
vt 0.322001 0.249742
vt 0.562539 0.249196
vt 0.012971 0.281650
vt 0.012673 0.249238
vt 0.562693 0.281468
vt 0.562535 0.249194
vt 0.840446 0.281262
vt 0.840523 0.249722
vt 0.840434 0.281266
vt 0.840524 0.249723
vt 0.649867 0.010955
vt 0.784730 0.010954
vt 0.852157 0.127750
vt 0.784738 0.244547
vt 0.649871 0.244552
vt 0.582429 0.127752
vn 0.3342 0.9425 0.0000
vn 0.3342 0.4712 -0.8162
vn 0.3342 -0.4712 -0.8162
vn 0.3342 -0.9425 0.0000
vn 1.0000 0.0000 -0.0000
vn 0.3342 -0.4712 0.8162
vn 0.3342 0.4712 0.8162
vn -0.3113 0.4752 0.8230
vn -0.3113 -0.4752 0.8230
vn -0.3113 -0.9503 0.0000
vn -0.3113 -0.4752 -0.8230
vn -0.3113 0.4752 -0.8230
vn -0.3113 0.9503 0.0000
vn 0.2980 0.4773 0.8267
vn 0.2980 -0.9546 0.0000
vn 0.2980 -0.4773 -0.8267
vn 0.2980 0.9546 -0.0000
vn 0.2980 -0.4773 0.8267
vn 0.2980 0.4773 -0.8267
vn -0.3547 -0.9350 0.0000
vn -0.3547 0.4675 0.8097
vn -0.3547 0.9350 0.0000
vn -0.3547 -0.4675 -0.8097
vn -0.3547 -0.4675 0.8097
vn -0.3547 0.4675 -0.8097
vn -1.0000 0.0000 -0.0000
vn 0.0000 -0.5000 0.8660
vn 0.0000 -1.0000 -0.0000
vn -0.0000 0.5000 0.8660
vn 0.0000 1.0000 -0.0000
vn 0.0000 -0.5000 -0.8660
vn 0.0000 0.5000 -0.8660
usemtl cerrado
s 1
f 277/423/190 278/424/190 279/425/190 280/426/190
f 280/427/191 279/428/191 281/429/191 282/430/191
f 282/430/192 281/429/192 283/431/192 284/432/192
f 284/432/193 283/431/193 285/433/193 286/434/193
f 285/433/194 283/431/194 287/435/194 288/436/194
f 286/437/195 285/438/195 289/439/195 290/440/195
f 290/440/196 289/439/196 278/424/196 277/423/196
f 291/441/197 292/442/197 293/443/197 294/444/197
f 295/445/198 296/446/198 292/442/198 291/441/198
f 297/447/199 298/448/199 296/449/199 295/450/199
f 299/451/200 300/452/200 298/448/200 297/447/200
f 301/453/201 302/454/201 300/452/201 299/451/201
f 294/444/202 293/443/202 302/455/202 301/456/202
f 281/429/194 279/428/194 303/457/194 304/458/194
f 289/439/194 285/438/194 288/459/194 305/460/194
f 279/425/194 278/424/194 306/461/194 303/462/194
f 283/431/194 281/429/194 304/458/194 287/435/194
f 278/424/194 289/439/194 305/460/194 306/461/194
f 287/435/203 304/458/203 307/463/203 308/464/203
f 303/462/204 306/461/204 309/465/204 310/466/204
f 306/461/205 305/460/205 311/467/205 309/465/205
f 288/436/206 287/435/206 308/464/206 312/468/206
f 304/458/207 303/457/207 310/469/207 307/463/207
f 305/460/208 288/459/208 312/470/208 311/467/208
f 310/471/194 309/472/194 311/473/194 312/474/194 308/475/194 307/476/194
f 313/477/209 314/478/209 315/479/209 316/480/209
f 317/481/210 318/482/210 319/483/210 320/484/210
f 318/482/211 321/485/211 322/486/211 319/483/211
f 323/487/212 313/477/212 316/480/212 324/488/212
f 314/489/213 317/481/213 320/484/213 315/490/213
f 321/491/214 323/487/214 324/488/214 322/492/214
f 320/493/215 319/494/215 322/495/215 324/496/215 316/497/215 315/498/215
f 297/447/215 318/482/215 317/481/215 299/451/215
f 299/451/215 317/481/215 314/489/215 301/453/215
f 301/456/215 314/478/215 313/477/215 294/444/215
f 294/444/215 313/477/215 323/487/215 291/441/215
f 291/441/215 323/487/215 321/491/215 295/445/215
f 295/450/215 321/485/215 318/482/215 297/447/215
f 292/442/216 296/446/216 286/437/216 290/440/216
f 296/449/217 298/448/217 284/432/217 286/434/217
f 293/443/218 292/442/218 290/440/218 277/423/218
f 302/455/219 293/443/219 277/423/219 280/426/219
f 298/448/220 300/452/220 282/430/220 284/432/220
f 300/452/221 302/454/221 280/427/221 282/430/221
o Cylinder.002_Cylinder.005
v -2.926280 1.147659 1.780597
v -2.926280 1.281619 1.723608
v -3.089706 1.281619 1.629254
v -3.139060 1.147659 1.657748
v -3.089706 1.281619 1.440545
v -3.139060 1.147659 1.412051
v -2.926279 1.281619 1.346191
v -2.926279 1.147659 1.289202
v -2.762853 1.281619 1.440545
v -2.713500 1.147659 1.412051
v -2.926280 1.281618 1.394534
v -2.804719 1.281618 1.464717
v -2.762853 1.281619 1.629254
v -2.713500 1.147659 1.657748
v -2.759208 0.773009 1.631358
v -2.713500 0.906968 1.657748
v -2.926280 0.906968 1.780597
v -2.926280 0.773009 1.727817
v -2.759208 0.773009 1.438441
v -2.713500 0.906968 1.412051
v -2.926279 0.773009 1.341982
v -2.926279 0.906968 1.289202
v -3.093351 0.773009 1.438441
v -3.139060 0.906968 1.412051
v -3.093351 0.773009 1.631358
v -3.139060 0.906968 1.657748
v -3.047840 1.281618 1.605083
v -3.047840 1.281618 1.464717
v -2.804719 1.281618 1.605083
v -2.926280 1.281618 1.675265
v -3.057578 1.205628 1.459094
v -2.926280 1.205628 1.383289
v -2.926280 1.205628 1.686510
v -3.057578 1.205628 1.610705
v -2.794981 1.205628 1.610705
v -2.794981 1.205628 1.459094
vt 0.321750 0.708677
vt 0.321891 0.859943
vt 0.012441 0.859701
vt 0.013070 0.708982
vt 0.841063 0.709052
vt 0.841230 0.859437
vt 0.564097 0.859420
vt 0.563099 0.708566
vt 0.321862 0.859936
vt 0.321765 0.708701
vt 0.012452 0.859707
vt 0.013066 0.708959
vt 0.321729 0.912193
vt 0.013278 0.912078
vt 0.841059 0.709048
vt 0.841237 0.859432
vt 0.564106 0.859404
vt 0.563118 0.708590
vt 0.562547 0.332433
vt 0.562810 0.480103
vt 0.322056 0.480022
vt 0.321944 0.332782
vt 0.840511 0.332152
vt 0.840733 0.480030
vt 0.321940 0.332758
vt 0.322051 0.480036
vt 0.012529 0.479430
vt 0.013034 0.332364
vt 0.562524 0.332412
vt 0.562789 0.480080
vt 0.840517 0.332128
vt 0.840755 0.480017
vt 0.012535 0.479445
vt 0.013026 0.332361
vt 0.840830 0.912788
vt 0.563457 0.912455
vt 0.840814 0.912793
vt 0.563453 0.912463
vt 0.321713 0.912204
vt 0.013260 0.912087
vt 0.563130 0.980038
vt 0.321639 0.979728
vt 0.321634 0.979751
vt 0.013055 0.979486
vt 0.563131 0.980032
vt 0.013069 0.979491
vt 0.840596 0.979981
vt 0.840598 0.979977
vt 0.784735 0.010951
vt 0.852171 0.127754
vt 0.784735 0.244558
vt 0.649862 0.244558
vt 0.582426 0.127754
vt 0.649862 0.010951
vn -0.4692 0.3457 0.8126
vn -0.9383 0.3457 0.0000
vn -0.4692 0.3457 -0.8126
vn 0.4692 0.3457 -0.8126
vn -0.0000 1.0000 0.0000
vn 0.9383 0.3457 0.0000
vn 0.4692 0.3457 0.8126
vn 0.4732 -0.3229 0.8196
vn 0.9464 -0.3229 0.0000
vn 0.4732 -0.3229 -0.8196
vn -0.4732 -0.3229 -0.8196
vn -0.9464 -0.3229 0.0000
vn -0.4732 -0.3229 0.8196
vn 0.4959 -0.1271 0.8590
vn 0.4959 -0.1271 -0.8590
vn -0.4959 -0.1271 -0.8590
vn -0.4959 -0.1271 0.8590
vn 0.9919 -0.1271 0.0000
vn -0.9919 -0.1271 -0.0000
vn -0.5000 -0.0000 0.8660
vn -1.0000 0.0000 0.0000
vn -0.5000 0.0000 -0.8660
vn 0.5000 -0.0000 -0.8660
vn 0.5000 0.0000 0.8660
vn 1.0000 0.0000 0.0000
usemtl pina
s 1
f 325/499/222 326/500/222 327/501/222 328/502/222
f 328/503/223 327/504/223 329/505/223 330/506/223
f 330/506/224 329/505/224 331/507/224 332/508/224
f 332/508/225 331/507/225 333/509/225 334/510/225
f 333/509/226 331/507/226 335/511/226 336/512/226
f 334/513/227 333/514/227 337/515/227 338/516/227
f 338/516/228 337/515/228 326/500/228 325/499/228
f 339/517/229 340/518/229 341/519/229 342/520/229
f 343/521/230 344/522/230 340/518/230 339/517/230
f 345/523/231 346/524/231 344/525/231 343/526/231
f 347/527/232 348/528/232 346/524/232 345/523/232
f 349/529/233 350/530/233 348/528/233 347/527/233
f 342/520/234 341/519/234 350/531/234 349/532/234
f 329/505/226 327/504/226 351/533/226 352/534/226
f 337/515/226 333/514/226 336/535/226 353/536/226
f 327/501/226 326/500/226 354/537/226 351/538/226
f 331/507/226 329/505/226 352/534/226 335/511/226
f 326/500/226 337/515/226 353/536/226 354/537/226
f 335/511/235 352/534/235 355/539/235 356/540/235
f 351/538/236 354/537/236 357/541/236 358/542/236
f 354/537/237 353/536/237 359/543/237 357/541/237
f 336/512/238 335/511/238 356/540/238 360/544/238
f 352/534/239 351/533/239 358/545/239 355/539/239
f 353/536/240 336/535/240 360/546/240 359/543/240
f 358/547/226 357/548/226 359/549/226 360/550/226 356/551/226 355/552/226
f 341/519/241 325/499/241 328/502/241 350/531/241
f 348/528/242 350/530/242 328/503/242 330/506/242
f 346/524/243 348/528/243 330/506/243 332/508/243
f 344/525/244 346/524/244 332/508/244 334/510/244
f 338/516/245 325/499/245 341/519/245 340/518/245
f 340/518/246 344/522/246 334/513/246 338/516/246
