# Blender v2.92.0 OBJ File: ''
# www.blender.org
mtllib braIzqTio.mtl
o Characters_Circle.001_Characters_Circle.008
v -0.056591 0.081305 -0.022449
v 0.063030 0.081306 0.048679
v 0.062988 0.081307 -0.067139
v 0.086119 0.081305 -0.017896
v 0.062988 0.081307 -0.067139
v 0.033418 0.081307 -0.085356
v -0.000486 0.081307 -0.086414
v -0.030956 0.081307 -0.070074
v -0.030956 0.081307 -0.070074
v -0.037008 0.081306 0.045570
v -0.037008 0.081306 0.045570
v 0.012488 0.081307 0.067217
v 0.063030 0.081306 0.048679
v -0.050099 -0.221051 0.017507
v -0.044598 -0.222270 0.036684
v 0.078307 -0.221712 -0.045180
v -0.032469 -0.219809 -0.071626
v -0.000932 -0.219548 -0.088673
v 0.087000 -0.221678 -0.004014
v 0.084803 -0.221630 -0.031349
v -0.058190 -0.219327 -0.008685
v -0.047245 -0.219059 -0.049291
v 0.051644 -0.222160 0.058282
v -0.054608 -0.218773 -0.035605
v 0.008444 -0.219750 -0.088382
v 0.071064 -0.222138 0.040297
v 0.042583 -0.220749 -0.082306
v -0.009368 -0.219616 -0.084150
v -0.032469 -0.219809 -0.071626
v -0.000967 -0.222221 0.063691
v 0.064591 -0.221904 -0.068604
v -0.026137 -0.222249 0.055859
v 0.064591 -0.221904 -0.068604
v 0.012427 -0.222205 0.069549
v 0.071064 -0.222138 0.040297
v -0.044598 -0.222270 0.036684
v 0.077532 -0.221949 0.021639
v 0.026108 -0.222190 0.064531
v 0.034211 -0.220312 -0.087459
vt 0.308284 0.546575
vt 0.302439 0.615488
vt 0.297158 0.546371
vt 0.351339 0.536595
vt 0.352840 0.605342
vt 0.347805 0.604873
vt 0.344580 0.536322
vt 0.345890 0.604697
vt 0.340014 0.604648
vt 0.336851 0.536429
vt 0.335957 0.604776
vt 0.329922 0.536893
vt 0.519848 0.459516
vt 0.518444 0.524098
vt 0.513414 0.522667
vt 0.509090 0.457254
vt 0.504200 0.521622
vt 0.498190 0.522428
vt 0.493518 0.458277
vt 0.031159 0.506737
vt 0.028514 0.575880
vt 0.022788 0.575998
vt 0.019906 0.507092
vt 0.016616 0.575993
vt 0.008357 0.506743
vt 0.323558 0.546265
vt 0.317673 0.615472
vt 0.330704 0.605175
vt 0.032696 0.575558
vt 0.510324 0.521956
vt 0.297158 0.615405
vt 0.311785 0.615536
vt 0.305564 0.615526
vt 0.010785 0.575864
vt 0.006333 0.575535
vt 0.337875 0.604632
vt 0.493793 0.522977
vt 0.019743 0.576091
vt 0.321954 0.615428
vn 0.9975 0.0150 -0.0687
vn 0.6362 0.0468 -0.7701
vn 0.5495 0.6633 -0.5080
vn 0.9399 -0.2075 -0.2711
vn 0.1689 0.0233 -0.9854
vn 0.2187 0.6563 -0.7221
vn 0.0346 0.2668 -0.9631
vn -0.2930 0.0139 -0.9560
vn -0.1724 0.6563 -0.7346
vn -0.7700 0.0039 -0.6380
vn -0.5197 0.6629 -0.5389
vn -0.5197 0.6629 -0.5390
vn -0.2482 -0.2264 -0.9419
vn -0.9890 0.0175 -0.1467
vn -0.9922 0.0149 -0.1236
vn -0.9941 0.0165 0.1069
vn -0.9153 0.0093 0.4026
vn -0.7355 0.0161 0.6773
vn -0.7356 0.0161 0.6773
vn -0.3168 0.0687 0.9460
vn -0.1886 0.1182 0.9749
vn -0.0228 0.6665 0.7452
vn 0.4807 0.0201 0.8766
vn 0.6956 0.0161 0.7183
vn 0.6955 0.0161 0.7183
vn 0.9630 0.0963 0.2516
vn -0.6150 -0.1540 -0.7733
vn -0.6671 -0.3892 0.6353
vn -0.9462 0.0094 -0.3236
vn 0.7585 -0.1406 -0.6363
vn 0.9893 0.0277 0.1432
vn 0.9640 0.0289 -0.2642
vn 0.6630 0.0110 0.7486
vn 0.7881 -0.1776 0.5894
vn 0.0306 0.2548 -0.9665
vn -0.8930 -0.1571 0.4218
vn -0.1327 0.3507 0.9270
vn 0.8487 -0.4365 0.2986
usemtl Characters.004
s 1
f 4/1/1 16/2/2 3/3/3
f 5/4/3 33/5/4 27/6/5
f 27/6/5 6/7/6 5/4/3
f 6/7/6 39/8/7 25/9/8
f 25/9/8 7/10/9 6/7/6
f 7/10/9 28/11/10 8/12/11
f 9/13/12 29/14/13 22/15/14
f 22/15/14 1/16/15 9/13/12
f 1/16/15 21/17/16 14/18/17
f 14/18/17 10/19/18 1/16/15
f 11/20/19 32/21/20 30/22/21
f 30/22/21 12/23/22 11/20/19
f 12/23/22 38/24/23 2/25/24
f 13/26/25 37/27/26 4/1/1
f 28/11/10 17/28/27 8/12/11
f 15/29/28 32/21/20 11/20/19
f 24/30/29 21/17/16 1/16/15
f 16/2/2 31/31/30 3/3/3
f 19/32/31 20/33/32 4/1/1
f 23/34/33 26/35/34 2/25/24
f 38/24/23 23/34/33 2/25/24
f 37/27/26 19/32/31 4/1/1
f 4/1/1 20/33/32 16/2/2
f 27/6/5 39/8/7 6/7/6
f 25/9/8 18/36/35 7/10/9
f 7/10/9 18/36/35 28/11/10
f 22/15/14 24/30/29 1/16/15
f 14/18/17 36/37/36 10/19/18
f 30/22/21 34/38/37 12/23/22
f 12/23/22 34/38/37 38/24/23
f 13/26/25 35/39/38 37/27/26
