# Blender v2.92.0 OBJ File: 'Cabana.blend'
# www.blender.org
mtllib brazoDerWendy.mtl
o Characters.002_Circle.002
v -0.093321 -0.105282 0.042489
v -0.083925 -0.114288 0.043621
v -0.056704 -0.078353 0.038128
v -0.065501 -0.067727 0.036634
v -0.093321 -0.105282 0.042489
v -0.056704 -0.078353 0.038128
v -0.083925 -0.114288 0.043621
v -0.075964 -0.122282 0.036683
v -0.049229 -0.087829 0.030851
v -0.056704 -0.078353 0.038128
v -0.083925 -0.114288 0.043621
v -0.049229 -0.087829 0.030851
v -0.075964 -0.122282 0.036683
v -0.072479 -0.126210 0.024325
v -0.045799 -0.092424 0.017723
v -0.049229 -0.087829 0.030851
v -0.075964 -0.122282 0.036683
v -0.045799 -0.092424 0.017723
v -0.072479 -0.126210 0.024325
v -0.074802 -0.124571 0.011270
v -0.048123 -0.090625 0.003850
v -0.045799 -0.092424 0.017723
v -0.072479 -0.126210 0.024325
v -0.048123 -0.090625 0.003850
v -0.048123 -0.090625 0.003850
v -0.074802 -0.124571 0.011270
v -0.081870 -0.117950 0.002744
v -0.048123 -0.090625 0.003850
v -0.081870 -0.117950 0.002744
v -0.054943 -0.082915 -0.005662
v -0.063706 -0.072178 -0.007179
v -0.091441 -0.108984 0.001369
v -0.099402 -0.100990 0.008307
v -0.063706 -0.072178 -0.007179
v -0.099402 -0.100990 0.008307
v -0.071163 -0.062536 -0.000012
v -0.054943 -0.082915 -0.005662
v -0.081870 -0.117950 0.002744
v -0.091441 -0.108984 0.001369
v -0.054943 -0.082915 -0.005662
v -0.091441 -0.108984 0.001369
v -0.063706 -0.072178 -0.007179
v -0.100564 -0.098701 0.033720
v -0.093321 -0.105282 0.042489
v -0.065501 -0.067727 0.036634
v -0.072282 -0.059720 0.027196
v -0.100564 -0.098701 0.033720
v -0.065501 -0.067727 0.036634
v -0.074458 -0.057744 0.013158
v -0.102887 -0.097063 0.020663
v -0.100564 -0.098701 0.033720
v -0.074458 -0.057744 0.013158
v -0.100564 -0.098701 0.033720
v -0.072282 -0.059720 0.027196
v -0.071163 -0.062536 -0.000012
v -0.099402 -0.100990 0.008307
v -0.102887 -0.097063 0.020663
v -0.071163 -0.062536 -0.000012
v -0.102887 -0.097063 0.020663
v -0.074458 -0.057744 0.013158
v -0.091441 -0.108984 0.001369
v -0.081870 -0.117950 0.002744
v -0.083021 -0.117506 0.005206
v -0.091441 -0.108984 0.001369
v -0.083021 -0.117506 0.005206
v -0.090913 -0.109443 0.004153
v -0.081870 -0.117950 0.002744
v -0.074802 -0.124571 0.011270
v -0.076909 -0.123328 0.012864
v -0.081870 -0.117950 0.002744
v -0.076909 -0.123328 0.012864
v -0.083021 -0.117506 0.005206
v -0.076909 -0.123328 0.012864
v -0.074802 -0.124571 0.011270
v -0.072479 -0.126210 0.024325
v -0.076909 -0.123328 0.012864
v -0.072479 -0.126210 0.024325
v -0.074913 -0.124683 0.024200
v -0.074913 -0.124683 0.024200
v -0.072479 -0.126210 0.024325
v -0.075964 -0.122282 0.036683
v -0.077794 -0.121056 0.034884
v -0.074913 -0.124683 0.024200
v -0.075964 -0.122282 0.036683
v -0.077794 -0.121056 0.034884
v -0.075964 -0.122282 0.036683
v -0.083925 -0.114288 0.043621
v -0.084452 -0.113830 0.040836
v -0.077794 -0.121056 0.034884
v -0.083925 -0.114288 0.043621
v -0.084452 -0.113830 0.040836
v -0.083925 -0.114288 0.043621
v -0.093321 -0.105282 0.042489
v -0.092344 -0.105767 0.039783
v -0.084452 -0.113830 0.040836
v -0.093321 -0.105282 0.042489
v -0.098456 -0.099946 0.032126
v -0.092344 -0.105767 0.039783
v -0.093321 -0.105282 0.042489
v -0.098456 -0.099946 0.032126
v -0.093321 -0.105282 0.042489
v -0.100564 -0.098701 0.033720
v -0.102887 -0.097063 0.020663
v -0.100453 -0.098590 0.020789
v -0.098456 -0.099946 0.032126
v -0.102887 -0.097063 0.020663
v -0.098456 -0.099946 0.032126
v -0.100564 -0.098701 0.033720
v -0.099402 -0.100990 0.008307
v -0.097572 -0.102217 0.010105
v -0.100453 -0.098590 0.020789
v -0.102887 -0.097063 0.020663
v -0.099402 -0.100990 0.008307
v -0.100453 -0.098590 0.020789
v -0.091441 -0.108984 0.001369
v -0.090913 -0.109443 0.004153
v -0.097572 -0.102217 0.010105
v -0.099402 -0.100990 0.008307
v -0.091441 -0.108984 0.001369
v -0.097572 -0.102217 0.010105
v -0.005831 -0.010382 0.025533
v 0.000234 -0.021581 0.018431
v 0.003851 -0.015292 0.016084
v -0.005831 -0.010382 0.025533
v 0.003851 -0.015292 0.016084
v -0.002858 -0.004204 0.022413
v 0.000234 -0.021581 0.018431
v 0.003367 -0.026988 0.005031
v 0.008648 -0.020035 0.002744
v 0.000234 -0.021581 0.018431
v 0.008648 -0.020035 0.002744
v 0.003851 -0.015292 0.016084
v 0.003367 -0.026988 0.005031
v 0.001293 -0.025022 -0.009181
v 0.008542 -0.017205 -0.011261
v 0.008648 -0.020035 0.002744
v 0.003367 -0.026988 0.005031
v 0.008542 -0.017205 -0.011261
v 0.004680 -0.007458 -0.020973
v -0.004333 -0.016027 -0.019049
v -0.011205 -0.003365 -0.020854
v -0.001517 0.006719 -0.022806
v 0.004680 -0.007458 -0.020973
v -0.011205 -0.003365 -0.020854
v 0.008542 -0.017205 -0.011261
v 0.001293 -0.025022 -0.009181
v -0.004333 -0.016027 -0.019049
v 0.004680 -0.007458 -0.020973
v 0.008542 -0.017205 -0.011261
v -0.004333 -0.016027 -0.019049
v -0.017923 0.011371 0.013624
v -0.012686 0.001963 0.023357
v -0.008578 0.008312 0.019817
v -0.017923 0.011371 0.013624
v -0.008578 0.008312 0.019817
v -0.012450 0.019872 0.010577
v -0.012022 0.023351 -0.002734
v -0.019560 0.013662 -0.000593
v -0.017923 0.011371 0.013624
v -0.012022 0.023351 -0.002734
v -0.017923 0.011371 0.013624
v -0.012450 0.019872 0.010577
v -0.007710 0.018472 -0.015732
v -0.016981 0.007994 -0.013817
v -0.019560 0.013662 -0.000593
v -0.012022 0.023351 -0.002734
v -0.007710 0.018472 -0.015732
v -0.019560 0.013662 -0.000593
v -0.012686 0.001963 0.023357
v -0.005831 -0.010382 0.025533
v -0.002858 -0.004204 0.022413
v -0.012686 0.001963 0.023357
v -0.002858 -0.004204 0.022413
v -0.008578 0.008312 0.019817
v -0.001517 0.006719 -0.022806
v -0.011205 -0.003365 -0.020854
v -0.016981 0.007994 -0.013817
v -0.007710 0.018472 -0.015732
v -0.001517 0.006719 -0.022806
v -0.016981 0.007994 -0.013817
v -0.016981 0.007994 -0.013817
v -0.071163 -0.062536 -0.000012
v -0.074458 -0.057744 0.013158
v -0.016981 0.007994 -0.013817
v -0.074458 -0.057744 0.013158
v -0.019560 0.013662 -0.000593
v -0.019560 0.013662 -0.000593
v -0.074458 -0.057744 0.013158
v -0.072282 -0.059720 0.027196
v -0.019560 0.013662 -0.000593
v -0.072282 -0.059720 0.027196
v -0.017923 0.011371 0.013624
v -0.072282 -0.059720 0.027196
v -0.065501 -0.067727 0.036634
v -0.012686 0.001963 0.023357
v -0.017923 0.011371 0.013624
v -0.072282 -0.059720 0.027196
v -0.012686 0.001963 0.023357
v -0.004333 -0.016027 -0.019049
v -0.054943 -0.082915 -0.005662
v -0.063706 -0.072178 -0.007179
v -0.004333 -0.016027 -0.019049
v -0.063706 -0.072178 -0.007179
v -0.011205 -0.003365 -0.020854
v -0.011205 -0.003365 -0.020854
v -0.063706 -0.072178 -0.007179
v -0.071163 -0.062536 -0.000012
v -0.011205 -0.003365 -0.020854
v -0.071163 -0.062536 -0.000012
v -0.016981 0.007994 -0.013817
v 0.001293 -0.025022 -0.009181
v -0.048123 -0.090625 0.003850
v -0.054943 -0.082915 -0.005662
v 0.001293 -0.025022 -0.009181
v -0.054943 -0.082915 -0.005662
v -0.004333 -0.016027 -0.019049
v -0.045799 -0.092424 0.017723
v -0.048123 -0.090625 0.003850
v 0.001293 -0.025022 -0.009181
v 0.003367 -0.026988 0.005031
v -0.045799 -0.092424 0.017723
v 0.001293 -0.025022 -0.009181
v -0.049229 -0.087829 0.030851
v -0.045799 -0.092424 0.017723
v 0.003367 -0.026988 0.005031
v 0.000234 -0.021581 0.018431
v -0.049229 -0.087829 0.030851
v 0.003367 -0.026988 0.005031
v -0.056704 -0.078353 0.038128
v -0.049229 -0.087829 0.030851
v 0.000234 -0.021581 0.018431
v -0.005831 -0.010382 0.025533
v -0.056704 -0.078353 0.038128
v 0.000234 -0.021581 0.018431
v -0.065501 -0.067727 0.036634
v -0.056704 -0.078353 0.038128
v -0.005831 -0.010382 0.025533
v -0.012686 0.001963 0.023357
v -0.065501 -0.067727 0.036634
v -0.005831 -0.010382 0.025533
v -0.097572 -0.102217 0.010105
v -0.094068 -0.122600 0.024312
v -0.098130 -0.125893 0.029632
v -0.097572 -0.102217 0.010105
v -0.098130 -0.125893 0.029632
v -0.100453 -0.098590 0.020789
v -0.090913 -0.109443 0.004153
v -0.083021 -0.117506 0.005206
v -0.089224 -0.121730 0.016166
v -0.090913 -0.109443 0.004153
v -0.089224 -0.121730 0.016166
v -0.090677 -0.121021 0.019168
v -0.090913 -0.109443 0.004153
v -0.090677 -0.121021 0.019168
v -0.094068 -0.122600 0.024312
v -0.090913 -0.109443 0.004153
v -0.094068 -0.122600 0.024312
v -0.097572 -0.102217 0.010105
v -0.101409 -0.129523 0.033128
v -0.102481 -0.132205 0.033542
v -0.092344 -0.105767 0.039783
v -0.098456 -0.099946 0.032126
v -0.101409 -0.129523 0.033128
v -0.092344 -0.105767 0.039783
v -0.100904 -0.132998 0.030570
v -0.097489 -0.131560 0.025380
v -0.077794 -0.121056 0.034884
v -0.100904 -0.132998 0.030570
v -0.077794 -0.121056 0.034884
v -0.084452 -0.113830 0.040836
v -0.076909 -0.123328 0.012864
v -0.074913 -0.124683 0.024200
v -0.093546 -0.128302 0.020018
v -0.090394 -0.124476 0.016527
v -0.076909 -0.123328 0.012864
v -0.093546 -0.128302 0.020018
v -0.083021 -0.117506 0.005206
v -0.076909 -0.123328 0.012864
v -0.090394 -0.124476 0.016527
v -0.089224 -0.121730 0.016166
v -0.083021 -0.117506 0.005206
v -0.090394 -0.124476 0.016527
v -0.093546 -0.128302 0.020018
v -0.074913 -0.124683 0.024200
v -0.077794 -0.121056 0.034884
v -0.097489 -0.131560 0.025380
v -0.093546 -0.128302 0.020018
v -0.077794 -0.121056 0.034884
v -0.102481 -0.132205 0.033542
v -0.100904 -0.132998 0.030570
v -0.084452 -0.113830 0.040836
v -0.092344 -0.105767 0.039783
v -0.102481 -0.132205 0.033542
v -0.084452 -0.113830 0.040836
v -0.098130 -0.125893 0.029632
v -0.101409 -0.129523 0.033128
v -0.098456 -0.099946 0.032126
v -0.100453 -0.098590 0.020789
v -0.098130 -0.125893 0.029632
v -0.098456 -0.099946 0.032126
vt 0.707449 0.940592
vt 0.706560 0.936744
vt 0.720175 0.937236
vt 0.721597 0.941238
vt 0.707449 0.940592
vt 0.720175 0.937236
vt 0.706560 0.936744
vt 0.706833 0.932657
vt 0.720064 0.932929
vt 0.720175 0.937236
vt 0.706560 0.936744
vt 0.720064 0.932929
vt 0.332879 0.930152
vt 0.333582 0.926515
vt 0.347079 0.926064
vt 0.346481 0.929945
vt 0.332879 0.930152
vt 0.347079 0.926064
vt 0.333582 0.926515
vt 0.333959 0.922285
vt 0.347526 0.921579
vt 0.347079 0.926064
vt 0.333582 0.926515
vt 0.347526 0.921579
vt 0.347526 0.921579
vt 0.333959 0.922285
vt 0.333906 0.919165
vt 0.347526 0.921579
vt 0.333906 0.919165
vt 0.347793 0.918164
vt 0.219390 0.661326
vt 0.233164 0.662930
vt 0.233462 0.666605
vt 0.219390 0.661326
vt 0.233462 0.666605
vt 0.219269 0.665146
vt 0.221066 0.657212
vt 0.234292 0.658888
vt 0.233164 0.662930
vt 0.221066 0.657212
vt 0.233164 0.662930
vt 0.219390 0.661326
vt 0.909897 0.183988
vt 0.906997 0.183860
vt 0.906572 0.169479
vt 0.909623 0.169188
vt 0.909897 0.183988
vt 0.906572 0.169479
vt 0.914081 0.168633
vt 0.914062 0.183585
vt 0.909897 0.183988
vt 0.914081 0.168633
vt 0.909897 0.183988
vt 0.909623 0.169188
vt 0.918208 0.168020
vt 0.917901 0.182804
vt 0.914062 0.183585
vt 0.918208 0.168020
vt 0.914062 0.183585
vt 0.914081 0.168633
vt 0.769653 0.784149
vt 0.765639 0.785298
vt 0.765680 0.784668
vt 0.769653 0.784149
vt 0.765680 0.784668
vt 0.769105 0.783562
vt 0.765639 0.785298
vt 0.761749 0.784364
vt 0.762264 0.783812
vt 0.765639 0.785298
vt 0.762264 0.783812
vt 0.765680 0.784668
vt 0.762264 0.783812
vt 0.761749 0.784364
vt 0.759307 0.781509
vt 0.762264 0.783812
vt 0.759307 0.781509
vt 0.760160 0.781320
vt 0.760160 0.781320
vt 0.759307 0.781509
vt 0.759307 0.777898
vt 0.760173 0.778144
vt 0.760160 0.781320
vt 0.759307 0.777898
vt 0.760173 0.778144
vt 0.759307 0.777898
vt 0.761749 0.774910
vt 0.762297 0.775497
vt 0.760173 0.778144
vt 0.761749 0.774910
vt 0.762297 0.775497
vt 0.761749 0.774910
vt 0.765701 0.773687
vt 0.765722 0.774391
vt 0.762297 0.775497
vt 0.765701 0.773687
vt 0.769139 0.775247
vt 0.765722 0.774391
vt 0.765701 0.773687
vt 0.769139 0.775247
vt 0.765701 0.773687
vt 0.769653 0.774696
vt 0.772096 0.777551
vt 0.771242 0.777739
vt 0.769139 0.775247
vt 0.772096 0.777551
vt 0.769139 0.775247
vt 0.769653 0.774696
vt 0.772096 0.781161
vt 0.771229 0.780915
vt 0.771242 0.777739
vt 0.772096 0.777551
vt 0.772096 0.781161
vt 0.771242 0.777739
vt 0.769653 0.784149
vt 0.769105 0.783562
vt 0.771229 0.780915
vt 0.772096 0.781161
vt 0.769653 0.784149
vt 0.771229 0.780915
vt 0.746145 0.938095
vt 0.745378 0.933780
vt 0.747780 0.933996
vt 0.746145 0.938095
vt 0.747780 0.933996
vt 0.748531 0.938362
vt 0.372212 0.929048
vt 0.372591 0.925065
vt 0.375362 0.924669
vt 0.372212 0.929048
vt 0.375362 0.924669
vt 0.374443 0.928530
vt 0.372591 0.925065
vt 0.373150 0.920489
vt 0.376566 0.920279
vt 0.375362 0.924669
vt 0.372591 0.925065
vt 0.376566 0.920279
vt 0.192843 0.653238
vt 0.196368 0.654300
vt 0.193941 0.658216
vt 0.189963 0.657223
vt 0.192843 0.653238
vt 0.193941 0.658216
vt 0.376566 0.920279
vt 0.373150 0.920489
vt 0.373980 0.917035
vt 0.377972 0.916984
vt 0.376566 0.920279
vt 0.373980 0.917035
vt 0.909526 0.141407
vt 0.906490 0.142366
vt 0.907246 0.139953
vt 0.909526 0.141407
vt 0.907246 0.139953
vt 0.910009 0.138270
vt 0.914081 0.136815
vt 0.914008 0.140649
vt 0.909526 0.141407
vt 0.914081 0.136815
vt 0.909526 0.141407
vt 0.910009 0.138270
vt 0.918111 0.135971
vt 0.918208 0.140378
vt 0.914008 0.140649
vt 0.914081 0.136815
vt 0.918111 0.135971
vt 0.914008 0.140649
vt 0.748376 0.941935
vt 0.746145 0.938095
vt 0.748531 0.938362
vt 0.748376 0.941935
vt 0.748531 0.938362
vt 0.751036 0.941936
vt 0.189963 0.657223
vt 0.193941 0.658216
vt 0.193174 0.661864
vt 0.189162 0.661050
vt 0.189963 0.657223
vt 0.193174 0.661864
vt 0.918208 0.140378
vt 0.918208 0.168020
vt 0.914081 0.168633
vt 0.918208 0.140378
vt 0.914081 0.168633
vt 0.914008 0.140649
vt 0.914008 0.140649
vt 0.914081 0.168633
vt 0.909623 0.169188
vt 0.914008 0.140649
vt 0.909623 0.169188
vt 0.909526 0.141407
vt 0.909623 0.169188
vt 0.906572 0.169479
vt 0.906490 0.142366
vt 0.909526 0.141407
vt 0.909623 0.169188
vt 0.906490 0.142366
vt 0.196368 0.654300
vt 0.221066 0.657212
vt 0.219390 0.661326
vt 0.196368 0.654300
vt 0.219390 0.661326
vt 0.193941 0.658216
vt 0.193941 0.658216
vt 0.219390 0.661326
vt 0.219269 0.665146
vt 0.193941 0.658216
vt 0.219269 0.665146
vt 0.193174 0.661864
vt 0.373150 0.920489
vt 0.347526 0.921579
vt 0.347793 0.918164
vt 0.373150 0.920489
vt 0.347793 0.918164
vt 0.373980 0.917035
vt 0.347079 0.926064
vt 0.347526 0.921579
vt 0.373150 0.920489
vt 0.372591 0.925065
vt 0.347079 0.926064
vt 0.373150 0.920489
vt 0.346481 0.929945
vt 0.347079 0.926064
vt 0.372591 0.925065
vt 0.372212 0.929048
vt 0.346481 0.929945
vt 0.372591 0.925065
vt 0.720175 0.937236
vt 0.720064 0.932929
vt 0.745378 0.933780
vt 0.746145 0.938095
vt 0.720175 0.937236
vt 0.745378 0.933780
vt 0.721597 0.941238
vt 0.720175 0.937236
vt 0.746145 0.938095
vt 0.748376 0.941935
vt 0.721597 0.941238
vt 0.746145 0.938095
vt 0.938949 0.086133
vt 0.931409 0.083942
vt 0.930394 0.081865
vt 0.938949 0.086133
vt 0.930394 0.081865
vt 0.939260 0.084025
vt 0.936756 0.088425
vt 0.933519 0.090026
vt 0.931924 0.086499
vt 0.936756 0.088425
vt 0.931924 0.086499
vt 0.931992 0.085709
vt 0.936756 0.088425
vt 0.931992 0.085709
vt 0.931409 0.083942
vt 0.936756 0.088425
vt 0.931409 0.083942
vt 0.938949 0.086133
vt 0.928074 0.785079
vt 0.928519 0.784692
vt 0.924505 0.791187
vt 0.921518 0.789319
vt 0.928074 0.785079
vt 0.924505 0.791187
vt 0.029155 0.659078
vt 0.029646 0.657167
vt 0.037335 0.657570
vt 0.029155 0.659078
vt 0.037335 0.657570
vt 0.037581 0.659078
vt 0.034667 0.651232
vt 0.036221 0.654572
vt 0.030552 0.654990
vt 0.031571 0.653363
vt 0.034667 0.651232
vt 0.030552 0.654990
vt 0.933519 0.090026
vt 0.930474 0.090323
vt 0.931233 0.085963
vt 0.931924 0.086499
vt 0.933519 0.090026
vt 0.931233 0.085963
vt 0.030552 0.654990
vt 0.036221 0.654572
vt 0.037335 0.657570
vt 0.029646 0.657167
vt 0.030552 0.654990
vt 0.037335 0.657570
vt 0.928519 0.784692
vt 0.928901 0.783968
vt 0.928104 0.791190
vt 0.924505 0.791187
vt 0.928519 0.784692
vt 0.928104 0.791190
vt 0.927716 0.785029
vt 0.928074 0.785079
vt 0.921518 0.789319
vt 0.920283 0.786300
vt 0.927716 0.785029
vt 0.921518 0.789319
vn -0.6431 -0.2746 0.7148
vn -0.2541 -0.5570 0.7907
vn 0.2760 -0.0439 0.9602
vn -0.2395 0.3365 0.9107
vn -0.6431 -0.2747 0.7148
vn 0.2758 -0.0439 0.9602
vn -0.2542 -0.5568 0.7908
vn 0.0866 -0.8258 0.5572
vn 0.6649 -0.3949 0.6340
vn 0.2757 -0.0439 0.9602
vn -0.2542 -0.5569 0.7907
vn 0.6649 -0.3950 0.6339
vn 0.0866 -0.8259 0.5571
vn 0.2304 -0.9668 0.1104
vn 0.7969 -0.5971 0.0921
vn 0.6648 -0.3949 0.6341
vn 0.0865 -0.8258 0.5573
vn 0.7969 -0.5970 0.0921
vn 0.2306 -0.9668 0.1105
vn 0.1175 -0.9188 -0.3767
vn 0.6345 -0.5930 -0.4957
vn 0.7970 -0.5969 0.0923
vn 0.2306 -0.9667 0.1105
vn 0.6345 -0.5930 -0.4958
vn -0.2070 -0.7015 -0.6819
vn 0.6345 -0.5929 -0.4958
vn -0.2069 -0.7015 -0.6820
vn 0.2151 -0.3611 -0.9074
vn -0.2979 0.0210 -0.9544
vn -0.6025 -0.4180 -0.6799
vn -0.8916 -0.1924 -0.4100
vn -0.2980 0.0209 -0.9543
vn -0.8915 -0.1924 -0.4100
vn -0.6781 0.3799 -0.6292
vn 0.2154 -0.3614 -0.9072
vn -0.2066 -0.7017 -0.6819
vn -0.6024 -0.4183 -0.6799
vn 0.2154 -0.3613 -0.9072
vn -0.6024 -0.4180 -0.6800
vn -0.2981 0.0211 -0.9543
vn -0.9149 -0.1075 0.3892
vn -0.6432 -0.2747 0.7147
vn -0.2394 0.3364 0.9108
vn -0.6507 0.5745 0.4965
vn -0.8067 0.5838 -0.0916
vn -0.9959 -0.0871 -0.0243
vn -0.9148 -0.1076 0.3892
vn -0.8067 0.5839 -0.0915
vn -0.9149 -0.1074 0.3892
vn -0.6507 0.5744 0.4966
vn -0.6779 0.3797 -0.6295
vn -0.8915 -0.1926 -0.4101
vn -0.9959 -0.0871 -0.0245
vn -0.6779 0.3799 -0.6294
vn -0.8068 0.5838 -0.0913
vn -0.6025 -0.4178 -0.6801
vn -0.2070 -0.7013 -0.6821
vn -0.5999 -0.7401 -0.3039
vn -0.6023 -0.4180 -0.6801
vn -0.5998 -0.7402 -0.3039
vn -0.7213 -0.6647 -0.1946
vn 0.1175 -0.9188 -0.3768
vn -0.3637 -0.8964 -0.2534
vn -0.2068 -0.7014 -0.6821
vn -0.3636 -0.8965 -0.2533
vn -0.5999 -0.7402 -0.3038
vn -0.3639 -0.8963 -0.2532
vn 0.1172 -0.9189 -0.3767
vn 0.2305 -0.9668 0.1106
vn -0.3636 -0.8964 -0.2535
vn 0.2308 -0.9667 0.1104
vn -0.2380 -0.9712 0.0061
vn -0.2380 -0.9712 0.0060
vn 0.0865 -0.8259 0.5572
vn -0.2752 -0.9231 0.2686
vn -0.2379 -0.9713 0.0061
vn 0.0867 -0.8258 0.5572
vn -0.2754 -0.9230 0.2687
vn -0.2540 -0.5569 0.7908
vn -0.4494 -0.7740 0.4460
vn -0.2753 -0.9231 0.2684
vn -0.2543 -0.5570 0.7906
vn -0.4495 -0.7738 0.4462
vn -0.2541 -0.5569 0.7907
vn -0.7402 -0.5711 0.3549
vn -0.4495 -0.7739 0.4462
vn -0.6431 -0.2749 0.7147
vn -0.8414 -0.5379 0.0524
vn -0.7402 -0.5710 0.3550
vn -0.6431 -0.2748 0.7148
vn -0.8414 -0.5378 0.0524
vn -0.6432 -0.2745 0.7148
vn -0.9148 -0.1074 0.3893
vn -0.9959 -0.0869 -0.0244
vn -0.7839 -0.6151 -0.0851
vn -0.9959 -0.0870 -0.0243
vn -0.8414 -0.5379 0.0522
vn -0.9149 -0.1073 0.3892
vn -0.8916 -0.1926 -0.4099
vn -0.7507 -0.6503 -0.1164
vn -0.7838 -0.6152 -0.0851
vn -0.9959 -0.0869 -0.0245
vn -0.8916 -0.1923 -0.4100
vn -0.7839 -0.6150 -0.0852
vn -0.6024 -0.4181 -0.6799
vn -0.7214 -0.6646 -0.1946
vn -0.7508 -0.6502 -0.1164
vn -0.8916 -0.1925 -0.4099
vn -0.6024 -0.4178 -0.6801
vn 0.3927 0.0467 0.9185
vn 0.7198 -0.3187 0.6167
vn 0.5301 -0.4971 0.6869
vn 0.3928 0.0468 0.9185
vn 0.5302 -0.4971 0.6869
vn 0.2395 -0.0566 0.9692
vn 0.7198 -0.3187 0.6168
vn 0.8120 -0.5720 0.1159
vn 0.5865 -0.8026 0.1088
vn 0.7197 -0.3186 0.6168
vn 0.5864 -0.8027 0.1086
vn 0.5300 -0.4970 0.6870
vn 0.8120 -0.5720 0.1160
vn 0.6219 -0.6159 -0.4837
vn 0.4273 -0.7405 -0.5187
vn 0.5864 -0.8027 0.1088
vn 0.4272 -0.7405 -0.5187
vn 0.1313 -0.3597 -0.9238
vn 0.1888 -0.3619 -0.9129
vn -0.2921 0.0535 -0.9549
vn -0.2162 0.1049 -0.9707
vn 0.1312 -0.3597 -0.9238
vn 0.4273 -0.7406 -0.5186
vn 0.6219 -0.6159 -0.4836
vn 0.1884 -0.3617 -0.9131
vn 0.1310 -0.3596 -0.9239
vn 0.4273 -0.7406 -0.5187
vn 0.1885 -0.3617 -0.9130
vn -0.6011 0.6097 0.5166
vn -0.1051 0.4102 0.9059
vn -0.3044 0.3455 0.8877
vn -0.6011 0.6097 0.5167
vn -0.3042 0.3455 0.8877
vn -0.7321 0.5242 0.4351
vn -0.7882 0.5837 -0.1951
vn -0.7966 0.5942 -0.1114
vn -0.6010 0.6096 0.5168
vn -0.7882 0.5837 -0.1952
vn -0.6011 0.6095 0.5169
vn -0.7321 0.5241 0.4352
vn -0.5595 0.4593 -0.6899
vn -0.6506 0.4099 -0.6393
vn -0.7966 0.5942 -0.1113
vn -0.7882 0.5837 -0.1949
vn -0.7965 0.5943 -0.1114
vn -0.1053 0.4103 0.9059
vn 0.3928 0.0465 0.9185
vn 0.2395 -0.0567 0.9692
vn -0.1053 0.4104 0.9058
vn 0.2396 -0.0566 0.9692
vn -0.3043 0.3456 0.8876
vn -0.2163 0.1048 -0.9707
vn -0.2920 0.0534 -0.9549
vn -0.6506 0.4101 -0.6392
vn -0.5596 0.4595 -0.6897
vn -0.2161 0.1047 -0.9707
vn -0.6506 0.4100 -0.6392
vn -0.6780 0.3797 -0.6294
vn -0.8067 0.5838 -0.0915
vn -0.6505 0.4099 -0.6394
vn -0.8067 0.5838 -0.0913
vn -0.7965 0.5943 -0.1113
vn -0.7966 0.5941 -0.1115
vn -0.7965 0.5942 -0.1116
vn -0.6011 0.6097 0.5168
vn -0.2393 0.3364 0.9108
vn -0.1052 0.4103 0.9059
vn -0.6507 0.5745 0.4964
vn 0.1887 -0.3619 -0.9129
vn 0.1887 -0.3618 -0.9130
vn -0.2919 0.0535 -0.9549
vn -0.2920 0.0535 -0.9549
vn -0.6781 0.3798 -0.6293
vn -0.6506 0.4099 -0.6392
vn 0.6218 -0.6159 -0.4838
vn 0.6346 -0.5929 -0.4958
vn 0.2152 -0.3612 -0.9073
vn 0.6218 -0.6159 -0.4837
vn 0.2151 -0.3612 -0.9073
vn 0.1885 -0.3617 -0.9131
vn 0.7969 -0.5970 0.0923
vn 0.6219 -0.6158 -0.4837
vn 0.6649 -0.3950 0.6340
vn 0.8121 -0.5720 0.1159
vn 0.7197 -0.3187 0.6169
vn 0.6650 -0.3950 0.6339
vn 0.3927 0.0466 0.9185
vn 0.7198 -0.3186 0.6168
vn 0.2759 -0.0440 0.9602
vn 0.3930 0.0467 0.9184
vn -0.1054 0.4104 0.9058
vn -0.2397 0.3365 0.9107
vn 0.3928 0.0467 0.9184
vn -0.7509 -0.6501 -0.1163
vn 0.1548 -0.8850 -0.4391
vn -0.2490 -0.9081 -0.3366
vn -0.7508 -0.6503 -0.1164
vn -0.7837 -0.6152 -0.0851
vn -0.7215 -0.6646 -0.1945
vn -0.5998 -0.7403 -0.3038
vn -0.3750 -0.3426 -0.8614
vn -0.7215 -0.6646 -0.1943
vn -0.3752 -0.3425 -0.8614
vn 0.3394 -0.1640 -0.9262
vn -0.7214 -0.6647 -0.1944
vn 0.3397 -0.1640 -0.9261
vn 0.1549 -0.8850 -0.4390
vn -0.7508 -0.6502 -0.1162
vn -0.3221 -0.9045 0.2796
vn 0.2482 -0.9687 -0.0096
vn -0.7403 -0.5710 0.3548
vn -0.8413 -0.5380 0.0523
vn -0.3222 -0.9044 0.2796
vn -0.7402 -0.5711 0.3548
vn 0.1014 -0.9942 -0.0366
vn 0.1161 -0.9174 -0.3807
vn -0.2753 -0.9231 0.2685
vn 0.1015 -0.9942 -0.0364
vn -0.4496 -0.7739 0.4461
vn -0.3637 -0.8964 -0.2533
vn -0.2382 -0.9712 0.0060
vn 0.0731 -0.6631 -0.7449
vn 0.0324 -0.3983 -0.9167
vn -0.3636 -0.8964 -0.2533
vn 0.0732 -0.6631 -0.7449
vn -0.6000 -0.7401 -0.3036
vn -0.3638 -0.8964 -0.2533
vn 0.0322 -0.3985 -0.9166
vn -0.3750 -0.3428 -0.8613
vn 0.0324 -0.3984 -0.9166
vn 0.0732 -0.6632 -0.7449
vn -0.2754 -0.9230 0.2686
vn 0.1161 -0.9174 -0.3808
vn 0.0730 -0.6631 -0.7449
vn -0.2753 -0.9230 0.2687
vn 0.2482 -0.9686 -0.0099
vn 0.1014 -0.9942 -0.0368
vn -0.7403 -0.5710 0.3549
vn 0.2482 -0.9687 -0.0097
vn -0.2491 -0.9081 -0.3366
vn -0.7838 -0.6151 -0.0852
vn -0.2490 -0.9082 -0.3365
vn -0.8414 -0.5379 0.0523
usemtl Characters.002
s 1
f 1/1/1 2/2/2 3/3/3
f 4/4/4 5/5/5 6/6/6
f 7/7/7 8/8/8 9/9/9
f 10/10/10 11/11/11 12/12/12
f 13/13/13 14/14/14 15/15/15
f 16/16/16 17/17/17 18/18/18
f 19/19/19 20/20/20 21/21/21
f 22/22/22 23/23/23 24/24/24
f 25/25/21 26/26/20 27/27/25
f 28/28/26 29/29/27 30/30/28
f 31/31/29 32/32/30 33/33/31
f 34/34/32 35/35/33 36/36/34
f 37/37/35 38/38/36 39/39/37
f 40/40/38 41/41/39 42/42/40
f 43/43/41 44/44/42 45/45/43
f 46/46/44 47/47/41 48/48/43
f 49/49/45 50/50/46 51/51/47
f 52/52/48 53/53/49 54/54/50
f 55/55/51 56/56/52 57/57/53
f 58/58/54 59/59/46 60/60/55
f 61/61/56 62/62/57 63/63/58
f 64/64/59 65/65/60 66/66/61
f 67/67/27 68/68/62 69/69/63
f 70/70/64 71/71/65 72/72/66
f 73/73/67 74/74/68 75/75/69
f 76/76/70 77/77/71 78/78/72
f 79/79/73 80/80/19 81/81/74
f 82/82/75 83/83/76 84/84/77
f 85/85/78 86/86/17 87/87/79
f 88/88/80 89/89/81 90/90/82
f 91/91/83 92/92/84 93/93/5
f 94/94/85 95/95/86 96/96/87
f 97/97/88 98/98/89 99/99/90
f 100/100/91 101/101/92 102/102/93
f 103/103/94 104/104/95 105/105/91
f 106/106/96 107/107/97 108/108/98
f 109/109/99 110/110/100 111/111/101
f 112/112/102 113/113/103 114/114/104
f 115/115/105 116/116/106 117/117/107
f 118/118/108 119/119/109 120/120/107
f 121/121/110 122/122/111 123/123/112
f 124/124/113 125/125/114 126/126/115
f 127/127/116 128/128/117 129/129/118
f 130/130/119 131/131/120 132/132/121
f 133/133/122 134/134/123 135/135/124
f 136/136/125 137/137/122 138/138/126
f 139/139/127 140/140/128 141/141/129
f 142/142/130 143/143/131 144/144/129
f 145/145/132 146/146/133 147/147/134
f 148/148/135 149/149/136 150/150/137
f 151/151/138 152/152/139 153/153/140
f 154/154/141 155/155/142 156/156/143
f 157/157/144 158/158/145 159/159/146
f 160/160/147 161/161/148 162/162/149
f 163/163/150 164/164/151 165/165/152
f 166/166/153 167/167/150 168/168/154
f 169/169/155 170/170/156 171/171/157
f 172/172/158 173/173/159 174/174/160
f 175/175/161 176/176/162 177/177/163
f 178/178/164 179/179/165 180/180/166
f 181/181/151 182/182/167 183/183/168
f 184/184/169 185/185/170 186/186/171
f 187/187/172 188/188/45 189/189/50
f 190/190/173 191/191/50 192/192/174
f 193/193/44 194/194/175 195/195/176
f 196/196/141 197/197/177 198/198/176
f 199/199/178 200/200/38 201/201/29
f 202/202/179 203/203/32 204/204/162
f 205/205/180 206/206/32 207/207/34
f 208/208/181 209/209/182 210/210/183
f 211/211/184 212/212/185 213/213/186
f 214/214/187 215/215/188 216/216/189
f 217/217/190 218/218/24 219/219/184
f 220/220/122 221/221/22 222/222/191
f 223/223/192 224/224/15 225/225/193
f 226/226/194 227/227/16 228/228/193
f 229/229/10 230/230/195 231/231/111
f 232/232/196 233/233/10 234/234/197
f 235/235/4 236/236/198 237/237/199
f 238/238/200 239/239/201 240/240/202
f 241/241/203 242/242/204 243/243/205
f 244/244/206 245/245/205 246/246/207
f 247/247/208 248/248/209 249/249/210
f 250/250/211 251/251/212 252/252/213
f 253/253/214 254/254/215 255/255/216
f 256/256/214 257/257/204 258/258/217
f 259/259/218 260/260/219 261/261/220
f 262/262/221 263/263/222 264/264/223
f 265/265/224 266/266/225 267/267/226
f 268/268/227 269/269/78 270/270/228
f 271/271/229 272/272/230 273/273/231
f 274/274/232 275/275/233 276/276/234
f 277/277/235 278/278/236 279/279/237
f 280/280/238 281/281/209 282/282/239
f 283/283/240 284/284/73 285/285/241
f 286/286/242 287/287/243 288/288/244
f 289/289/245 290/290/246 291/291/228
f 292/292/247 293/293/248 294/294/228
f 295/295/249 296/296/222 297/297/221
f 298/298/250 299/299/251 300/300/252
