# Blender v2.92.0 OBJ File: ''
# www.blender.org
mtllib crisDerHe.mtl
o Glass.001_Malla.001
v -0.238667 0.036529 0.233963
v -0.077142 0.027721 0.232356
v -0.080431 0.027721 -0.098452
v -0.241957 0.036529 -0.096846
v -0.059768 -0.001957 0.078211
v 0.050770 -0.020221 0.077111
v 0.050543 -0.020221 0.054218
v -0.059995 -0.001957 0.055317
v 0.084384 0.001032 0.230750
v 0.245909 -0.069662 0.229143
v 0.242619 -0.069663 -0.101666
v 0.081094 0.001032 -0.100059
v -0.082077 0.027721 -0.263857
v -0.243603 0.036529 -0.262250
v 0.079448 0.001032 -0.265464
v 0.240973 -0.069663 -0.267070
v -0.053179 0.023508 0.078145
v -0.053406 0.023508 0.055252
v 0.057359 0.005244 0.077045
v 0.057132 0.005244 0.054152
vt 0.990000 0.010000
vt 0.663333 0.010000
vt 0.663334 0.663334
vt 0.990000 0.663333
vt 0.625101 0.314060
vt 0.401550 0.314060
vt 0.401550 0.359273
vt 0.625101 0.359273
vt 0.336667 0.010000
vt 0.010000 0.010000
vt 0.010000 0.663334
vt 0.336667 0.663334
vt 0.663334 0.990000
vt 0.990000 0.990000
vt 0.336667 0.990000
vt 0.010000 0.990000
vt 0.611776 0.314060
vt 0.611776 0.359273
vt 0.388225 0.314060
vt 0.388225 0.359273
vn 0.0544 0.9985 -0.0005
vn 0.1089 0.9941 -0.0011
vn 0.6813 0.4471 -0.5796
vn -0.4492 0.6814 -0.5778
vn -0.4377 0.6814 0.5866
vn 0.6927 0.4471 0.5659
vn 0.2842 0.9588 -0.0028
vn 0.4009 0.9161 -0.0040
vn 0.4447 0.8329 -0.3294
vn 0.4512 0.8329 0.3205
vn -0.1445 0.9498 -0.2776
vn -0.1390 0.9498 0.2804
usemtl cristal.002
s 1
f 1/1/1 2/2/2 3/3/2 4/4/1
f 5/5/3 6/6/4 7/7/5 8/8/6
f 9/9/7 10/10/8 11/11/8 12/12/7
f 3/3/2 13/13/2 14/14/1 4/4/1
f 12/12/7 15/15/7 13/13/2 3/3/2
f 11/11/8 16/16/8 15/15/7 12/12/7
f 3/3/2 2/2/2 17/17/9 18/18/10
f 2/2/2 9/9/7 19/19/11 17/17/9
f 9/9/7 12/12/7 20/20/12 19/19/11
f 12/12/7 3/3/2 18/18/10 20/20/12
f 18/18/10 17/17/9 5/5/3 8/8/6
f 17/17/9 19/19/11 6/6/4 5/5/3
f 19/19/11 20/20/12 7/7/5 6/6/4
f 20/20/12 18/18/10 8/8/6 7/7/5
