# Blender v2.92.0 OBJ File: ''
# www.blender.org
mtllib pieDerTio.mtl
o Characters_Circle.005
v 0.057728 -0.295614 -0.012810
v -0.002190 -0.295614 -0.098382
v -0.018334 -0.295614 -0.095828
v 0.049807 -0.295614 0.001487
v 0.022911 -0.295614 -0.096679
v 0.065383 -0.295614 -0.036023
v 0.063173 -0.431385 -0.037335
v 0.023467 -0.431385 -0.094163
v 0.039120 -0.431385 -0.090587
v 0.063908 -0.431385 -0.055164
v 0.039511 -0.295614 -0.092887
v 0.066158 -0.295614 -0.054832
v 0.048869 -0.431385 -0.083089
v 0.062749 -0.295614 -0.066759
v 0.050224 -0.295614 -0.084648
v -0.017300 -0.424858 -0.096551
v -0.001157 -0.424858 -0.099104
v -0.001011 -0.424858 -0.095823
v -0.016047 -0.424858 -0.093445
v 0.023944 -0.424858 -0.097401
v 0.023467 -0.424858 -0.094163
v 0.040544 -0.424858 -0.093610
v 0.039120 -0.424858 -0.090587
v 0.051256 -0.424858 -0.085371
v 0.048869 -0.424858 -0.083089
v 0.063782 -0.424858 -0.067482
v 0.063908 -0.424858 -0.055164
v 0.067191 -0.424858 -0.055555
v 0.066416 -0.424858 -0.036745
v 0.063173 -0.424858 -0.037335
v 0.055757 -0.424858 -0.014845
v 0.058761 -0.424858 -0.013532
v 0.058295 -0.066890 0.028465
v -0.085739 -0.003865 -0.034552
v -0.066158 -0.036950 0.028730
v -0.066247 -0.043467 -0.099233
v -0.063085 -0.295793 0.025989
v -0.004274 -0.284774 0.047539
v -0.066158 -0.036950 0.028730
v 0.055207 -0.305016 0.025380
v -0.085769 -0.276777 -0.035324
v -0.063085 -0.295793 -0.096638
v -0.063085 -0.295793 0.025989
v -0.004275 -0.284773 -0.118189
v 0.058296 -0.089251 -0.098676
v 0.055207 -0.305016 -0.096029
v -0.063085 -0.295793 -0.096638
v -0.066247 -0.043467 -0.099233
v -0.068487 -0.230629 -0.035324
v -0.051393 -0.233882 -0.090287
v 0.000603 -0.237613 -0.108621
v -0.051393 -0.233882 0.019637
v 0.000603 -0.237613 0.037972
v -0.003663 -0.301937 0.039314
v -0.075279 -0.296639 -0.035324
v -0.003663 -0.301937 -0.109963
v -0.056160 -0.297049 0.019710
v 0.000603 -0.237613 0.037972
v -0.003663 -0.301937 0.039314
v -0.051393 -0.233882 0.019637
v 0.000603 -0.237613 -0.108621
v -0.056160 -0.297049 -0.090359
v -0.003663 -0.301937 -0.109963
v -0.051393 -0.233882 -0.090287
v 0.068383 -0.424859 -0.057041
v 0.065175 -0.295614 -0.060906
v 0.065219 -0.295614 -0.036179
v 0.051936 -0.295614 -0.000653
v 0.022133 -0.295614 0.020865
v 0.035503 -0.347839 0.011504
v 0.020777 -0.366244 0.023430
v -0.083323 -0.333278 -0.011865
v -0.060624 -0.295614 -0.014021
v -0.063448 -0.295614 -0.030224
v -0.195956 -0.347463 0.129744
v -0.216655 -0.346587 0.100670
v -0.217484 -0.369367 0.148358
v -0.007955 -0.363759 0.040523
v -0.000943 -0.394561 0.036655
v -0.256527 -0.398502 0.105926
v -0.223043 -0.350355 0.078318
v -0.086124 -0.417947 -0.047771
v -0.093470 -0.368808 -0.042679
v -0.049954 -0.367658 -0.075243
v -0.093470 -0.368808 -0.042679
v -0.093129 -0.352487 -0.027459
v -0.049954 -0.367658 -0.075243
v -0.041920 -0.424377 0.061730
v -0.146707 -0.424567 0.144118
v -0.245214 -0.424625 0.146924
v -0.078395 -0.424266 0.097854
v -0.089869 -0.417643 0.111164
v -0.061046 -0.333101 0.024280
v -0.076489 -0.343205 0.042775
v -0.037902 -0.335063 0.036471
v -0.098130 -0.342929 0.008208
v -0.183193 -0.399998 0.171557
v -0.165571 -0.356934 0.013212
v -0.129102 -0.395106 -0.024275
v -0.165571 -0.356934 0.013212
v -0.255828 -0.424636 0.122046
v -0.210581 -0.424545 0.033738
v -0.052846 -0.348647 0.047675
v -0.121621 -0.349681 0.107026
v -0.007955 -0.363759 0.040523
v -0.185948 -0.340973 0.057781
v -0.176940 -0.372931 0.160403
v -0.121621 -0.349681 0.107026
v -0.252145 -0.418047 0.056956
v -0.218376 -0.363271 0.052897
v -0.259156 -0.424629 0.107802
v -0.200603 -0.424952 0.170370
v -0.232405 -0.424565 0.155219
v -0.160473 -0.339302 0.101026
v -0.086536 -0.417866 -0.048073
v -0.022941 -0.417866 0.048442
v -0.087338 -0.417866 -0.043526
v -0.241352 -0.418016 0.162115
v -0.239424 -0.418100 0.159713
v -0.225248 -0.418082 0.165597
v -0.262443 -0.418104 0.108111
v -0.258503 -0.418100 0.092826
v -0.259162 -0.418100 0.107806
v -0.252532 -0.418090 0.059498
v -0.249718 -0.418099 0.061694
v -0.162625 -0.417959 0.001908
v -0.087690 -0.424375 -0.044031
v -0.250277 -0.424619 0.060900
v 0.058295 -0.066890 0.028465
v 0.078847 -0.079672 -0.035364
v 0.055207 -0.305016 0.025380
v 0.076756 -0.290564 -0.035324
v 0.058296 -0.089251 -0.098676
v 0.055207 -0.305016 -0.096029
v 0.052587 -0.242034 -0.090301
v 0.069953 -0.243000 -0.035324
v 0.052587 -0.242034 0.019652
v 0.052587 -0.242034 0.019652
v 0.047986 -0.305247 0.019762
v 0.066064 -0.307149 -0.035324
v 0.066064 -0.307149 -0.035324
v 0.055207 -0.305016 0.025380
v 0.047986 -0.305247 0.019762
v 0.047986 -0.305247 -0.090411
v 0.055207 -0.305016 -0.096029
v 0.066064 -0.307149 -0.035324
v -0.003663 -0.301937 0.039314
v -0.063085 -0.295793 0.025989
v -0.056160 -0.297049 0.019710
v -0.003663 -0.301937 0.039314
v -0.075279 -0.296639 -0.035324
v -0.063085 -0.295793 -0.096638
v -0.056160 -0.297049 -0.090359
v -0.075279 -0.296639 -0.035324
v -0.003663 -0.301937 -0.109963
v -0.003663 -0.301937 -0.109963
v 0.066064 -0.307149 -0.035324
v 0.052587 -0.242034 -0.090301
v 0.047986 -0.305247 -0.090411
v 0.047986 -0.305247 0.019762
v 0.052587 -0.242034 0.019652
v 0.069953 -0.243000 -0.035324
v 0.047986 -0.305247 -0.090411
v 0.052587 -0.242034 -0.090301
v -0.075279 -0.296639 -0.035324
v -0.068487 -0.230629 -0.035324
v -0.056160 -0.297049 0.019710
v -0.056160 -0.297049 -0.090359
v -0.051393 -0.233882 -0.090287
v -0.051393 -0.233882 0.019637
v -0.027060 -0.431386 -0.085733
v -0.016047 -0.431386 -0.093445
v 0.048350 -0.431385 -0.001477
v 0.037337 -0.431385 0.006235
v -0.046008 -0.295614 -0.076451
v 0.022133 -0.295614 0.020865
v -0.032638 -0.347839 -0.085811
v -0.031606 -0.424858 -0.086535
v 0.036535 -0.424858 0.010780
v 0.035503 -0.347839 0.011504
v 0.036535 -0.424858 0.010780
v 0.053932 -0.424857 -0.002619
v 0.042246 -0.424861 -0.093688
v 0.041300 -0.295614 -0.093029
v -0.012149 -0.424857 -0.098587
v -0.031606 -0.424858 -0.086535
v -0.032638 -0.347839 -0.085811
v -0.015269 -0.295614 -0.097340
v -0.001011 -0.431386 -0.095823
v 0.055757 -0.431385 -0.014845
v 0.041300 -0.295614 -0.093029
v 0.042246 -0.424861 -0.093688
v 0.053932 -0.424857 -0.002619
v 0.051936 -0.295614 -0.000653
v 0.060794 -0.431385 -0.066059
v -0.041532 -0.295614 0.013248
v -0.107695 -0.424376 -0.029273
v -0.087332 -0.424393 -0.043531
v -0.022935 -0.424393 0.048437
v -0.049954 -0.367658 -0.075243
v -0.046008 -0.295614 -0.076451
v -0.037902 -0.335063 0.036471
v -0.023908 -0.295453 0.023144
v -0.060344 -0.295614 -0.048554
v -0.008985 -0.295614 0.024795
v -0.046008 -0.295614 -0.076451
v -0.049954 -0.367658 -0.075243
v -0.093129 -0.352487 -0.027459
v -0.060344 -0.295614 -0.048554
v -0.027271 -0.295614 0.021444
v -0.083323 -0.333278 -0.011865
v -0.063448 -0.295614 -0.030224
v -0.061046 -0.333101 0.024280
v -0.041532 -0.295614 0.013248
v 0.035061 -0.347291 0.011813
v -0.023747 -0.419396 0.053055
v -0.086609 -0.417753 -0.048023
v -0.032915 -0.347498 -0.085619
v -0.195956 -0.347463 0.129744
v -0.217484 -0.369367 0.148358
v -0.239945 -0.399608 0.148370
v -0.239945 -0.399608 0.148370
v -0.218376 -0.363271 0.052897
v -0.252145 -0.418047 0.056956
v -0.256527 -0.398502 0.105926
v -0.223043 -0.350355 0.078318
v -0.240566 -0.418378 0.161899
v -0.206348 -0.418477 0.178350
v -0.262617 -0.418148 0.111178
v -0.240566 -0.418378 0.161899
v -0.239945 -0.399608 0.148370
v -0.152179 -0.417949 -0.008298
v -0.150288 -0.424470 -0.005605
v -0.052846 -0.348647 0.047675
v -0.026308 -0.418016 0.051922
v -0.076489 -0.343205 0.042775
v -0.218376 -0.363271 0.052897
v -0.205221 -0.418981 0.180475
v -0.258498 -0.424628 0.092822
v -0.249713 -0.424628 0.061689
v -0.176940 -0.372931 0.160403
v -0.031606 -0.424858 -0.086535
v -0.027060 -0.424858 -0.085733
v 0.060794 -0.424858 -0.066059
v 0.048350 -0.424858 -0.001477
v 0.050840 -0.424858 0.000764
v 0.037337 -0.424858 0.006235
v 0.036535 -0.424858 0.010780
v -0.046213 -0.417866 0.068721
v -0.048312 -0.417876 0.066207
v -0.024783 -0.417866 0.053716
v -0.086536 -0.417866 -0.048073
v -0.024783 -0.417866 0.053716
v -0.022941 -0.417866 0.048442
v -0.084789 -0.417719 0.102332
v -0.082707 -0.417704 0.104865
v -0.151263 -0.418145 0.151293
v -0.153147 -0.418121 0.148626
v -0.206348 -0.418477 0.178350
v -0.206996 -0.418425 0.174848
v -0.258902 -0.418104 0.123264
v -0.255834 -0.418101 0.122051
v -0.210584 -0.418030 0.033741
v -0.211595 -0.418031 0.030496
v -0.151989 -0.417949 -0.008392
v -0.150294 -0.417943 -0.005601
v -0.109434 -0.417866 -0.032039
v -0.107701 -0.417861 -0.029268
v -0.012264 -0.424858 -0.095291
v -0.012491 -0.431386 -0.094851
v -0.027060 -0.431386 -0.085733
v -0.027060 -0.424858 -0.085733
v 0.041047 -0.431385 -0.091008
v 0.040611 -0.424858 -0.090700
v 0.065040 -0.424858 -0.056407
v 0.065562 -0.431385 -0.052734
v 0.041047 -0.431385 -0.091008
v 0.040611 -0.424858 -0.090700
v 0.050155 -0.431385 -0.003172
v 0.051237 -0.424858 -0.004634
v 0.037337 -0.431385 0.006235
v 0.050155 -0.431385 -0.003172
v 0.051237 -0.424858 -0.004634
v 0.037337 -0.424858 0.006235
v -0.027060 -0.424858 -0.085733
v -0.027060 -0.431386 -0.085733
v 0.037337 -0.431385 0.006235
v 0.037337 -0.424858 0.006235
v -0.022941 -0.417866 0.048442
v -0.022935 -0.424393 0.048437
v -0.087332 -0.424393 -0.043531
v -0.087338 -0.417866 -0.043526
v -0.078395 -0.424266 0.097854
v -0.024085 -0.424293 0.046811
v -0.024676 -0.417753 0.045988
v -0.084789 -0.417719 0.102332
v -0.153147 -0.418121 0.148626
v -0.146768 -0.424650 0.144158
v -0.206996 -0.418425 0.174848
v -0.200603 -0.424952 0.170370
v -0.232262 -0.424383 0.155033
v -0.200603 -0.424952 0.170370
v -0.206996 -0.418425 0.174848
v -0.236314 -0.418102 0.160764
v -0.245214 -0.424625 0.146924
v -0.232262 -0.424383 0.155033
v -0.236314 -0.418102 0.160764
v -0.245219 -0.418101 0.146929
v -0.260070 -0.418100 0.108082
v -0.260326 -0.424629 0.104975
v -0.249713 -0.424628 0.061689
v -0.249718 -0.418099 0.061694
v -0.249718 -0.418099 0.061694
v -0.086970 -0.417851 -0.042998
v -0.045729 0.007342 -0.107343
v -0.083676 0.004719 -0.039547
v 0.055748 0.005492 -0.100024
v -0.063494 0.007158 -0.100230
v -0.063710 0.005967 0.029260
v -0.002978 0.005294 0.051793
v 0.056477 0.004635 0.027577
v -0.063494 0.007158 -0.100230
v 0.029663 0.006505 -0.110784
v -0.003015 0.007683 -0.122747
v 0.061334 0.004849 0.010282
v 0.033216 0.004893 0.038701
v -0.083688 0.004630 -0.029800
v 0.055748 0.005492 -0.100024
v 0.056477 0.004635 0.027577
v 0.075900 0.005455 -0.036104
v -0.063710 0.005967 0.029260
v -0.047291 0.005785 0.036011
v 0.069858 0.005478 -0.057002
v -0.085032 0.004549 -0.034705
vt 0.513031 0.771452
vt 0.513444 0.747906
vt 0.516786 0.746417
vt 0.516317 0.773195
vt 0.508964 0.751296
vt 0.508671 0.767987
vt 0.961383 0.308816
vt 0.961367 0.324596
vt 0.958923 0.321897
vt 0.958926 0.312055
vt 0.506337 0.754044
vt 0.506153 0.764515
vt 0.958087 0.319230
vt 0.505286 0.761838
vt 0.505372 0.756915
vt 0.953837 0.452292
vt 0.957170 0.453908
vt 0.956770 0.454541
vt 0.953666 0.453036
vt 0.961613 0.457482
vt 0.961103 0.458026
vt 0.964205 0.460344
vt 0.963547 0.460725
vt 0.965123 0.463275
vt 0.964383 0.463392
vt 0.965123 0.468246
vt 0.963544 0.470566
vt 0.964205 0.470919
vt 0.961613 0.474337
vt 0.961087 0.473806
vt 0.956782 0.477051
vt 0.957170 0.477686
vt 0.662322 0.645194
vt 0.652058 0.631847
vt 0.653728 0.630756
vt 0.663715 0.616018
vt 0.652040 0.629625
vt 0.653045 0.615821
vt 0.488046 0.153492
vt 0.501446 0.155451
vt 0.488046 0.212258
vt 0.516335 0.205107
vt 0.514987 0.151071
vt 0.712374 0.630437
vt 0.718179 0.616482
vt 0.718180 0.644438
vt 0.214389 0.594466
vt 0.225949 0.549725
vt 0.228249 0.598686
vt 0.201203 0.598242
vt 0.196972 0.541090
vt 0.194548 0.888145
vt 0.187201 0.898950
vt 0.174804 0.899422
vt 0.194662 0.875041
vt 0.184754 0.867537
vt 0.501552 0.151694
vt 0.717437 0.630442
vt 0.214783 0.598519
vt 0.937042 0.521527
vt 0.951114 0.533419
vt 0.936454 0.533585
vt 0.951424 0.521499
vt 0.955657 0.434617
vt 0.940855 0.446450
vt 0.941028 0.434435
vt 0.955253 0.446497
vt 0.748410 0.904967
vt 0.718962 0.906041
vt 0.718928 0.900405
vt 0.463334 0.832792
vt 0.456503 0.832613
vt 0.459228 0.820822
vt 0.455732 0.816529
vt 0.540739 0.753147
vt 0.535018 0.756759
vt 0.533502 0.753342
vt 0.580125 0.765761
vt 0.580302 0.757748
vt 0.587200 0.765934
vt 0.449169 0.816986
vt 0.450575 0.810008
vt 0.590081 0.752154
vt 0.578797 0.752605
vt 0.935922 0.407284
vt 0.924797 0.408293
vt 0.924434 0.398358
vt 0.539884 0.744889
vt 0.541219 0.748357
vt 0.527599 0.744071
vt 0.829325 0.284566
vt 0.831482 0.314729
vt 0.819434 0.333529
vt 0.831482 0.296014
vt 0.430023 0.804051
vt 0.541126 0.762728
vt 0.546670 0.764013
vt 0.538397 0.767803
vt 0.546349 0.754824
vt 0.408761 0.807623
vt 0.560043 0.747067
vt 0.930664 0.416765
vt 0.922318 0.424567
vt 0.813387 0.332333
vt 0.802511 0.312560
vt 0.543040 0.767651
vt 0.563425 0.770464
vt 0.534223 0.771281
vt 0.568968 0.753555
vt 0.410382 0.813927
vt 0.423239 0.819775
vt 0.935922 0.445114
vt 0.923882 0.436688
vt 0.810276 0.331133
vt 0.829548 0.328187
vt 0.822634 0.332192
vt 0.569604 0.764922
vt 0.082046 0.793941
vt 0.082046 0.820266
vt 0.081327 0.794708
vt 0.026508 0.814760
vt 0.027171 0.814540
vt 0.029122 0.817427
vt 0.029250 0.801833
vt 0.031903 0.799408
vt 0.029910 0.802183
vt 0.037192 0.793794
vt 0.037451 0.794563
vt 0.198567 0.961431
vt 0.215550 0.962961
vt 0.178499 0.962961
vt 0.538326 0.587959
vt 0.527615 0.607251
vt 0.523652 0.590902
vt 0.524989 0.536745
vt 0.538881 0.539981
vt 0.552691 0.586184
vt 0.542986 0.607499
vt 0.552660 0.537100
vt 0.164915 0.891924
vt 0.164915 0.878791
vt 0.502524 0.221272
vt 0.210603 0.528123
vt 0.218079 0.528185
vt 0.172378 0.868009
vt 0.951424 0.545264
vt 0.937034 0.545332
vt 0.538878 0.536321
vt 0.214918 0.989317
vt 0.226689 0.981688
vt 0.226865 0.983764
vt 0.032979 0.988697
vt 0.033151 0.986623
vt 0.044965 0.994234
vt 0.947805 0.042835
vt 0.955362 0.054223
vt 0.953266 0.054200
vt 0.238004 0.989287
vt 0.566868 0.376350
vt 0.578907 0.368737
vt 0.578925 0.370844
vt 0.947783 0.066288
vt 0.021804 0.994205
vt 0.590245 0.376328
vt 0.126565 0.936734
vt 0.114053 0.951757
vt 0.113988 0.938515
vt 0.139093 0.938513
vt 0.139108 0.951754
vt 0.126606 0.950231
vt 0.940856 0.422645
vt 0.955260 0.422730
vt 0.935040 0.504477
vt 0.949999 0.504434
vt 0.934741 0.516934
vt 0.934740 0.491856
vt 0.949074 0.491839
vt 0.949075 0.516883
vt 0.971854 0.329572
vt 0.968804 0.329586
vt 0.968804 0.304030
vt 0.971854 0.304016
vt 0.524407 0.746709
vt 0.523938 0.773486
vt 0.532130 0.931767
vt 0.528571 0.948021
vt 0.505706 0.948021
vt 0.509264 0.931767
vt 0.458966 0.803328
vt 0.462955 0.803447
vt 0.748179 0.913210
vt 0.718750 0.913262
vt 0.919918 0.605879
vt 0.924347 0.605654
vt 0.924454 0.623114
vt 0.920413 0.635179
vt 0.965700 0.328081
vt 0.965688 0.305571
vt 0.907515 0.634997
vt 0.907515 0.605686
vt 0.748177 0.892501
vt 0.718735 0.892251
vt 0.958087 0.314497
vt 0.534886 0.764262
vt 0.803765 0.285232
vt 0.803676 0.279596
vt 0.829242 0.279311
vt 0.928429 0.618421
vt 0.927410 0.634785
vt 0.442542 0.823775
vt 0.446013 0.832915
vt 0.530608 0.750246
vt 0.530255 0.770429
vt 0.050014 0.673028
vt 0.042372 0.659900
vt 0.055023 0.659900
vt 0.056001 0.670685
vt 0.533252 0.767559
vt 0.059834 0.660951
vt 0.059695 0.668731
vt 0.437307 0.824586
vt 0.442017 0.833167
vt 0.064088 0.388128
vt 0.064088 0.406054
vt 0.037007 0.405579
vt 0.037062 0.389118
vt 0.406277 0.820374
vt 0.401194 0.815215
vt 0.395882 0.808492
vt 0.592369 0.762190
vt 0.403578 0.970425
vt 0.402389 0.979602
vt 0.391402 0.974656
vt 0.397906 0.967080
vt 0.395593 0.803995
vt 0.403353 0.803459
vt 0.390086 0.978372
vt 0.378440 0.979661
vt 0.381658 0.975789
vt 0.935867 0.422333
vt 0.802790 0.296236
vt 0.439028 0.820591
vt 0.444615 0.804580
vt 0.433688 0.822070
vt 0.575129 0.747928
vt 0.403602 0.803300
vt 0.807535 0.329092
vt 0.802785 0.323464
vt 0.581250 0.773054
vt 0.949875 0.452310
vt 0.950616 0.453050
vt 0.964383 0.468124
vt 0.953666 0.478591
vt 0.953837 0.479333
vt 0.950616 0.478605
vt 0.949875 0.479352
vt 0.075110 0.821237
vt 0.075026 0.820496
vt 0.081039 0.821043
vt 0.845966 0.992106
vt 0.819102 0.992106
vt 0.819924 0.991134
vt 0.063616 0.822848
vt 0.063695 0.823590
vt 0.044912 0.823908
vt 0.044889 0.823165
vt 0.031100 0.822208
vt 0.031415 0.821460
vt 0.028030 0.805164
vt 0.028763 0.805314
vt 0.048349 0.794104
vt 0.048562 0.793359
vt 0.064701 0.793362
vt 0.064674 0.794105
vt 0.075710 0.794149
vt 0.075693 0.794893
vt 0.671005 0.987908
vt 0.671075 0.986417
vt 0.674390 0.986263
vt 0.674373 0.987744
vt 0.658874 0.986192
vt 0.658955 0.987669
vt 0.787647 0.666333
vt 0.786801 0.664847
vt 0.795417 0.665049
vt 0.795357 0.666541
vt 0.775444 0.665094
vt 0.775794 0.666567
vt 0.434705 0.295617
vt 0.431766 0.295617
vt 0.431434 0.294124
vt 0.434623 0.294135
vt 0.911888 0.991089
vt 0.911575 0.992457
vt 0.889966 0.992457
vt 0.890279 0.991089
vt 0.863980 0.992575
vt 0.863931 0.991089
vt 0.884619 0.991089
vt 0.884669 0.992575
vt 0.308971 0.849439
vt 0.296490 0.849273
vt 0.296538 0.847767
vt 0.310352 0.847947
vt 0.326023 0.847944
vt 0.324645 0.849431
vt 0.338342 0.847759
vt 0.336961 0.849247
vt 0.936298 0.353757
vt 0.936298 0.361729
vt 0.934840 0.361009
vt 0.934812 0.353634
vt 0.352280 0.726078
vt 0.350353 0.726877
vt 0.349168 0.725132
vt 0.352373 0.724678
vt 0.361303 0.724171
vt 0.361917 0.725601
vt 0.371686 0.727087
vt 0.371779 0.725686
vt 0.178718 0.961509
vt 0.215805 0.961515
vt 0.538250 0.607368
vt 0.492451 0.221786
vt 0.488720 0.221992
vt 0.224050 0.528277
vt 0.510796 0.221307
vt 0.516117 0.221377
vt 0.651974 0.630727
vt 0.196893 0.529566
vt 0.200919 0.529125
vt 0.523652 0.607203
vt 0.653285 0.645341
vt 0.552729 0.607779
vn 0.0000 1.0000 0.0000
vn -0.0000 -1.0000 -0.0000
vn -0.7243 0.0039 0.6895
vn -0.9921 -0.0650 0.1073
vn -0.9995 0.0315 0.0051
vn -0.7273 0.0019 -0.6863
vn -0.8735 -0.0624 -0.4828
vn -0.7392 0.3432 -0.5795
vn -0.5901 -0.5823 0.5592
vn -0.0095 -0.1903 0.9817
vn -0.7243 0.0039 0.6894
vn 0.7262 0.0005 0.6875
vn 0.5458 -0.6262 0.5568
vn -0.9803 -0.1977 0.0001
vn -0.5899 -0.5824 -0.5593
vn -0.5900 -0.5823 0.5593
vn -0.0095 -0.1903 -0.9817
vn 0.7216 -0.0068 -0.6923
vn 0.5458 -0.6263 -0.5567
vn -0.5900 -0.5824 -0.5593
vn -0.7274 0.0019 -0.6862
vn 0.7000 -0.7141 0.0000
vn 0.5227 -0.6430 0.5597
vn -0.0521 -0.6383 0.7680
vn 0.5227 -0.6430 -0.5597
vn -0.0521 -0.6383 -0.7680
vn -0.0371 -0.9993 0.0057
vn -0.0034 -1.0000 0.0000
vn -0.0371 -0.9993 -0.0057
vn 0.3178 -0.8729 -0.3702
vn 0.5227 -0.6431 -0.5597
vn -0.0522 -0.6383 0.7680
vn 0.3178 -0.8729 0.3702
vn 0.5227 -0.6431 0.5597
vn 0.9851 0.0014 -0.1721
vn 0.9496 0.0172 -0.3130
vn 0.9866 0.0072 0.1627
vn 0.8117 -0.0020 0.5840
vn 0.2932 0.6802 0.6719
vn 0.3607 0.0013 0.9327
vn 0.4156 0.1271 0.9006
vn -0.7728 0.6320 0.0574
vn -0.5011 0.8404 0.2063
vn -0.5475 0.8368 0.0020
vn -0.1453 0.8931 0.4258
vn -0.4924 0.8581 0.1458
vn -0.4810 0.5972 0.6418
vn 0.4939 0.3254 0.8063
vn 0.6035 -0.0147 0.7972
vn -0.8968 0.4398 0.0490
vn -0.6373 0.7493 -0.1800
vn -0.5310 -0.0095 -0.8473
vn -0.5329 0.3352 -0.7769
vn -0.6717 0.1109 -0.7324
vn -0.5330 0.3349 -0.7770
vn -0.6158 0.5964 -0.5149
vn -0.6717 0.1107 -0.7325
vn 0.0009 -1.0000 0.0006
vn 0.0007 -1.0000 -0.0027
vn -0.5478 -0.7637 0.3416
vn 0.5114 -0.6289 0.5857
vn 0.5753 0.1411 0.8057
vn -0.4234 0.7688 0.4792
vn -0.0054 0.9711 0.2388
vn 0.0427 0.4895 0.8710
vn -0.2454 0.9663 -0.0778
vn 0.2115 0.1702 0.9624
vn -0.4781 0.5852 -0.6550
vn -0.5396 0.0737 -0.8387
vn -0.4780 0.5854 -0.6549
vn 0.0014 -1.0000 -0.0003
vn 0.0013 -1.0000 -0.0003
vn 0.2331 0.7772 0.5845
vn 0.3427 0.7780 0.5265
vn 0.4947 0.3248 0.8061
vn -0.2472 0.9417 -0.2284
vn 0.1706 0.5055 0.8458
vn 0.3427 0.7781 0.5265
vn -0.7940 0.3595 -0.4903
vn -0.6444 0.5404 -0.5410
vn 0.0009 -1.0000 -0.0005
vn 0.1488 -0.7750 0.6142
vn 0.0001 -1.0000 0.0011
vn 0.0549 0.9761 0.2105
vn 0.0035 -1.0000 0.0070
vn 0.5792 0.7075 -0.4050
vn 0.2592 -0.9486 -0.1814
vn -0.0068 -0.9999 0.0111
vn -0.0082 -0.9999 0.0147
vn -0.0017 -0.9997 -0.0253
vn 0.0011 -1.0000 -0.0002
vn 0.0003 -1.0000 -0.0002
vn 0.0012 -1.0000 -0.0001
vn 0.0025 -1.0000 0.0045
vn -0.5318 -0.7653 -0.3626
vn -0.5202 -0.2785 -0.8073
vn -0.5050 0.1661 -0.8470
vn -0.5604 0.1295 -0.8180
vn 1.0000 0.0061 -0.0035
vn 0.8644 0.0286 0.5021
vn 0.7261 0.0005 0.6876
vn 0.5458 -0.6262 0.5567
vn 0.9718 -0.2357 0.0005
vn 0.7215 -0.0069 -0.6924
vn 0.9996 -0.0250 0.0116
vn 0.5457 -0.6263 -0.5567
vn -0.6125 -0.5713 0.5462
vn -0.8085 -0.5885 0.0000
vn 0.0004 -0.0150 0.9999
vn 0.0001 -0.0168 -0.9999
vn 0.5068 -0.1607 -0.8470
vn -0.6125 -0.5713 -0.5463
vn -0.6125 -0.5714 -0.5462
vn -0.4416 -0.8195 -0.3652
vn -0.1308 -0.9914 -0.0000
vn -0.1309 -0.9914 0.0000
vn -0.4416 -0.8195 -0.3653
vn -0.4416 -0.8195 0.3653
vn -0.0369 -0.9993 0.0056
vn 0.3177 -0.8729 -0.3703
vn -0.0371 -0.9993 0.0054
vn -0.0033 -1.0000 0.0001
vn -0.5900 -0.5823 -0.5593
vn 0.3178 -0.8729 0.3703
vn -0.0033 -1.0000 -0.0001
vn -0.0371 -0.9993 -0.0054
vn -0.0368 -0.9993 -0.0056
vn -0.6125 -0.5714 0.5462
vn -0.4416 -0.8195 0.3652
vn 0.3177 -0.8729 -0.3702
vn 0.3177 -0.8729 0.3702
vn 0.5226 -0.6431 0.5597
vn 0.5226 -0.6431 -0.5597
vn -0.7894 -0.5934 -0.1572
vn -0.1275 -0.5697 0.8119
vn -0.4955 0.6758 -0.5457
vn 0.2932 0.6801 0.6719
vn -0.7557 -0.0016 -0.6549
vn -0.7899 -0.5915 -0.1620
vn -0.1208 -0.5896 0.7986
vn -0.1207 -0.5897 0.7986
vn 0.8217 -0.0045 0.5699
vn 0.4911 0.0079 -0.8711
vn 0.4893 0.0079 -0.8721
vn -0.2374 0.0029 -0.9714
vn -0.7558 -0.0016 -0.6548
vn -0.2489 0.0077 -0.9685
vn 0.4894 0.0079 -0.8720
vn 0.4912 0.0079 -0.8710
vn 0.8217 -0.0044 0.5699
vn 0.8117 -0.0020 0.5841
vn -0.3647 0.8270 0.4279
vn -0.0021 -1.0000 0.0073
vn 0.5793 -0.7070 -0.4056
vn 0.5794 -0.7069 -0.4057
vn -0.6717 0.1109 -0.7325
vn -0.4954 0.6759 -0.5457
vn 0.0427 0.4896 0.8709
vn -0.0814 0.2684 0.9599
vn -0.5675 0.7692 -0.2939
vn -0.6716 0.1109 -0.7326
vn -0.6157 0.5965 -0.5149
vn -0.5674 0.7692 -0.2939
vn -0.7727 0.6321 0.0575
vn -0.5473 0.8369 0.0020
vn -0.4233 0.7690 0.4790
vn -0.3647 0.8270 0.4278
vn 0.5989 -0.6918 -0.4033
vn 0.5987 -0.6937 -0.4004
vn 0.5982 -0.6966 -0.3961
vn 0.5985 -0.6948 -0.3988
vn -0.1453 0.8932 0.4255
vn -0.4811 0.5973 0.6417
vn -0.6755 0.4971 0.5447
vn -0.6754 0.4970 0.5449
vn -0.6443 0.5404 -0.5411
vn -0.7938 0.3594 -0.4906
vn -0.8967 0.4399 0.0492
vn -0.6372 0.7494 -0.1800
vn -0.5492 0.5372 0.6401
vn -0.3573 -0.4748 0.8043
vn -0.9423 0.3061 0.1354
vn -0.5490 0.5373 0.6402
vn -0.6753 0.4971 0.5448
vn -0.5388 -0.0441 -0.8413
vn 0.0077 -0.9999 0.0099
vn 0.6591 -0.2515 0.7088
vn -0.0053 0.9711 0.2385
vn -0.6444 0.5403 -0.5411
vn 0.5069 -0.1937 0.8399
vn 0.0019 -1.0000 0.0001
vn -0.5381 -0.8335 -0.1256
vn 0.1706 0.5054 0.8458
vn -0.7899 -0.5914 -0.1620
vn -0.4083 -0.9092 -0.0813
vn -0.0658 -0.9056 0.4189
vn -0.0038 -1.0000 -0.0018
vn -0.0037 -1.0000 -0.0018
vn 0.5791 0.7075 -0.4050
vn 0.0051 -1.0000 0.0059
vn 0.5792 0.7075 -0.4049
vn 0.4097 -0.7206 0.5594
vn -0.0010 -1.0000 -0.0041
vn 0.0051 -1.0000 -0.0036
vn 0.2988 -0.7743 0.5578
vn -0.3572 -0.4748 0.8043
vn -0.0493 -0.9544 0.2945
vn -0.0067 -1.0000 0.0038
vn -0.0065 -1.0000 0.0037
vn -0.0029 -1.0000 -0.0067
vn -0.0023 -1.0000 -0.0069
vn -0.0020 -1.0000 -0.0054
vn -0.0019 -1.0000 -0.0064
vn -0.2313 -0.0142 -0.9728
vn -0.2509 -0.0146 -0.9679
vn 0.5107 -0.0518 -0.8582
vn 0.4946 -0.0502 -0.8677
vn 0.9566 -0.0326 -0.2895
vn 0.9997 0.0160 -0.0187
vn 0.5106 -0.0518 -0.8583
vn 0.4945 -0.0502 -0.8677
vn 0.7914 0.0536 0.6089
vn 0.8527 0.0585 0.5192
vn 0.7915 0.0536 0.6088
vn 0.8526 0.0585 0.5192
vn -0.0657 -0.9056 0.4189
vn -0.4082 -0.9093 -0.0813
vn -0.7894 -0.5935 -0.1572
vn 0.5790 0.7075 -0.4053
vn 0.5794 -0.7070 -0.4055
vn 0.5793 -0.7069 -0.4058
vn 0.2592 -0.9487 -0.1811
vn 0.5114 -0.6288 0.5857
vn 0.6749 0.1634 0.7196
vn 0.6749 0.1637 0.7195
vn 0.4096 -0.7206 0.5594
vn 0.5335 -0.0563 0.8439
vn 0.1488 -0.7751 0.6141
vn -0.4642 -0.6240 0.6286
vn 0.1489 -0.7750 0.6142
vn -0.0492 -0.9544 0.2945
vn -0.4634 -0.6246 0.6286
vn -0.4642 -0.6239 0.6287
vn -0.4630 -0.6248 0.6287
vn -0.8139 -0.2829 0.5075
vn -0.9894 -0.0138 0.1447
vn -0.9996 0.0232 -0.0186
vn -0.5381 -0.8335 -0.1257
vn -0.5319 -0.7652 -0.3627
vn -0.5317 -0.7653 -0.3627
vn -0.5014 0.1890 -0.8443
vn 0.9995 0.0244 0.0223
vn -0.5544 -0.0473 0.8309
vn -0.6031 0.3255 0.7282
vn 0.5814 0.3339 -0.7420
vn 0.5177 -0.1607 0.8404
vn 0.6548 0.3378 0.6761
vn -0.9970 0.0775 -0.0088
vn -0.6174 0.3263 -0.7158
vn -0.5588 -0.0184 -0.8291
vn 0.6520 0.4100 0.6378
vn -0.7435 0.3425 0.5744
vn 0.7549 0.3152 -0.5751
usemtl Characters.001
s off
f 1/1/1 2/2/1 3/3/1
f 1/1/1 3/3/1 4/4/1
f 5/5/1 2/2/1 1/1/1
f 6/6/1 5/5/1 1/1/1
f 7/7/2 8/8/2 9/9/2
f 7/7/2 9/9/2 10/10/2
f 11/11/1 5/5/1 6/6/1
f 12/12/1 11/11/1 6/6/1
f 10/10/2 9/9/2 13/13/2
f 14/14/1 15/15/1 12/12/1
f 16/16/2 17/17/2 18/18/2
f 19/19/2 16/16/2 18/18/2
f 18/18/2 17/17/2 20/20/2
f 18/18/2 20/20/2 21/21/2
f 21/21/2 20/20/2 22/22/2
f 23/23/2 21/21/2 22/22/2
f 23/23/2 22/22/2 24/24/2
f 25/25/2 23/23/2 24/24/2
f 25/25/2 24/24/2 26/26/2
f 27/27/2 28/28/2 29/29/2
f 30/30/2 27/27/2 29/29/2
f 31/31/2 30/30/2 29/29/2
f 31/31/2 29/29/2 32/32/2
s 1
f 35/33/3 327/34/4 34/35/5
f 36/36/6 316/37/7 322/38/8
f 37/39/9 38/40/10 39/41/11
f 33/42/12 38/40/10 40/43/13
f 41/44/14 36/36/6 42/45/15
f 35/33/3 41/44/14 43/46/16
f 44/47/17 45/48/18 46/49/19
f 44/47/17 47/50/20 48/51/21
f 49/52/22 50/53/23 51/54/24
f 52/55/25 49/52/22 53/56/26
f 54/57/27 40/43/13 38/40/10
f 55/58/28 43/46/16 41/44/14
f 42/45/15 55/58/28 41/44/14
f 46/49/19 56/59/29 44/47/17
f 57/60/30 58/61/26 59/62/27
f 58/61/26 57/60/30 60/63/31
f 61/64/32 62/65/33 63/66/29
f 62/65/33 61/64/32 64/67/34
f 65/68/35 66/69/36 67/70/37
f 68/71/38 69/72/39 70/73/40
f 70/73/40 69/72/39 71/74/41
f 72/75/42 73/76/43 74/77/44
f 75/78/45 76/79/46 77/80/47
f 78/81/48 79/82/49 71/74/41
f 80/83/50 76/79/46 81/84/51
f 82/85/52 83/86/53 84/87/54
f 85/88/55 86/89/56 87/90/57
f 88/91/58 89/92/59 90/93/60
f 88/91/58 91/94/61 89/92/59
f 79/82/49 78/81/48 92/95/62
f 93/96/63 94/97/64 95/98/65
f 72/75/42 86/89/56 96/99/66
f 92/95/62 78/81/48 97/100/67
f 85/88/55 98/101/68 86/89/56
f 99/102/69 100/103/70 83/86/53
f 90/93/60 101/104/71 102/105/72
f 103/106/73 104/107/74 105/108/75
f 106/109/76 96/99/66 86/89/56
f 107/110/77 97/100/67 78/81/48
f 108/111/78 107/110/77 78/81/48
f 109/112/79 110/113/80 100/103/70
f 101/104/71 111/114/81 102/105/72
f 112/115/82 113/116/83 89/92/59
f 114/117/84 75/78/45 104/107/74
f 115/118/85 116/119/86 117/120/87
f 118/121/88 119/122/89 120/123/90
f 121/124/91 122/125/92 123/126/93
f 124/127/94 125/128/95 122/125/92
f 126/129/96 127/130/97 128/131/98
f 130/132/99 325/133/100 129/134/101
f 129/134/101 131/135/102 132/136/103
f 129/134/101 132/136/103 130/132/99
f 133/137/104 333/138/105 130/132/99
f 132/136/103 134/139/106 133/137/104
f 130/132/99 132/136/103 133/137/104
f 135/140/107 136/141/108 49/52/22
f 51/54/24 135/140/107 49/52/22
f 320/142/109 39/41/11 38/40/10
f 36/36/6 41/44/14 34/35/5
f 34/35/5 41/44/14 35/33/3
f 45/48/18 324/143/110 323/144/111
f 48/51/21 324/143/110 44/47/17
f 49/52/22 136/141/108 137/145/112
f 49/52/22 137/145/112 53/56/26
f 138/146/113 139/147/114 59/62/27
f 138/146/113 59/62/27 58/61/26
f 132/136/103 140/148/115 134/139/106
f 131/135/102 140/148/115 132/136/103
f 141/149/116 142/150/13 143/151/117
f 144/152/118 145/153/106 146/154/116
f 37/39/9 54/57/27 38/40/10
f 147/155/119 148/156/9 149/157/120
f 143/151/117 142/150/13 150/158/121
f 151/159/122 152/160/123 153/161/124
f 149/157/120 148/156/9 154/162/125
f 44/47/17 56/59/29 47/50/20
f 155/163/126 145/153/106 144/152/118
f 153/161/124 152/160/123 156/164/127
f 157/165/115 158/166/128 159/167/129
f 160/168/114 161/169/113 157/165/115
f 162/170/108 157/165/115 161/169/113
f 158/166/128 157/165/115 162/170/108
f 63/66/29 163/171/129 164/172/128
f 61/64/32 63/66/29 164/172/128
f 165/173/28 166/174/22 167/175/130
f 168/176/131 166/174/22 165/173/28
f 166/174/22 168/176/131 169/177/132
f 170/178/133 167/175/130 166/174/22
f 171/179/134 172/180/2 173/181/2
f 174/182/135 171/179/134 173/181/2
f 4/4/1 3/3/1 175/183/136
f 4/4/1 175/183/136 176/184/137
f 177/185/138 178/186/139 179/187/140
f 177/185/138 179/187/140 180/188/40
f 70/73/40 181/189/141 182/190/142
f 70/73/40 182/190/142 68/71/38
f 65/68/35 183/191/143 184/192/144
f 66/69/36 65/68/35 184/192/144
f 185/193/145 186/194/139 187/195/146
f 188/196/147 185/193/145 187/195/146
f 172/180/2 189/197/2 190/198/2
f 173/181/2 172/180/2 190/198/2
f 190/198/2 189/197/2 8/8/2
f 190/198/2 8/8/2 7/7/2
f 191/199/148 192/200/149 185/193/145
f 191/199/148 185/193/145 188/196/147
f 193/201/150 65/68/35 67/70/37
f 194/202/151 193/201/150 67/70/37
f 10/10/2 13/13/2 195/203/2
f 72/75/42 93/96/63 196/204/152
f 73/76/43 72/75/42 196/204/152
f 197/205/153 198/206/154 199/207/155
f 197/205/153 199/207/155 88/91/58
f 187/195/146 200/208/156 201/209/157
f 188/196/147 187/195/146 201/209/157
f 202/210/158 71/74/41 69/72/39
f 203/211/159 202/210/158 69/72/39
f 176/184/137 175/183/136 204/212/160
f 176/184/137 204/212/160 205/213/1
f 206/214/136 207/215/161 208/216/162
f 206/214/136 208/216/162 209/217/163
f 205/213/1 204/212/160 74/77/44
f 205/213/1 74/77/44 210/218/1
f 209/217/163 208/216/162 211/219/164
f 209/217/163 211/219/164 212/220/165
f 213/221/166 202/210/158 203/211/159
f 214/222/167 213/221/166 203/211/159
f 210/218/1 74/77/44 73/76/43
f 210/218/1 73/76/43 196/204/152
f 215/223/168 216/224/169 217/225/170
f 215/223/168 217/225/170 218/226/171
f 219/227/172 220/228/173 107/110/77
f 221/229/174 97/100/67 107/110/77
f 220/228/173 221/229/174 107/110/77
f 80/83/50 222/230/175 77/80/47
f 76/79/46 80/83/50 77/80/47
f 223/231/176 224/232/177 225/233/178
f 223/231/176 225/233/178 226/234/179
f 227/235/180 228/236/181 97/100/67
f 221/229/174 227/235/180 97/100/67
f 225/233/178 229/237/182 230/238/183
f 225/233/178 230/238/183 231/239/184
f 88/91/58 90/93/60 102/105/72
f 88/91/58 102/105/72 197/205/153
f 224/232/177 229/237/182 225/233/178
f 82/85/52 99/102/69 83/86/53
f 82/85/52 232/240/185 99/102/69
f 197/205/153 102/105/72 233/241/186
f 78/81/48 71/74/41 202/210/158
f 234/242/73 78/81/48 202/210/158
f 235/243/187 79/82/49 92/95/62
f 96/99/66 94/97/64 93/96/63
f 72/75/42 96/99/66 93/96/63
f 202/210/158 236/244/188 234/242/73
f 114/117/84 104/107/74 103/106/73
f 114/117/84 103/106/73 94/97/64
f 90/93/60 89/92/59 113/116/83
f 98/101/68 106/109/76 86/89/56
f 232/240/185 109/112/79 99/102/69
f 94/97/64 96/99/66 106/109/76
f 114/117/84 94/97/64 106/109/76
f 98/101/68 237/245/189 81/84/51
f 106/109/76 98/101/68 81/84/51
f 99/102/69 109/112/79 100/103/70
f 97/100/67 238/246/190 92/95/62
f 106/109/76 76/79/46 75/78/45
f 106/109/76 75/78/45 114/117/84
f 102/105/72 239/247/191 240/248/192
f 102/105/72 111/114/81 239/247/191
f 104/107/74 75/78/45 241/249/193
f 242/250/194 16/16/2 19/19/2
f 242/250/194 19/19/2 243/251/195
f 81/84/51 76/79/46 106/109/76
f 244/252/2 25/25/2 26/26/2
f 244/252/2 26/26/2 28/28/2
f 27/27/2 244/252/2 28/28/2
f 245/253/2 31/31/2 32/32/2
f 245/253/2 32/32/2 246/254/2
f 247/255/196 245/253/2 246/254/2
f 247/255/196 246/254/2 248/256/140
f 248/256/140 242/250/194 243/251/195
f 248/256/140 243/251/195 247/255/196
f 249/257/197 250/258/198 116/119/199
f 249/257/197 116/119/199 251/259/200
f 252/260/85 253/261/200 254/262/201
f 255/263/202 250/258/198 249/257/197
f 255/263/202 249/257/197 256/264/203
f 256/264/203 257/265/204 258/266/205
f 256/264/203 258/266/205 255/263/202
f 257/265/204 259/267/206 260/268/207
f 257/265/204 260/268/207 258/266/205
f 260/268/207 259/267/206 118/121/88
f 120/123/90 260/268/207 118/121/88
f 261/269/208 262/270/209 119/122/89
f 118/121/88 261/269/208 119/122/89
f 262/270/209 261/269/208 121/124/91
f 262/270/209 121/124/91 123/126/93
f 263/271/210 125/128/95 124/127/94
f 263/271/210 124/127/94 264/272/211
f 121/124/91 124/127/94 122/125/92
f 263/271/210 264/272/211 265/273/212
f 266/274/212 263/271/210 265/273/212
f 266/274/212 265/273/212 267/275/213
f 268/276/213 266/274/212 267/275/213
f 267/275/213 115/118/85 117/120/87
f 267/275/213 117/120/87 268/276/213
f 269/277/214 270/278/215 271/279/134
f 269/277/214 271/279/134 272/280/195
f 273/281/216 270/278/215 269/277/214
f 274/282/217 273/281/216 269/277/214
f 275/283/218 276/284/219 277/285/220
f 275/283/218 277/285/220 278/286/221
f 279/287/222 276/284/219 275/283/218
f 280/288/223 279/287/222 275/283/218
f 281/289/135 282/290/224 283/291/225
f 284/292/226 281/289/135 283/291/225
f 285/293/227 286/294/228 287/295/135
f 285/293/227 287/295/135 288/296/226
f 289/297/229 290/298/230 291/299/231
f 289/297/229 291/299/231 292/300/232
f 293/301/233 294/302/234 295/303/235
f 296/304/236 293/301/233 295/303/235
f 297/305/205 298/306/237 293/301/233
f 297/305/205 293/301/233 296/304/236
f 299/307/207 300/308/238 298/306/237
f 299/307/207 298/306/237 297/305/205
f 301/309/239 302/310/240 303/311/241
f 304/312/242 301/309/239 303/311/241
f 305/313/60 306/314/243 307/315/244
f 308/316/245 305/313/60 307/315/244
f 309/317/246 310/318/247 305/313/60
f 309/317/246 305/313/60 308/316/245
f 311/319/248 310/318/247 309/317/246
f 312/320/249 311/319/248 309/317/246
f 313/321/250 126/129/96 128/131/98
f 126/129/96 314/322/251 127/130/97
f 333/138/105 330/323/252 130/132/99
f 332/324/253 319/325/254 39/41/11
f 323/144/111 328/326/255 45/48/18
f 320/142/109 33/42/12 326/327/256
f 329/328/257 326/327/256 33/42/12
f 334/329/258 316/37/7 34/35/5
f 318/330/259 315/331/260 48/51/21
f 327/34/4 334/329/258 34/35/5
f 325/133/100 321/332/261 129/134/101
f 35/33/3 331/333/262 327/34/4
f 36/36/6 34/35/5 316/37/7
f 130/132/99 330/323/252 325/133/100
f 133/137/104 317/334/263 333/138/105
f 320/142/109 332/324/253 39/41/11
f 45/48/18 44/47/17 324/143/110
f 48/51/21 315/331/260 324/143/110
f 320/142/109 38/40/10 33/42/12
