# Blender v2.92.0 OBJ File: ''
# www.blender.org
mtllib pieIzqTio.mtl
o Characters_Circle.004
v -0.059431 -0.404023 -0.045696
v 0.016361 -0.404023 -0.109222
v 0.030268 -0.404023 -0.103033
v -0.055737 -0.404023 -0.030866
v 0.033094 -0.268252 -0.104743
v 0.018162 -0.268252 -0.111387
v -0.061863 -0.268252 -0.044239
v -0.057911 -0.268252 -0.028380
v -0.060773 -0.404023 -0.069338
v -0.035115 -0.404023 -0.109831
v -0.023759 -0.404023 -0.114551
v -0.056869 -0.404023 -0.086751
v -0.051042 -0.404023 -0.096467
v -0.059130 -0.268252 -0.087012
v -0.023542 -0.268252 -0.116875
v -0.036020 -0.268252 -0.111687
v -0.052749 -0.268252 -0.097650
v -0.007713 -0.397496 -0.113953
v -0.007334 -0.397496 -0.117205
v 0.017352 -0.397496 -0.112353
v 0.016361 -0.397496 -0.109222
v -0.023759 -0.397496 -0.114551
v -0.024352 -0.397496 -0.117840
v -0.036831 -0.397496 -0.112654
v -0.035115 -0.397496 -0.109831
v -0.053559 -0.397496 -0.098616
v -0.051042 -0.397496 -0.096467
v -0.064059 -0.397496 -0.069608
v -0.056869 -0.397496 -0.086751
v -0.060773 -0.397496 -0.069338
v -0.062673 -0.397496 -0.045205
v -0.059431 -0.397496 -0.045696
v -0.055737 -0.397496 -0.030866
v -0.058722 -0.397496 -0.029345
v -0.079526 -0.044986 -0.049530
v -0.058957 -0.051478 -0.112887
v -0.058954 -0.061790 0.013850
v 0.086390 -0.061360 -0.049325
v 0.064676 -0.251892 0.013009
v 0.082718 -0.267418 -0.049425
v -0.058957 -0.051478 -0.112887
v 0.003527 -0.257813 -0.132205
v -0.055840 -0.277676 -0.110161
v 0.003609 -0.257435 0.033408
v 0.064676 -0.251892 0.013009
v 0.050789 -0.206689 -0.104366
v 0.067835 -0.203283 -0.049544
v -0.001273 -0.210246 -0.122740
v -0.077410 -0.263133 -0.049414
v -0.055840 -0.277676 -0.110161
v -0.066707 -0.279789 -0.049467
v -0.048626 -0.277887 -0.104535
v -0.066707 -0.279789 -0.049467
v -0.055840 -0.277676 -0.110161
v -0.055861 -0.277661 0.011235
v 0.003022 -0.274571 0.025190
v -0.048624 -0.277882 0.005636
v 0.003022 -0.274571 0.025190
v -0.055861 -0.277661 0.011235
v 0.064648 -0.252196 -0.111925
v 0.055993 -0.270387 -0.105415
v 0.055993 -0.270387 -0.105415
v 0.082718 -0.267418 -0.049425
v 0.072860 -0.268172 -0.049439
v -0.048624 -0.277882 0.005636
v -0.066707 -0.279789 -0.049467
v -0.053224 -0.214844 0.005506
v -0.070586 -0.215677 -0.049394
v 0.072860 -0.268172 -0.049439
v 0.056013 -0.270390 0.006513
v 0.067835 -0.203283 -0.049544
v 0.050736 -0.206692 0.005530
v 0.055993 -0.270387 -0.105415
v -0.001273 -0.210246 -0.122740
v 0.002978 -0.274570 -0.124073
v 0.050789 -0.206689 -0.104366
v -0.056607 -0.268252 -0.092625
v -0.060707 -0.397496 -0.089721
v -0.063049 -0.268252 -0.068753
v -0.059414 -0.268252 -0.030999
v -0.046687 -0.320477 -0.015003
v -0.036197 -0.268252 -0.002501
v -0.035551 -0.338881 0.000327
v 0.052772 -0.268252 -0.014777
v 0.074139 -0.305916 -0.006823
v 0.059693 -0.268252 -0.029699
v 0.173801 -0.319225 0.136389
v 0.146282 -0.320101 0.159115
v 0.162259 -0.342005 0.182666
v -0.017993 -0.367200 0.018725
v -0.012221 -0.336397 0.024276
v -0.035551 -0.338881 0.000327
v 0.173801 -0.319225 0.136389
v 0.210952 -0.371140 0.151785
v 0.185756 -0.322993 0.116451
v 0.091913 -0.341445 -0.033962
v 0.086138 -0.390584 -0.040777
v 0.058309 -0.340296 -0.076676
v 0.087646 -0.325125 -0.019344
v 0.094992 -0.397205 0.160253
v 0.015098 -0.397015 0.053550
v 0.189414 -0.397267 0.188458
v 0.040980 -0.396904 0.097884
v -0.012221 -0.336397 0.024276
v -0.017993 -0.367200 0.018725
v 0.048615 -0.390281 0.113706
v 0.053395 -0.315842 0.044189
v 0.043265 -0.305738 0.022326
v 0.017755 -0.307701 0.028112
v 0.083245 -0.315567 0.016401
v 0.123131 -0.372635 0.196199
v 0.147093 -0.329571 0.038689
v 0.121566 -0.367744 -0.006961
v 0.206106 -0.397274 0.167175
v 0.185259 -0.397182 0.070168
v 0.080362 -0.322320 0.117935
v 0.029289 -0.321285 0.042803
v -0.012221 -0.336397 0.024276
v 0.083245 -0.315567 0.016401
v 0.155240 -0.313610 0.087013
v 0.087646 -0.325125 -0.019344
v 0.119978 -0.345569 0.183806
v 0.119978 -0.345569 0.183806
v 0.080362 -0.322320 0.117935
v -0.012221 -0.336397 0.024276
v 0.187827 -0.335909 0.090688
v 0.219396 -0.390684 0.103350
v 0.213007 -0.397267 0.154277
v 0.174896 -0.397202 0.193156
v 0.140256 -0.397591 0.199559
v 0.119441 -0.311940 0.122192
v 0.086210 -0.390503 -0.036364
v 0.000619 -0.390503 0.041374
v 0.086613 -0.390503 -0.040962
v 0.100003 -0.390756 0.166226
v 0.097536 -0.390788 0.168362
v 0.045989 -0.390357 0.103854
v 0.180513 -0.390738 0.199313
v 0.181753 -0.390653 0.202132
v 0.165296 -0.390720 0.201327
v 0.216253 -0.390738 0.139643
v 0.216102 -0.390743 0.155428
v 0.213012 -0.390738 0.154283
v 0.215826 -0.390737 0.107298
v 0.219111 -0.390728 0.105906
v 0.086682 -0.397013 -0.036760
v 0.147178 -0.390596 0.027013
v 0.216570 -0.397256 0.106676
v -0.058954 -0.061790 0.013850
v -0.055861 -0.277661 0.011235
v -0.070586 -0.215677 -0.049394
v -0.053189 -0.214841 -0.104436
v 0.064648 -0.252196 -0.111925
v -0.053224 -0.214844 0.005506
v -0.001209 -0.210241 0.023842
v 0.056013 -0.270390 0.006513
v 0.050736 -0.206692 0.005530
v -0.066707 -0.279789 -0.049467
v 0.055993 -0.270387 -0.105415
v 0.002978 -0.274570 -0.124073
v 0.056013 -0.270390 0.006513
v 0.056013 -0.270390 0.006513
v 0.003022 -0.274571 0.025190
v -0.048624 -0.277882 0.005636
v -0.053224 -0.214844 0.005506
v -0.001209 -0.210241 0.023842
v 0.002978 -0.274570 -0.124073
v -0.048626 -0.277887 -0.104535
v -0.053189 -0.214841 -0.104436
v -0.053189 -0.214841 -0.104436
v -0.048626 -0.277887 -0.104535
v 0.056013 -0.270390 0.006513
v 0.050736 -0.206692 0.005530
v 0.055993 -0.270387 -0.105415
v 0.050789 -0.206689 -0.104366
v 0.038910 -0.404023 -0.092734
v -0.047095 -0.404023 -0.020567
v 0.054810 -0.268252 -0.078864
v -0.036197 -0.268252 -0.002501
v -0.046687 -0.320477 -0.015003
v -0.047497 -0.397496 -0.015968
v 0.043509 -0.397496 -0.092331
v 0.044319 -0.320477 -0.091366
v -0.060833 -0.397495 -0.033414
v -0.047497 -0.397496 -0.015968
v -0.025231 -0.268252 -0.117474
v -0.025975 -0.397499 -0.118355
v -0.060707 -0.397496 -0.089721
v -0.056607 -0.268252 -0.092625
v 0.044319 -0.320477 -0.091366
v 0.043509 -0.397496 -0.092331
v 0.027835 -0.397494 -0.109008
v 0.030636 -0.268252 -0.106958
v -0.007713 -0.404023 -0.113953
v 0.027835 -0.397494 -0.109008
v 0.030636 -0.268252 -0.106958
v -0.006525 -0.268252 -0.116239
v -0.063248 -0.268252 -0.068642
v 0.027271 -0.268252 0.006620
v 0.043265 -0.305738 0.022326
v 0.074139 -0.305916 -0.006823
v 0.052772 -0.268252 -0.014777
v 0.000201 -0.397031 0.035797
v 0.086206 -0.397031 -0.036370
v 0.102185 -0.397014 -0.017327
v 0.054810 -0.268252 -0.078864
v -0.036197 -0.268252 -0.002501
v 0.017755 -0.307701 0.028112
v 0.007686 -0.268090 0.011618
v 0.061437 -0.268252 -0.048205
v -0.007156 -0.268252 0.009350
v 0.061437 -0.268252 -0.048205
v 0.059693 -0.268252 -0.029699
v 0.011374 -0.268252 0.010845
v 0.052772 -0.268252 -0.014777
v 0.027271 -0.268252 0.006620
v 0.086739 -0.390262 -0.040819
v -0.000575 -0.392705 0.040070
v -0.046470 -0.320136 -0.014745
v 0.044666 -0.319930 -0.090953
v 0.119978 -0.345569 0.183806
v 0.162259 -0.342005 0.182666
v 0.146282 -0.320101 0.159115
v 0.123131 -0.372635 0.196199
v 0.183951 -0.372245 0.188490
v 0.162259 -0.342005 0.182666
v 0.183951 -0.372245 0.188490
v 0.143741 -0.391115 0.208754
v 0.181049 -0.391016 0.201721
v 0.181049 -0.391016 0.201721
v 0.215475 -0.390786 0.158435
v 0.091913 -0.341445 -0.033962
v 0.121566 -0.367744 -0.006961
v 0.086138 -0.390584 -0.040777
v 0.139725 -0.390586 0.014449
v 0.137201 -0.397108 0.016558
v 0.029289 -0.321285 0.042803
v 0.002557 -0.390653 0.040036
v 0.074139 -0.305916 -0.006823
v 0.053395 -0.315842 0.044189
v 0.147093 -0.329571 0.038689
v 0.139725 -0.390586 0.014449
v 0.185756 -0.322993 0.116451
v 0.187827 -0.335909 0.090688
v 0.142102 -0.391618 0.210515
v 0.215821 -0.397265 0.107292
v 0.216249 -0.397265 0.139637
v 0.119978 -0.345569 0.183806
v 0.030268 -0.397496 -0.103033
v 0.032283 -0.397496 -0.105709
v 0.043509 -0.397496 -0.092331
v 0.038910 -0.397496 -0.092734
v -0.059939 -0.397496 -0.087978
v -0.047095 -0.397496 -0.020567
v -0.047497 -0.397496 -0.015968
v 0.000206 -0.390503 0.035802
v 0.020114 -0.390514 0.059529
v 0.017436 -0.390503 0.061415
v 0.086210 -0.390503 -0.036364
v 0.000206 -0.390503 0.035802
v 0.000619 -0.390503 0.041374
v 0.043332 -0.390341 0.105772
v 0.145273 -0.391062 0.205538
v 0.143741 -0.391115 0.208754
v 0.206111 -0.390738 0.167181
v 0.208761 -0.390743 0.169147
v 0.185261 -0.390667 0.070172
v 0.187075 -0.390668 0.067296
v 0.139564 -0.390586 0.014306
v 0.137205 -0.390581 0.016564
v 0.104580 -0.390503 -0.019550
v 0.102189 -0.390500 -0.017321
v 0.038910 -0.404023 -0.092734
v 0.027969 -0.404023 -0.105033
v 0.026133 -0.397496 -0.106102
v 0.038910 -0.397496 -0.092734
v 0.027969 -0.404023 -0.105033
v -0.024236 -0.404023 -0.115448
v -0.026401 -0.397496 -0.115005
v 0.026133 -0.397496 -0.106102
v -0.057641 -0.404023 -0.088245
v -0.059095 -0.397496 -0.084832
v -0.059095 -0.397496 -0.084832
v -0.057641 -0.404023 -0.088245
v -0.057709 -0.404023 -0.034663
v -0.057041 -0.397496 -0.032971
v -0.047095 -0.404023 -0.020567
v -0.047095 -0.397496 -0.020567
v -0.047095 -0.397496 -0.020567
v -0.047095 -0.404023 -0.020567
v 0.038910 -0.404023 -0.092734
v 0.038910 -0.397496 -0.092734
v 0.086210 -0.390503 -0.036364
v 0.086206 -0.397031 -0.036370
v 0.000201 -0.397031 0.035797
v 0.000206 -0.390503 0.035802
v 0.002517 -0.390391 0.033883
v 0.001732 -0.396930 0.034524
v 0.040980 -0.396904 0.097884
v 0.045989 -0.390357 0.103854
v 0.095041 -0.397287 0.160309
v 0.100003 -0.390756 0.166226
v 0.095041 -0.397287 0.160309
v 0.140256 -0.397591 0.199559
v 0.145273 -0.391062 0.205538
v 0.100003 -0.390756 0.166226
v 0.145273 -0.391062 0.205538
v 0.140256 -0.397591 0.199559
v 0.174807 -0.397021 0.192939
v 0.177240 -0.390740 0.199523
v 0.177240 -0.390740 0.199523
v 0.174807 -0.397021 0.192939
v 0.189414 -0.397267 0.188458
v 0.189419 -0.390738 0.188464
v 0.189414 -0.397267 0.188458
v 0.214868 -0.397267 0.151850
v 0.213818 -0.390738 0.154785
v 0.189419 -0.390738 0.188464
v 0.215821 -0.397265 0.107292
v 0.215826 -0.390737 0.107298
v 0.215826 -0.390737 0.107298
v 0.085719 -0.390488 -0.035949
v -0.073278 0.013099 -0.064694
v 0.083191 0.009401 -0.049471
v -0.057110 0.008030 0.015210
v -0.077399 0.014360 -0.050191
v 0.061405 0.007758 0.016925
v 0.062427 0.005982 -0.115648
v 0.062427 0.005983 -0.115648
v -0.057359 0.008230 -0.113718
v -0.040865 0.008206 -0.120481
v 0.002300 0.011817 0.037454
v 0.074549 0.007911 -0.081752
v -0.070743 0.012336 -0.026376
v -0.057106 0.008188 0.015213
v -0.035866 0.009442 0.023477
v 0.048727 0.006450 -0.120213
v -0.057359 0.008230 -0.113718
v 0.061405 0.007757 0.016925
v 0.075347 0.008878 -0.020798
v 0.045123 0.008841 0.022391
v 0.002144 0.008056 -0.136155
vt 0.107472 0.964112
vt 0.129908 0.964124
vt 0.131406 0.967238
vt 0.105935 0.967238
vt 0.765785 0.893317
vt 0.767406 0.890045
vt 0.791038 0.890519
vt 0.792659 0.893856
vt 0.110709 0.959793
vt 0.121091 0.956486
vt 0.123748 0.957325
vt 0.113940 0.957328
vt 0.116374 0.956486
vt 0.784345 0.883410
vt 0.773835 0.883200
vt 0.776752 0.882348
vt 0.781692 0.882447
vt 0.962502 0.700958
vt 0.963013 0.701501
vt 0.958555 0.705060
vt 0.958154 0.704429
vt 0.964954 0.698270
vt 0.965614 0.698650
vt 0.966536 0.695729
vt 0.965792 0.695612
vt 0.966536 0.690775
vt 0.965792 0.690895
vt 0.963013 0.684702
vt 0.964951 0.688461
vt 0.962486 0.685230
vt 0.958556 0.681360
vt 0.958167 0.681993
vt 0.955040 0.680456
vt 0.955212 0.679717
vt 0.723436 0.615232
vt 0.734605 0.630068
vt 0.723425 0.627943
vt 0.534673 0.199828
vt 0.540114 0.215777
vt 0.535281 0.215661
vt 0.559434 0.506299
vt 0.573684 0.502364
vt 0.574395 0.549222
vt 0.146476 0.581950
vt 0.157747 0.629156
vt 0.143939 0.633271
vt 0.559434 0.565441
vt 0.449368 0.870105
vt 0.460083 0.862578
vt 0.448948 0.882705
vt 0.737266 0.570986
vt 0.723387 0.566383
vt 0.737210 0.566595
vt 0.986887 0.029420
vt 0.992457 0.041402
vt 0.984818 0.029598
vt 0.534795 0.150822
vt 0.548202 0.151113
vt 0.548369 0.154861
vt 0.794917 0.366230
vt 0.800459 0.377545
vt 0.792854 0.366039
vt 0.587907 0.505819
vt 0.586324 0.501794
vt 0.987667 0.962089
vt 0.993795 0.974847
vt 0.991542 0.974842
vt 0.257744 0.822600
vt 0.245268 0.822839
vt 0.257721 0.808195
vt 0.245288 0.808197
vt 0.947945 0.613409
vt 0.947146 0.626134
vt 0.933613 0.613413
vt 0.933051 0.625936
vt 0.277004 0.249677
vt 0.288996 0.234802
vt 0.289070 0.249432
vt 0.277156 0.235168
vt 0.579758 0.926738
vt 0.579758 0.899268
vt 0.585200 0.927110
vt 0.593804 0.926650
vt 0.597180 0.914386
vt 0.600296 0.924750
vt 0.600578 0.909513
vt 0.348539 0.694607
vt 0.357326 0.692778
vt 0.348654 0.698036
vt 0.543539 0.856642
vt 0.543326 0.864738
vt 0.537716 0.865913
vt 0.902385 0.949589
vt 0.897761 0.944301
vt 0.902385 0.941746
vt 0.361058 0.660529
vt 0.373240 0.657030
vt 0.362097 0.665111
vt 0.365680 0.698934
vt 0.376825 0.700323
vt 0.365168 0.708528
vt 0.361879 0.695632
vt 0.835113 0.357547
vt 0.832972 0.387806
vt 0.823097 0.338702
vt 0.835113 0.376313
vt 0.002759 0.937955
vt 0.003462 0.931677
vt 0.027228 0.928941
vt 0.576423 0.864599
vt 0.581347 0.862978
vt 0.583908 0.868342
vt 0.359561 0.687497
vt 0.045780 0.933077
vt 0.363382 0.682646
vt 0.371918 0.692832
vt 0.817070 0.339911
vt 0.806237 0.359759
vt 0.559822 0.870534
vt 0.580190 0.868797
vt 0.589751 0.873898
vt 0.577236 0.855391
vt 0.554678 0.852720
vt 0.583327 0.849810
vt 0.041217 0.937955
vt 0.996240 0.448221
vt 0.991325 0.438369
vt 0.996240 0.417936
vt 0.365129 0.670952
vt 0.377910 0.668044
vt 0.813970 0.341119
vt 0.826285 0.340038
vt 0.833190 0.344062
vt 0.553303 0.863969
vt 0.227215 0.800022
vt 0.227831 0.826264
vt 0.226485 0.799266
vt 0.264101 0.827971
vt 0.264100 0.828712
vt 0.245335 0.827858
vt 0.281784 0.819170
vt 0.282454 0.819379
vt 0.279864 0.822070
vt 0.276848 0.804143
vt 0.279540 0.806530
vt 0.278883 0.806886
vt 0.271223 0.799379
vt 0.271473 0.798609
vt 0.383075 0.645269
vt 0.384529 0.659487
vt 0.383075 0.677424
vt 0.752297 0.612686
vt 0.743340 0.629613
vt 0.737886 0.618021
vt 0.751061 0.566072
vt 0.161247 0.568851
vt 0.171812 0.570221
vt 0.469647 0.892776
vt 0.456499 0.892776
vt 0.548797 0.215964
vt 0.589647 0.564591
vt 0.480386 0.885233
vt 0.480789 0.872623
vt 0.560325 0.152238
vt 0.562339 0.156303
vt 0.473247 0.862569
vt 0.800485 0.354238
vt 0.169486 0.633324
vt 0.157376 0.633115
vt 0.171720 0.629191
vt 0.560814 0.502161
vt 0.987667 0.987591
vt 0.937037 0.819978
vt 0.937619 0.808206
vt 0.951968 0.808277
vt 0.951698 0.820158
vt 0.992431 0.018123
vt 0.232643 0.822601
vt 0.232672 0.808195
vt 0.300920 0.235310
vt 0.300906 0.249677
vt 0.937440 0.832109
vt 0.951968 0.832040
vt 0.947140 0.600629
vt 0.933051 0.600894
vt 0.131390 0.970299
vt 0.105919 0.970299
vt 0.765785 0.900916
vt 0.792659 0.901455
vt 0.949192 0.858927
vt 0.931749 0.860219
vt 0.931749 0.839327
vt 0.949192 0.838035
vt 0.592592 0.899002
vt 0.596565 0.897906
vt 0.395973 0.892294
vt 0.396444 0.921596
vt 0.388560 0.922378
vt 0.388850 0.892980
vt 0.360542 0.711873
vt 0.378074 0.711871
vt 0.377948 0.715605
vt 0.348543 0.715516
vt 0.126437 0.959777
vt 0.408719 0.921522
vt 0.408719 0.892236
vt 0.770979 0.885712
vt 0.787730 0.886048
vt 0.881979 0.935263
vt 0.883314 0.944683
vt 0.876976 0.947870
vt 0.876754 0.937905
vt 0.832892 0.393079
vt 0.807411 0.392825
vt 0.807496 0.387170
vt 0.348730 0.709216
vt 0.894349 0.927792
vt 0.888608 0.942200
vt 0.885857 0.933038
vt 0.769094 0.907223
vt 0.789350 0.907629
vt 0.348721 0.702259
vt 0.772088 0.910219
vt 0.786356 0.910506
vt 0.775457 0.911857
vt 0.782987 0.912008
vt 0.231880 0.945651
vt 0.227339 0.926893
vt 0.250149 0.927393
vt 0.253469 0.945651
vt 0.782387 0.578123
vt 0.773977 0.582907
vt 0.773892 0.576422
vt 0.785421 0.583765
vt 0.773867 0.591450
vt 0.365998 0.649874
vt 0.373103 0.648552
vt 0.784073 0.590058
vt 0.776978 0.594768
vt 0.377311 0.645472
vt 0.377745 0.655478
vt 0.184313 0.393305
vt 0.178446 0.400672
vt 0.173227 0.393038
vt 0.173228 0.405341
vt 0.806521 0.376134
vt 0.888057 0.946406
vt 0.010150 0.926925
vt 0.582277 0.853409
vt 0.882710 0.948148
vt 0.564965 0.847742
vt 0.377260 0.687965
vt 0.545569 0.851814
vt 0.550326 0.848160
vt 0.050616 0.928855
vt 0.806508 0.348822
vt 0.811239 0.343169
vt 0.543474 0.873612
vt 0.955040 0.705927
vt 0.955212 0.706669
vt 0.951237 0.706648
vt 0.951980 0.705912
vt 0.965614 0.688110
vt 0.951980 0.680440
vt 0.951237 0.679696
vt 0.226812 0.825502
vt 0.233857 0.825651
vt 0.233782 0.826390
vt 0.405650 0.691438
vt 0.404660 0.666066
vt 0.405650 0.665268
vt 0.245269 0.828598
vt 0.277600 0.826126
vt 0.277924 0.826870
vt 0.280072 0.809994
vt 0.280805 0.809835
vt 0.260287 0.799044
vt 0.260063 0.798304
vt 0.243875 0.798491
vt 0.243912 0.799231
vt 0.232843 0.799400
vt 0.232870 0.800141
vt 0.712980 0.076736
vt 0.712980 0.079494
vt 0.711485 0.079795
vt 0.711495 0.076801
vt 0.730034 0.820005
vt 0.718137 0.819567
vt 0.717671 0.818086
vt 0.729643 0.818493
vt 0.710533 0.820007
vt 0.710230 0.818592
vt 0.783482 0.462834
vt 0.784157 0.464397
vt 0.771976 0.463564
vt 0.771679 0.462188
vt 0.768701 0.464148
vt 0.768793 0.462748
vt 0.995836 0.526681
vt 0.997317 0.526587
vt 0.997317 0.546331
vt 0.995836 0.546426
vt 0.917159 0.992564
vt 0.917276 0.991087
vt 0.936887 0.991087
vt 0.936769 0.992564
vt 0.666955 0.611811
vt 0.667416 0.610538
vt 0.682200 0.611139
vt 0.683284 0.612466
vt 0.697088 0.610517
vt 0.698161 0.611841
vt 0.821901 0.913822
vt 0.821901 0.903549
vt 0.823360 0.902520
vt 0.823361 0.912805
vt 0.377533 0.265884
vt 0.379091 0.264862
vt 0.379088 0.272845
vt 0.377505 0.273260
vt 0.106687 0.088288
vt 0.107996 0.087735
vt 0.107996 0.091070
vt 0.106513 0.091080
vt 0.995218 0.179288
vt 0.995078 0.170835
vt 0.996565 0.171530
vt 0.996704 0.179312
vt 0.995229 0.160680
vt 0.996715 0.160704
vt 0.384573 0.677500
vt 0.384578 0.645389
vt 0.581978 0.565009
vt 0.574662 0.565361
vt 0.151453 0.568534
vt 0.737913 0.630614
vt 0.558576 0.215429
vt 0.562294 0.215232
vt 0.147696 0.568436
vt 0.568093 0.565421
vt 0.752816 0.627580
vt 0.174919 0.570621
vn 0.0000 -1.0000 0.0000
vn -0.0000 1.0000 -0.0000
vn -0.7246 -0.0045 -0.6892
vn -0.8162 -0.0049 -0.5778
vn -0.6168 0.3691 -0.6952
vn -0.7210 -0.0080 0.6929
vn -0.5545 -0.0269 0.8318
vn -0.6006 0.2982 0.7419
vn 0.6966 -0.2222 0.6822
vn 0.7810 -0.6245 -0.0000
vn 1.0000 0.0083 0.0052
vn -0.7246 -0.0046 -0.6891
vn 0.0200 -0.2140 -0.9766
vn -0.5453 -0.6268 -0.5566
vn 0.7179 0.3062 0.6252
vn -0.5219 -0.6461 0.5569
vn -0.7024 -0.7118 0.0003
vn 0.0553 -0.6400 0.7664
vn -0.9718 -0.2356 -0.0004
vn 0.1299 -0.9915 -0.0003
vn 0.4425 -0.8187 0.3661
vn 0.1300 -0.9915 -0.0003
vn -0.5453 -0.6267 -0.5566
vn -0.5458 -0.6266 0.5563
vn 0.1389 -0.9903 -0.0045
vn 0.0229 -0.2020 0.9791
vn 0.4420 -0.8192 -0.3656
vn 0.1389 -0.9903 -0.0046
vn 0.6957 -0.2254 -0.6820
vn -0.0303 -0.9921 -0.1221
vn -0.0304 -0.9920 -0.1222
vn -0.5700 -0.8216 -0.0001
vn 0.4419 -0.8192 -0.3655
vn 0.6131 -0.5704 -0.5466
vn 0.8083 -0.5888 -0.0002
vn -0.5700 -0.8217 -0.0001
vn -0.0287 -0.9916 0.1259
vn -0.7024 -0.7118 0.0004
vn -0.5216 -0.6462 -0.5571
vn 0.1384 -0.9903 0.0079
vn -0.5219 -0.6461 0.5570
vn -0.8340 0.0158 -0.5515
vn -0.9068 0.0013 -0.4216
vn -0.9951 0.0071 -0.0986
vn -0.9354 -0.0021 0.3536
vn -0.5898 0.0013 0.8076
vn -0.4571 0.6802 0.5731
vn -0.6349 0.1269 0.7621
vn 0.4302 0.8397 0.3314
vn 0.7315 0.6321 0.2556
vn 0.5282 0.8369 0.1436
vn 0.4374 0.8584 0.2681
vn 0.0301 0.8931 0.4489
vn 0.2985 0.5972 0.7445
vn -0.7893 -0.0147 0.6138
vn -0.6866 0.3245 0.6506
vn -0.6352 0.1268 0.7619
vn 0.4373 0.8584 0.2681
vn 0.8560 0.4361 0.2778
vn 0.6621 0.7494 -0.0089
vn 0.7159 0.3347 -0.6127
vn 0.7319 -0.0095 -0.6813
vn 0.8387 0.1112 -0.5332
vn 0.7278 0.5967 -0.3380
vn 0.0000 -1.0000 -0.0028
vn -0.0011 -1.0000 0.0004
vn 0.4408 -0.7636 0.4719
vn -0.6455 -0.6289 0.4334
vn -0.6864 0.3249 0.6506
vn -0.7892 -0.0146 0.6140
vn -0.7642 0.1411 0.6293
vn -0.0565 0.9711 0.2321
vn 0.2850 0.7689 0.5724
vn -0.2667 0.4895 0.8302
vn 0.2556 0.9667 -0.0088
vn -0.4533 0.1705 0.8749
vn 0.6312 0.5854 -0.5088
vn 0.7382 0.0734 -0.6706
vn -0.0011 -1.0000 -0.0007
vn -0.0012 -1.0000 -0.0006
vn -0.4674 0.7779 0.4199
vn -0.3764 0.7771 0.5044
vn -0.6865 0.3248 0.6506
vn 0.2559 0.9667 -0.0087
vn 0.2983 0.9415 -0.1570
vn 0.7280 0.5965 -0.3380
vn -0.3837 0.5055 0.7728
vn -0.3836 0.5054 0.7729
vn -0.4672 0.7781 0.4198
vn -0.6865 0.3247 0.6506
vn 0.7625 0.5404 -0.3558
vn 0.8940 0.3584 -0.2689
vn -0.0007 -1.0000 -0.0008
vn -0.0005 -1.0000 0.0014
vn -0.3029 -0.7748 0.5549
vn -0.1076 0.9760 0.1892
vn -0.2036 -0.9486 -0.2422
vn -0.0065 -1.0000 0.0045
vn -0.0051 -1.0000 0.0059
vn -0.4320 -0.7754 0.4606
vn 0.0075 -0.9998 -0.0159
vn -0.5415 -0.7194 0.4350
vn 0.0043 -0.9999 0.0166
vn 0.0039 -0.9999 0.0128
vn 0.0083 -0.9997 -0.0239
vn -0.0003 -1.0000 -0.0003
vn -0.0007 -1.0000 -0.0003
vn -0.0014 -1.0000 -0.0006
vn 0.6075 -0.7653 -0.2126
vn -0.0038 -1.0000 0.0038
vn 0.7070 0.1661 -0.6874
vn 0.7115 -0.2785 -0.6452
vn 0.7530 0.1293 -0.6451
vn -0.7209 -0.0080 0.6930
vn -0.9972 0.0453 0.0601
vn -1.0000 0.0053 0.0008
vn -0.0173 -0.0225 -0.9996
vn 0.4860 -0.1569 -0.8597
vn 0.6130 -0.5704 0.5467
vn -0.0101 -0.0217 0.9997
vn 0.7834 0.2608 -0.5642
vn 0.6131 -0.5703 -0.5466
vn 0.0553 -0.6400 -0.7664
vn 0.6967 -0.2222 0.6821
vn -0.5217 -0.6461 -0.5571
vn 0.6958 -0.2254 -0.6820
vn -0.0288 -0.9916 0.1260
vn 0.4420 -0.8192 -0.3655
vn 0.0553 -0.6401 -0.7663
vn 0.1385 -0.9903 0.0079
vn 0.4424 -0.8187 0.3660
vn -0.0287 -0.9916 0.1258
vn -0.5217 -0.6462 -0.5571
vn -0.0303 -0.9920 -0.1222
vn 0.8212 -0.5682 0.0525
vn -0.0847 -0.5997 0.7957
vn 0.6201 0.6757 -0.3986
vn -0.4571 0.6801 0.5731
vn -0.5898 0.0013 0.8075
vn -0.0900 -0.5896 0.8026
vn 0.8049 -0.5914 0.0483
vn 0.8998 -0.0018 -0.4363
vn -0.9411 -0.0044 0.3380
vn -0.0900 -0.5896 0.8027
vn -0.2495 0.0081 -0.9683
vn -0.2461 0.0078 -0.9692
vn -0.9069 0.0013 -0.4214
vn -0.8341 0.0158 -0.5514
vn 0.8999 -0.0019 -0.4362
vn 0.8050 -0.5913 0.0483
vn 0.4781 0.0031 -0.8783
vn 0.4931 0.0075 -0.8700
vn 0.4783 0.0031 -0.8782
vn 0.4932 0.0075 -0.8699
vn 0.2415 0.8271 0.5076
vn 0.2849 0.7690 0.5722
vn 0.7316 0.6321 0.2554
vn 0.4303 0.8397 0.3314
vn -0.4546 -0.7069 -0.5419
vn -0.4546 -0.7070 -0.5417
vn -0.0003 -1.0000 0.0076
vn -0.2667 0.4896 0.8302
vn -0.1698 0.2684 0.9482
vn 0.6242 0.7692 -0.1370
vn 0.5283 0.8369 0.1436
vn 0.4303 0.8396 0.3314
vn 0.2415 0.8270 0.5077
vn -0.4720 -0.6951 -0.5422
vn -0.4711 -0.6909 -0.5484
vn -0.4704 -0.6884 -0.5521
vn -0.4715 -0.6927 -0.5457
vn 0.2986 0.5973 0.7444
vn 0.0302 0.8932 0.4486
vn -0.4533 0.1704 0.8749
vn 0.5114 0.4971 0.7010
vn 0.2985 0.5973 0.7444
vn 0.5113 0.4971 0.7011
vn 0.1375 -0.4750 0.8692
vn 0.3648 0.5372 0.7605
vn 0.3647 0.5372 0.7605
vn 0.8752 0.3060 0.3747
vn 0.7159 0.3352 -0.6125
vn 0.7383 0.0739 -0.6704
vn 0.7325 -0.0095 -0.6807
vn 0.7384 -0.0437 -0.6729
vn -0.0098 -0.9999 0.0074
vn -0.3765 0.7773 0.5041
vn -0.8201 -0.2515 0.5140
vn 0.7316 0.6320 0.2555
vn -0.0565 0.9711 0.2318
vn 0.6313 0.5852 -0.5089
vn 0.7373 -0.0456 -0.6740
vn 0.6621 0.7493 -0.0089
vn -0.7071 -0.1937 0.6801
vn 0.5522 -0.8335 0.0178
vn -0.0018 -1.0000 -0.0004
vn -0.3837 0.5054 0.7729
vn 0.8050 -0.5914 0.0484
vn 0.4224 -0.9060 0.0270
vn -0.0439 -0.9098 0.4128
vn -0.0900 -0.5897 0.8026
vn -0.4544 0.7075 -0.5413
vn 0.0038 -1.0000 -0.0010
vn 0.0039 -1.0000 -0.0011
vn -0.0065 -1.0000 0.0044
vn -0.4547 0.7075 -0.5410
vn 0.0002 -1.0000 -0.0014
vn -0.0285 -0.9544 0.2972
vn 0.1374 -0.4750 0.8692
vn 0.0054 -1.0000 0.0053
vn 0.0055 -1.0000 0.0053
vn 0.0045 -1.0000 -0.0058
vn 0.0042 -1.0000 -0.0059
vn 0.0035 -1.0000 -0.0045
vn 0.0031 -1.0000 -0.0059
vn 0.0031 -1.0000 -0.0058
vn 0.8213 -0.5681 0.0526
vn 0.5363 0.0334 -0.8434
vn 0.4260 0.0256 -0.9044
vn 0.5363 0.0335 -0.8433
vn -0.1753 0.0216 -0.9843
vn -0.3480 0.0311 -0.9370
vn -0.8492 0.0031 -0.5281
vn -0.9603 -0.0321 -0.2772
vn -0.8491 0.0030 -0.5282
vn -0.9580 -0.0588 0.2808
vn -0.9221 -0.0541 0.3832
vn -0.0846 -0.5997 0.7957
vn -0.0439 -0.9098 0.4127
vn 0.8212 -0.5682 0.0526
vn 0.4224 -0.9060 0.0271
vn -0.2031 -0.9487 -0.2422
vn -0.4545 -0.7071 -0.5417
vn -0.4547 -0.7069 -0.5418
vn -0.4546 0.7076 -0.5410
vn -0.8384 0.1624 0.5203
vn -0.8385 0.1621 0.5203
vn -0.6454 -0.6290 0.4333
vn -0.5414 -0.7195 0.4350
vn -0.7334 -0.0566 0.6774
vn -0.4319 -0.7754 0.4606
vn -0.7337 -0.0563 0.6772
vn -0.3028 -0.7749 0.5548
vn -0.0283 -0.9545 0.2970
vn -0.4320 -0.7754 0.4605
vn -0.0285 -0.9545 0.2970
vn -0.3029 -0.7749 0.5548
vn 0.2857 -0.6239 0.7274
vn 0.2850 -0.6245 0.7272
vn 0.2846 -0.6247 0.7271
vn 0.4407 -0.7636 0.4719
vn 0.6548 -0.2829 0.7009
vn 0.9703 0.0231 0.2408
vn 0.9184 -0.0142 0.3955
vn 0.6548 -0.2828 0.7009
vn 0.5523 -0.8335 0.0179
vn 0.6075 -0.7654 -0.2126
vn 0.6074 -0.7654 -0.2126
vn 0.7029 0.1890 -0.6858
vn 0.9965 0.0281 -0.0784
vn 0.9991 0.0433 0.0036
vn -0.1298 -0.0110 -0.9915
vn -0.9998 0.0102 -0.0187
vn 0.1066 -0.0645 0.9922
vn 0.5523 0.2786 0.7857
vn -0.6209 0.3178 -0.7166
vn 0.8833 -0.1745 0.4351
vn -0.7502 0.2996 0.5894
vn 0.5796 0.3222 -0.7485
usemtl Characters.002
s off
f 1/1/1 2/2/1 3/3/1
f 1/1/1 3/3/1 4/4/1
f 5/5/2 6/6/2 7/7/2
f 8/8/2 5/5/2 7/7/2
f 9/9/1 2/2/1 1/1/1
f 10/10/1 11/11/1 12/12/1
f 13/13/1 10/10/1 12/12/1
f 14/14/2 15/15/2 16/16/2
f 14/14/2 16/16/2 17/17/2
f 18/18/1 19/19/1 20/20/1
f 21/21/1 18/18/1 20/20/1
f 22/22/1 23/23/1 19/19/1
f 22/22/1 19/19/1 18/18/1
f 24/24/1 23/23/1 22/22/1
f 24/24/1 22/22/1 25/25/1
f 26/26/1 24/24/1 25/25/1
f 26/26/1 25/25/1 27/27/1
f 28/28/1 29/29/1 30/30/1
f 31/31/1 28/28/1 30/30/1
f 31/31/1 30/30/1 32/32/1
f 31/31/1 32/32/1 33/33/1
f 34/34/1 31/31/1 33/33/1
s 1
f 36/35/3 323/36/4 330/37/5
f 37/38/6 336/39/7 325/40/8
f 39/41/9 40/42/10 38/43/11
f 41/44/12 42/45/13 43/46/14
f 38/43/11 339/47/15 39/41/9
f 46/48/16 47/49/17 48/50/18
f 49/51/19 50/52/14 51/53/20
f 52/54/21 53/55/22 54/56/23
f 55/57/24 56/58/25 44/59/26
f 57/60/27 58/61/28 59/62/24
f 60/63/29 40/42/10 61/64/30
f 62/65/31 63/66/10 64/67/32
f 65/68/33 66/69/20 67/70/34
f 68/71/35 67/70/34 66/69/20
f 69/72/36 70/73/37 71/74/38
f 72/75/39 71/74/38 70/73/37
f 73/76/30 74/77/18 75/78/40
f 74/77/18 73/76/30 76/79/41
f 77/80/42 78/81/43 79/82/44
f 80/83/45 81/84/46 82/85/47
f 82/85/47 81/84/46 83/86/48
f 84/87/49 85/88/50 86/89/51
f 87/90/52 88/91/53 89/92/54
f 90/93/55 91/94/56 92/95/57
f 93/96/58 94/97/59 95/98/60
f 96/99/61 97/100/62 98/101/63
f 99/102/64 96/99/61 98/101/63
f 100/103/65 101/104/66 102/105/67
f 103/106/68 101/104/66 100/103/65
f 104/107/69 105/108/70 106/109/71
f 107/110/72 108/111/73 109/112/74
f 99/102/64 85/88/50 110/113/75
f 104/107/69 106/109/71 111/114/76
f 112/115/77 96/99/61 99/102/64
f 112/115/77 113/116/78 96/99/61
f 114/117/79 102/105/67 115/118/80
f 116/119/81 117/120/82 118/121/83
f 119/122/84 120/123/85 121/124/86
f 111/114/76 122/125/87 104/107/69
f 123/126/88 124/127/89 125/128/90
f 126/129/91 127/130/92 112/115/77
f 128/131/93 114/117/79 115/118/80
f 129/132/94 130/133/95 100/103/65
f 88/91/53 131/134/96 116/119/81
f 132/135/97 133/136/98 134/137/99
f 135/138/100 136/139/101 137/140/102
f 138/141/103 139/142/104 140/143/105
f 141/144/106 142/145/107 143/146/108
f 144/147/109 145/148/110 141/144/106
f 146/149/111 147/150/112 148/151/113
f 149/152/114 334/153/115 35/154/116
f 49/51/19 150/155/24 149/152/114
f 35/154/116 49/51/19 149/152/114
f 42/45/13 342/156/117 337/157/118
f 36/35/3 50/52/14 49/51/19
f 36/35/3 49/51/19 35/154/116
f 47/49/17 151/158/35 152/159/119
f 47/49/17 152/159/119 48/50/18
f 37/38/6 55/57/24 44/59/26
f 60/63/29 38/43/11 40/42/10
f 37/38/6 332/160/120 336/39/7
f 329/161/121 38/43/11 60/63/29
f 154/162/122 151/158/35 47/49/17
f 155/163/123 154/162/122 47/49/17
f 44/59/26 56/58/25 156/164/37
f 44/59/26 156/164/37 45/165/124
f 157/166/125 155/163/123 47/49/17
f 49/51/19 51/53/20 150/155/24
f 57/60/27 59/62/24 158/167/22
f 159/168/30 160/169/40 42/45/13
f 153/170/126 159/168/30 42/45/13
f 39/41/9 161/171/37 40/42/10
f 162/172/127 64/67/32 63/66/10
f 163/173/25 164/174/128 165/175/34
f 166/176/129 163/173/25 165/175/34
f 43/46/14 42/45/13 160/169/40
f 52/54/21 54/56/23 167/177/130
f 168/178/131 169/179/119 66/69/20
f 68/71/35 66/69/20 169/179/119
f 170/180/119 171/181/131 75/78/40
f 170/180/119 75/78/40 74/77/18
f 172/182/132 163/173/25 166/176/129
f 166/176/129 173/183/133 172/182/132
f 69/72/36 71/74/38 174/184/134
f 175/185/16 174/184/134 71/74/38
f 4/4/1 3/3/1 176/186/135
f 4/4/1 176/186/135 177/187/136
f 178/188/137 5/5/2 8/8/2
f 179/189/138 178/188/137 8/8/2
f 180/190/139 181/191/140 182/192/141
f 180/190/139 182/192/141 183/193/142
f 184/194/143 185/195/144 81/84/46
f 80/83/45 184/194/143 81/84/46
f 186/196/145 187/197/146 188/198/147
f 186/196/145 188/198/147 189/199/148
f 190/200/149 191/201/150 192/202/151
f 190/200/149 192/202/151 193/203/152
f 9/9/1 194/204/1 2/2/1
f 195/205/153 187/197/146 186/196/145
f 196/206/154 195/205/153 186/196/145
f 6/6/2 197/207/2 198/208/2
f 7/7/2 6/6/2 198/208/2
f 79/82/44 78/81/43 184/194/143
f 79/82/44 184/194/143 80/83/45
f 12/12/1 11/11/1 194/204/1
f 12/12/1 194/204/1 9/9/1
f 197/207/2 15/15/2 14/14/2
f 198/208/2 197/207/2 14/14/2
f 199/209/155 200/210/156 201/211/157
f 199/209/155 201/211/157 202/212/158
f 203/213/159 204/214/160 205/215/161
f 101/104/66 203/213/159 205/215/161
f 206/216/137 98/101/63 190/200/149
f 206/216/137 190/200/149 193/203/152
f 207/217/47 92/95/57 208/218/162
f 207/217/47 208/218/162 209/219/163
f 210/220/164 178/188/137 179/189/138
f 211/221/2 210/220/164 179/189/138
f 99/102/64 98/101/63 206/216/137
f 212/222/164 99/102/64 206/216/137
f 213/223/165 210/220/164 211/221/2
f 214/224/2 213/223/165 211/221/2
f 85/88/50 99/102/64 212/222/164
f 86/89/51 85/88/50 212/222/164
f 209/219/163 208/218/162 200/210/156
f 209/219/163 200/210/156 199/209/155
f 215/225/166 213/223/165 214/224/2
f 216/226/167 215/225/166 214/224/2
f 217/227/168 218/228/169 219/229/170
f 220/230/171 217/227/168 219/229/170
f 221/231/87 222/232/172 223/233/173
f 221/231/87 224/234/174 225/235/175
f 221/231/87 225/235/175 222/232/172
f 226/236/176 227/237/177 94/97/59
f 226/236/176 94/97/59 93/96/58
f 94/97/59 127/130/92 126/129/91
f 95/98/60 94/97/59 126/129/91
f 224/234/174 228/238/178 229/239/179
f 224/234/174 229/239/179 225/235/175
f 230/240/180 231/241/181 94/97/59
f 227/237/177 230/240/180 94/97/59
f 115/118/80 102/105/67 101/104/66
f 205/215/161 115/118/80 101/104/66
f 94/97/59 231/241/181 127/130/92
f 232/242/182 233/243/183 234/244/184
f 233/243/183 235/245/185 234/244/184
f 236/246/186 115/118/80 205/215/161
f 208/218/162 92/95/57 91/94/56
f 208/218/162 91/94/56 237/247/187
f 106/109/71 105/108/70 238/248/188
f 108/111/73 107/110/72 119/122/84
f 108/111/73 119/122/84 239/249/189
f 237/247/187 240/250/190 208/218/162
f 117/120/82 116/119/81 131/134/96
f 107/110/72 117/120/82 131/134/96
f 129/132/94 100/103/65 102/105/67
f 121/124/86 120/123/85 241/251/191
f 113/116/78 127/130/92 242/252/192
f 120/123/85 119/122/84 107/110/72
f 120/123/85 107/110/72 131/134/96
f 243/253/193 244/254/91 241/251/191
f 243/253/193 241/251/191 120/123/85
f 112/115/77 127/130/92 113/116/78
f 106/109/71 245/255/194 111/114/76
f 88/91/53 87/90/52 120/123/85
f 131/134/96 88/91/53 120/123/85
f 246/256/195 247/257/196 115/118/80
f 247/257/196 128/131/93 115/118/80
f 248/258/197 88/91/53 116/119/81
f 249/259/1 250/260/1 251/261/198
f 252/262/199 249/259/1 251/261/198
f 120/123/85 87/90/52 243/253/193
f 21/21/1 20/20/1 250/260/1
f 249/259/1 21/21/1 250/260/1
f 253/263/1 26/26/1 27/27/1
f 253/263/1 27/27/1 29/29/1
f 28/28/1 253/263/1 29/29/1
f 34/34/1 33/33/1 254/264/200
f 255/265/201 34/34/1 254/264/200
f 254/264/200 252/262/199 251/261/198
f 254/264/200 251/261/198 255/265/201
f 256/266/202 257/267/203 258/268/204
f 256/266/202 258/268/204 133/136/205
f 259/269/97 260/270/206 261/271/205
f 258/268/204 257/267/203 137/140/102
f 262/272/207 258/268/204 137/140/102
f 263/273/208 264/274/209 136/139/101
f 135/138/100 263/273/208 136/139/101
f 137/140/102 136/139/101 262/272/207
f 139/142/104 264/274/209 263/273/208
f 139/142/104 263/273/208 140/143/105
f 138/141/103 265/275/210 266/276/211
f 138/141/103 266/276/211 139/142/104
f 142/145/107 266/276/211 265/275/210
f 143/146/108 142/145/107 265/275/210
f 145/148/110 144/147/109 267/277/212
f 268/278/213 145/148/110 267/277/212
f 141/144/106 145/148/110 142/145/107
f 269/279/214 268/278/213 267/277/212
f 269/279/214 267/277/212 270/280/214
f 271/281/215 269/279/214 270/280/214
f 271/281/215 270/280/214 272/282/216
f 132/135/97 134/137/99 271/281/215
f 132/135/97 271/281/215 272/282/216
f 273/283/217 274/284/218 275/285/219
f 276/286/199 273/283/217 275/285/219
f 277/287/220 278/288/221 279/289/222
f 280/290/219 277/287/220 279/289/222
f 278/288/221 281/291/223 282/292/224
f 279/289/222 278/288/221 282/292/224
f 283/293/224 284/294/225 285/295/226
f 283/293/224 285/295/226 286/296/227
f 286/296/227 285/295/226 287/297/228
f 286/296/227 287/297/228 288/298/229
f 289/299/229 290/300/228 291/301/230
f 289/299/229 291/301/230 292/302/231
f 293/303/232 294/304/233 295/305/234
f 293/303/232 295/305/234 296/306/235
f 297/307/236 298/308/237 299/309/238
f 297/307/236 299/309/238 300/310/239
f 299/309/238 301/311/240 302/312/241
f 300/310/239 299/309/238 302/312/241
f 303/313/242 304/314/243 305/315/244
f 306/316/245 303/313/242 305/315/244
f 307/317/246 308/318/247 309/319/248
f 307/317/246 309/319/248 310/320/249
f 311/321/250 312/322/248 313/323/251
f 311/321/250 313/323/251 314/324/252
f 315/325/251 316/326/253 317/327/254
f 318/328/255 315/325/251 317/327/254
f 317/327/254 316/326/253 319/329/256
f 317/327/254 319/329/256 320/330/257
f 148/151/113 147/150/112 321/331/258
f 146/149/111 322/332/259 147/150/112
f 333/333/260 324/334/261 38/43/11
f 342/156/117 41/44/12 331/335/262
f 337/157/118 153/170/126 42/45/13
f 326/336/263 323/36/4 35/154/116
f 341/337/264 45/165/124 327/338/265
f 338/339/266 331/335/262 41/44/12
f 334/153/115 326/336/263 35/154/116
f 324/334/261 340/340/267 38/43/11
f 341/337/264 332/160/120 44/59/26
f 36/35/3 35/154/116 323/36/4
f 38/43/11 340/340/267 339/47/15
f 149/152/114 335/341/268 334/153/115
f 37/38/6 44/59/26 332/160/120
f 329/161/121 333/333/260 38/43/11
f 342/156/117 42/45/13 41/44/12
f 337/157/118 328/342/269 153/170/126
f 341/337/264 44/59/26 45/165/124
