# Blender v2.92.0 OBJ File: ''
# www.blender.org
mtllib pierIzqTio.mtl
o Characters_Circle.001
v -0.077179 -0.076130 -0.052612
v -0.098825 -0.063377 -0.110316
v -0.070302 -0.066940 -0.110366
v -0.074252 -0.063904 0.004138
v -0.089506 -0.033580 0.022070
v -0.103010 -0.049080 0.012159
v -0.052904 -0.089883 0.011232
v -0.048397 -0.035579 0.022292
v 0.049322 -0.037978 0.003647
v 0.010477 -0.037716 0.023093
v -0.000839 -0.072919 0.026043
v 0.018718 -0.003412 -0.110519
v 0.004763 -0.040288 -0.131511
v -0.057406 -0.033746 -0.128834
v -0.051911 -0.104070 -0.116550
v 0.060175 -0.210423 0.018397
v 0.001748 -0.190312 0.039162
v -0.069974 -0.094225 -0.052500
v -0.073278 -0.302706 -0.064694
v -0.077399 -0.301445 -0.050191
v 0.078930 -0.212173 -0.049665
v 0.074549 -0.307895 -0.081752
v 0.061767 -0.233121 -0.116754
v 0.045123 -0.306965 0.022391
v 0.061405 -0.308048 0.016925
v -0.102151 -0.065406 0.003952
v -0.101105 -0.019540 0.014642
v -0.071229 0.003085 0.003305
v -0.098825 0.007293 0.003253
v -0.077179 -0.076130 -0.052612
v -0.052904 -0.089883 0.011232
v -0.074252 -0.063904 0.004138
v -0.070302 -0.066940 -0.110366
v -0.098825 -0.063377 -0.110316
v -0.081886 -0.028228 -0.129291
v -0.070302 -0.066940 -0.110366
v -0.051911 -0.104070 -0.116550
v -0.080369 0.006082 -0.110195
v 0.019478 -0.001113 0.003481
v -0.043633 -0.001124 0.003357
v 0.043518 -0.010184 -0.011165
v 0.043518 -0.010184 -0.095898
v 0.049676 -0.041032 -0.111674
v 0.049322 -0.037978 0.003647
v 0.064229 -0.038790 -0.052226
v 0.052123 -0.000160 -0.053532
v 0.043518 -0.010184 -0.011165
v 0.049676 -0.041032 -0.111674
v 0.043518 -0.010184 -0.095898
v -0.054135 -0.195083 0.017404
v -0.054135 -0.195083 0.017404
v 0.060175 -0.210423 0.018397
v 0.061767 -0.233121 -0.116754
v 0.001418 -0.168110 -0.138230
v 0.002144 -0.307749 -0.136155
v -0.040865 -0.307600 -0.120481
v -0.057359 -0.307575 -0.113718
v -0.070743 -0.303469 -0.026376
v 0.075347 -0.306928 -0.020798
v 0.002300 -0.303989 0.037454
v 0.062427 -0.309823 -0.115648
v 0.048727 -0.309356 -0.120213
v -0.100351 -0.076622 -0.053181
v -0.099670 -0.071613 -0.078340
v -0.101199 -0.071756 -0.026134
v -0.074252 -0.063904 0.004138
v -0.102151 -0.065406 0.003952
v -0.057359 -0.307575 -0.113718
v 0.061405 -0.308048 0.016925
v -0.057106 -0.307617 0.015213
v -0.035866 -0.306364 0.023477
v -0.057110 -0.307775 0.015210
v 0.062427 -0.309823 -0.115648
v 0.083191 -0.306404 -0.049471
vt 0.371582 0.627351
vt 0.358399 0.632018
vt 0.358379 0.625640
vt 0.532057 0.271308
vt 0.528632 0.277927
vt 0.525528 0.274617
vt 0.536841 0.265221
vt 0.537997 0.277352
vt 0.560298 0.276855
vt 0.551411 0.276685
vt 0.548730 0.268668
vt 0.169365 0.500723
vt 0.165676 0.508427
vt 0.151622 0.506111
vt 0.151856 0.522374
vt 0.562277 0.237389
vt 0.548978 0.241761
vt 0.738007 0.674585
vt 0.734605 0.630068
vt 0.737913 0.630614
vt 0.575018 0.586853
vt 0.581978 0.565009
vt 0.590164 0.582051
vt 0.558576 0.215429
vt 0.562294 0.215232
vt 0.525693 0.271049
vt 0.526039 0.281280
vt 0.532930 0.286533
vt 0.526651 0.287568
vt 0.738031 0.679020
vt 0.752558 0.674058
vt 0.751005 0.681277
vt 0.148199 0.513834
vt 0.141761 0.512620
vt 0.146132 0.504501
vt 0.724896 0.680623
vt 0.723387 0.671267
vt 0.146956 0.497159
vt 0.553595 0.285318
vt 0.539209 0.285497
vt 0.559076 0.283445
vt 0.174901 0.502922
vt 0.175870 0.509660
vt 0.563352 0.626995
vt 0.576146 0.626465
vt 0.576528 0.635384
vt 0.566801 0.633335
vt 0.589627 0.625917
vt 0.586113 0.633056
vt 0.536263 0.241217
vt 0.753652 0.651530
vt 0.559434 0.587678
vt 0.175870 0.553220
vt 0.163086 0.537178
vt 0.161247 0.568851
vt 0.151453 0.568534
vt 0.147696 0.568436
vt 0.743340 0.629613
vt 0.568093 0.565421
vt 0.548797 0.215964
vt 0.174919 0.570621
vt 0.171812 0.570221
vt 0.371473 0.632616
vt 0.365720 0.632371
vt 0.377616 0.632655
vt 0.384458 0.626316
vt 0.384445 0.632677
vt 0.723425 0.627943
vt 0.559434 0.565441
vt 0.752816 0.627580
vt 0.540114 0.215777
vt 0.535281 0.215661
vt 0.589647 0.564591
vt 0.574662 0.565361
vt 0.660087 0.135029
vt 0.662752 0.134996
vt 0.663768 0.134649
vt 0.592581 0.175318
vt 0.591555 0.174910
vt 0.587402 0.174250
vt 0.657760 0.135413
vt 0.658923 0.135221
vt 0.667002 0.199863
vt 0.668778 0.199431
vt 0.665200 0.199483
vt 0.658127 0.133626
vt 0.657646 0.134247
vt 0.587250 0.175610
vt 0.586440 0.177115
vt 0.631409 0.199361
vt 0.630144 0.199357
vt 0.629005 0.199350
vt 0.627939 0.199304
vt 0.626583 0.199239
vt 0.657582 0.132352
vt 0.657552 0.133013
vt 0.641474 0.171272
vt 0.641656 0.171302
vt 0.642271 0.171418
vt 0.651128 0.194106
vt 0.651333 0.194095
vt 0.651870 0.194065
vt 0.652348 0.194076
vt 0.652613 0.194082
vt 0.640655 0.171438
vt 0.641176 0.171327
vt 0.673713 0.174684
vt 0.673174 0.174667
vt 0.672594 0.174591
vt 0.672423 0.174569
vt 0.649625 0.174901
vt 0.650046 0.174878
vt 0.650449 0.174859
vt 0.650810 0.174855
vt 0.651286 0.174854
vt 0.673919 0.174690
vn -0.5179 -0.8554 0.0070
vn -0.3527 -0.8375 -0.4175
vn -0.5264 -0.5600 -0.6397
vn -0.3608 -0.6302 0.6875
vn 0.0027 -0.0128 0.9999
vn 0.0170 -0.6646 0.7470
vn -0.6507 -0.1126 0.7510
vn -0.0828 0.1255 0.9886
vn 0.7412 0.2204 0.6341
vn 0.2182 0.1901 0.9572
vn 0.0561 0.0220 0.9982
vn 0.2506 0.7394 -0.6249
vn 0.1437 0.2178 -0.9654
vn -0.0671 0.0683 -0.9954
vn -0.6766 -0.0980 -0.7298
vn 0.7275 0.0528 0.6841
vn 0.0086 0.0541 0.9985
vn -0.9718 -0.2358 0.0062
vn -0.9984 0.0516 0.0208
vn -0.9980 0.0604 0.0159
vn 0.9979 0.0650 0.0058
vn 0.8635 0.0155 -0.5041
vn 0.7324 0.0284 -0.6802
vn 0.5249 0.0427 0.8501
vn 0.5641 -0.2830 0.7757
vn -0.2437 -0.6736 0.6978
vn 0.1843 0.2883 0.9396
vn 0.1176 0.7302 0.6731
vn -0.2719 0.6812 0.6797
vn -0.6506 -0.1126 0.7510
vn -0.3607 -0.6301 0.6876
vn -0.5265 -0.5600 -0.6397
vn -0.0135 -0.8241 -0.5662
vn -0.0134 -0.0090 -0.9999
vn -0.6765 -0.0980 -0.7299
vn 0.1038 0.8371 -0.5371
vn 0.2447 0.7542 0.6094
vn 0.0476 0.7886 0.6130
vn 0.6749 0.5914 0.4414
vn 0.6580 0.5980 -0.4576
vn 0.7333 0.2115 -0.6462
vn 0.9803 0.1975 0.0019
vn 0.7332 0.6799 -0.0083
vn 0.6748 0.5915 0.4414
vn 0.6579 0.5981 -0.4577
vn -0.7275 0.0370 0.6851
vn -0.7274 0.0370 0.6852
vn 0.7274 0.0528 0.6842
vn 0.7325 0.0284 -0.6802
vn 0.0113 0.0186 -0.9998
vn -0.0029 -0.0074 -1.0000
vn -0.5716 -0.0074 -0.8205
vn -0.6366 -0.3050 -0.7083
vn -0.8609 0.0068 0.5087
vn 0.9620 0.2231 0.1576
vn -0.0026 -0.0085 1.0000
vn 0.5951 -0.3230 -0.7359
vn 0.1352 0.1343 -0.9817
vn 0.0210 -0.8425 0.5382
vn 0.3506 -0.6382 -0.6854
vn 0.0539 -0.8978 -0.4371
vn -0.4930 -0.8352 -0.2437
vn -0.6701 -0.4529 -0.5882
vn 0.7347 -0.3315 0.5918
vn -0.7744 -0.3076 0.5529
vn -0.1325 0.0023 0.9912
vn -0.6131 -0.2984 0.7315
vn 0.7882 -0.2642 -0.5559
vn 0.9989 0.0471 0.0007
vn 0.1030 0.9079 0.4064
vn 0.3024 0.8668 0.3965
vn -0.2662 0.8779 0.0049
vn 0.1389 0.9878 -0.0698
vn 0.3046 0.8812 -0.3614
vn -0.5483 0.5229 -0.6527
vn -0.4510 0.7068 0.5450
vn 0.1014 0.8991 0.4258
vn -0.4509 0.8926 0.0001
vn -0.6794 0.5832 0.0000
vn -0.5945 0.7237 0.3504
vn -0.9809 0.1634 -0.1054
vn -0.8958 0.3720 -0.2431
vn -0.9820 0.1591 -0.1019
vn -0.7941 0.0904 -0.6010
vn -0.6952 0.0131 -0.7187
vn -0.7386 0.0190 -0.6739
vn -0.8887 0.2155 0.4046
vn -0.7615 -0.0163 -0.6480
vn -0.9446 0.0979 0.3133
vn -0.9842 -0.1532 0.0887
vn -0.9154 0.4024 -0.0048
vn -0.0204 -0.9997 0.0105
vn 0.0550 -0.9605 -0.2729
vn -0.1040 -0.8105 -0.5764
vn 0.3396 -0.9300 0.1405
vn -0.2693 -0.9626 0.0287
vn -0.0443 -0.9989 0.0159
vn -0.2535 -0.9654 -0.0621
vn 0.2085 -0.7867 0.5811
vn -0.0502 -0.9639 0.2615
vn -0.1065 -0.9726 -0.2066
vn 0.2177 -0.9733 -0.0728
vn -0.0006 -0.9999 0.0131
vn 0.1374 -0.9702 0.1995
vn 0.0006 -0.8872 0.0058
vn 0.1675 -0.9284 -0.3316
vn 0.0599 -0.9719 0.2275
vn -0.0010 -1.0000 0.0061
vn -0.2203 -0.9726 0.0741
vn 0.0705 -0.8864 0.4576
vn -0.4269 -0.8991 -0.0968
usemtl Characters.002
s 1
f 1/1/1 2/2/2 3/3/3
f 4/4/4 5/5/5 6/6/6
f 7/7/7 8/8/8 4/4/4
f 9/9/9 10/10/10 11/11/11
f 12/12/12 13/13/13 14/14/14
f 14/14/14 13/13/13 15/15/15
f 11/11/11 16/16/16 9/9/9
f 17/17/17 16/16/16 11/11/11
f 18/18/18 19/19/19 20/20/20
f 21/21/21 22/22/22 23/23/23
f 16/16/16 24/24/24 25/25/25
f 4/4/4 6/6/6 26/26/26
f 27/27/27 28/28/28 29/29/29
f 30/30/1 18/18/18 31/31/30
f 30/30/1 31/31/30 32/32/31
f 33/33/32 34/34/33 35/35/34
f 36/36/3 37/37/35 18/18/18
f 36/36/3 18/18/18 30/30/1
f 12/12/12 14/14/14 35/35/34
f 12/12/12 35/35/34 38/38/36
f 33/33/32 35/35/34 14/14/14
f 15/15/15 33/33/32 14/14/14
f 8/8/8 7/7/7 11/11/11
f 8/8/8 11/11/11 10/10/10
f 8/8/8 10/10/10 39/39/37
f 40/40/38 8/8/8 39/39/37
f 10/10/10 9/9/9 41/41/39
f 39/39/37 10/10/10 41/41/39
f 42/42/40 43/43/41 13/13/13
f 42/42/40 13/13/13 12/12/12
f 44/44/9 45/45/42 46/46/43
f 47/47/44 44/44/9 46/46/43
f 45/45/42 48/48/41 49/49/45
f 46/46/43 45/45/42 49/49/45
f 7/7/7 50/50/46 17/17/17
f 7/7/7 17/17/17 11/11/11
f 18/18/18 51/51/47 31/31/30
f 52/52/48 21/21/21 45/45/42
f 44/44/9 52/52/48 45/45/42
f 21/21/21 23/23/23 48/48/41
f 45/45/42 21/21/21 48/48/41
f 43/43/41 53/53/49 54/54/50
f 43/43/41 54/54/50 13/13/13
f 54/54/50 55/55/51 56/56/52
f 54/54/50 57/57/53 15/15/15
f 13/13/13 54/54/50 15/15/15
f 51/51/47 20/20/20 58/58/54
f 59/59/55 21/21/21 52/52/48
f 16/16/16 60/60/56 24/24/24
f 53/53/49 61/61/57 62/62/58
f 1/1/1 63/63/59 64/64/60
f 2/2/2 1/1/1 64/64/60
f 5/5/5 8/8/8 40/40/38
f 65/65/61 63/63/59 1/1/1
f 5/5/5 40/40/38 27/27/27
f 65/65/61 66/66/31 67/67/62
f 4/4/4 8/8/8 5/5/5
f 27/27/27 40/40/38 28/28/28
f 65/65/61 1/1/1 66/66/31
f 18/18/18 37/37/35 19/19/19
f 68/68/63 19/19/19 37/37/35
f 69/69/64 59/59/55 52/52/48
f 58/58/54 70/70/65 51/51/47
f 55/55/51 53/53/49 62/62/58
f 71/71/66 60/60/56 17/17/17
f 71/71/66 50/50/46 72/72/67
f 22/22/22 73/73/68 23/23/23
f 21/21/21 74/74/69 22/22/22
f 54/54/50 56/56/52 57/57/53
f 51/51/47 18/18/18 20/20/20
f 59/59/55 74/74/69 21/21/21
f 16/16/16 17/17/17 60/60/56
f 55/55/51 54/54/50 53/53/49
f 71/71/66 17/17/17 50/50/46
f 40/75/70 39/76/71 41/77/72 42/78/73 12/79/74 38/80/75 29/81/76 28/82/77
f 46/83/78 49/84/79 42/78/73 41/77/72 47/85/80
f 5/86/81 27/87/82 29/81/76 38/80/75 35/88/83 34/89/84 67/90/85 65/91/86 63/92/87 64/93/88 2/94/89 26/95/90 6/96/91
f 20/97/92 19/98/93 68/99/94 25/100/95 24/101/96 60/102/97 71/103/98 72/104/99 70/105/100 58/106/101
f 56/107/102 55/108/103 62/109/104 61/110/105 73/111/106 22/112/107 74/113/108 59/114/109 69/115/110 57/116/111
