# Blender v2.92.0 OBJ File: ''
# www.blender.org
mtllib tapaCofre.mtl
o COFRE.011_Cube.001
v -0.007559 0.316101 -0.214887
v -0.006960 0.254123 -0.287790
v -0.006997 0.248687 -0.283168
v -0.007598 0.310665 -0.210266
v 0.015155 0.281846 -0.254996
v 0.015118 0.276409 -0.250375
v 0.014839 0.305263 -0.216435
v 0.014877 0.310699 -0.221056
v 0.022267 0.310665 -0.210020
v 0.022867 0.248687 -0.282924
v 0.022905 0.254123 -0.287544
v 0.022304 0.316101 -0.214641
v 0.000253 0.281846 -0.255119
v 0.000214 0.276409 -0.250497
v -0.000027 0.310699 -0.221179
v -0.000064 0.305263 -0.216558
v -0.011043 0.248478 -0.280004
v 0.026894 0.248478 -0.279693
v 0.026910 0.254191 -0.281535
v -0.011028 0.254191 -0.281846
v 0.026954 0.256928 -0.286875
v -0.010985 0.256928 -0.287188
v 0.027001 0.255086 -0.292587
v -0.010938 0.255086 -0.292900
v 0.027023 0.249745 -0.295324
v -0.010915 0.249745 -0.295637
v 0.027008 0.244032 -0.293483
v -0.010930 0.244032 -0.293796
v 0.026918 0.243137 -0.282430
v 0.026965 0.241295 -0.288141
v -0.010975 0.241295 -0.288454
v -0.011021 0.243137 -0.282742
v 0.276593 0.216501 -0.270879
v 0.274637 0.002144 -0.033179
v 0.274637 0.002144 -0.033179
v 0.276593 0.216501 -0.270879
v 0.259914 -0.046997 -0.097726
v -0.255294 -0.046997 -0.101963
v -0.255294 -0.046997 -0.101963
v 0.259914 -0.046997 -0.097726
v -0.253522 0.147358 -0.317482
v 0.261686 0.147358 -0.313246
v 0.261686 0.147358 -0.313246
v -0.253522 0.147358 -0.317482
v 0.260403 -0.048105 -0.157204
v 0.260403 -0.048105 -0.157204
v -0.254805 -0.048105 -0.161439
v -0.254805 -0.048105 -0.161439
v 0.261278 0.008178 -0.263663
v -0.253931 0.008178 -0.267900
v -0.253931 0.008178 -0.267900
v 0.261278 0.008178 -0.263663
v -0.269961 -0.032778 -0.173372
v -0.270637 -0.031246 -0.091135
v -0.270637 -0.031246 -0.091135
v -0.269961 -0.032778 -0.173372
v -0.259124 -0.009605 -0.250091
v 0.266179 -0.009605 -0.245771
v 0.269720 0.001100 -0.249673
v -0.262601 0.001100 -0.254050
v -0.275908 -0.010556 -0.264671
v 0.283201 -0.010556 -0.260074
v 0.265654 -0.043518 -0.181891
v 0.269086 -0.040749 -0.170847
v 0.282481 -0.056040 -0.174393
v -0.259649 -0.043518 -0.186210
v -0.263264 -0.040749 -0.175224
v -0.276599 -0.056040 -0.178989
v -0.260542 -0.041199 -0.077642
v 0.264761 -0.041199 -0.073321
v 0.268406 -0.039145 -0.084357
v -0.264006 -0.039145 -0.088736
v -0.277345 -0.054270 -0.084359
v 0.281672 -0.054270 -0.079762
v 0.264293 -0.005629 -0.016365
v 0.268739 0.000633 -0.016060
v 0.280113 -0.000872 0.001143
v -0.261011 -0.005629 -0.020683
v -0.265462 0.000633 -0.020453
v -0.277115 -0.000872 -0.003439
v -0.258567 0.152483 -0.317958
v 0.266737 0.152483 -0.313640
v 0.270236 0.161395 -0.306736
v -0.262178 0.161395 -0.311113
v -0.275352 0.164300 -0.326728
v 0.283665 0.164300 -0.322133
v 0.266690 0.082956 -0.307744
v 0.270144 0.075198 -0.299420
v 0.283630 0.069986 -0.314143
v -0.258615 0.082956 -0.312064
v -0.262206 0.075198 -0.303797
v -0.275448 0.069986 -0.318739
v -0.258840 0.232511 -0.284755
v 0.266464 0.232511 -0.280436
v 0.270862 0.233422 -0.274199
v -0.263340 0.233422 -0.278591
v -0.274826 0.250286 -0.281946
v 0.282403 0.250286 -0.277364
v 0.266707 0.172190 -0.309948
v -0.258597 0.172190 -0.314267
v -0.271146 0.001395 -0.029155
v -0.269110 0.224891 -0.276989
v -0.268852 0.160860 -0.308314
v -0.268911 0.076154 -0.301133
v -0.269313 0.003236 -0.252180
v -0.269950 -0.037945 -0.174608
v -0.270650 -0.036363 -0.089616
v 0.276605 0.224891 -0.272501
v 0.274567 0.001395 -0.024669
v 0.275064 -0.036363 -0.085128
v 0.275764 -0.037945 -0.170122
v 0.276402 0.003236 -0.247693
v 0.276804 0.076154 -0.296646
v 0.276862 0.160860 -0.303827
v -0.258669 0.063957 -0.305388
v 0.266634 0.063957 -0.301067
v 0.266302 0.003908 -0.260755
v -0.259002 0.003908 -0.265073
v -0.259811 -0.048201 -0.166625
v 0.265493 -0.048201 -0.162305
v 0.264920 -0.046902 -0.092543
v -0.260384 -0.046902 -0.096861
v -0.261020 0.006846 -0.019586
v 0.264284 0.006846 -0.015266
v 0.266363 0.234888 -0.268141
v -0.258941 0.234888 -0.272460
v 0.262069 0.231033 -0.263900
v 0.262358 0.159093 -0.299097
v 0.262301 0.076910 -0.292129
v 0.261912 0.006505 -0.244864
v 0.261297 -0.033256 -0.169967
v 0.260618 -0.031720 -0.087505
v 0.260061 0.010701 -0.019577
v -0.256725 0.010701 -0.023827
v -0.256167 -0.031720 -0.091755
v -0.255488 -0.033256 -0.174215
v -0.254873 0.006505 -0.249113
v -0.254485 0.076910 -0.296378
v -0.254428 0.159093 -0.303346
v -0.254716 0.231033 -0.268150
v 0.274426 -0.000120 -0.007459
v -0.271288 -0.000120 -0.011945
v -0.269083 0.241854 -0.280269
v 0.276633 0.241854 -0.275782
v 0.275039 -0.046708 -0.082059
v 0.275077 -0.031246 -0.086648
v 0.275785 -0.048395 -0.172619
v 0.275754 -0.032778 -0.168885
v 0.276460 -0.004728 -0.254873
v 0.276372 0.007174 -0.244142
v 0.276887 0.072592 -0.306781
v 0.276763 0.077915 -0.291633
v 0.276950 0.162847 -0.314434
v 0.276819 0.159877 -0.298583
v -0.269123 0.216501 -0.275366
v -0.271077 0.002144 -0.037667
v -0.268765 0.162847 -0.318922
v -0.268895 0.159877 -0.303070
v -0.268828 0.072592 -0.311268
v -0.268952 0.077915 -0.296120
v -0.269255 -0.004728 -0.259360
v -0.269343 0.007174 -0.248629
v -0.269930 -0.048395 -0.177106
v -0.270675 -0.046708 -0.086546
v 0.261436 0.227890 -0.282739
v -0.253774 0.227890 -0.286974
v 0.261642 0.176810 -0.307727
v -0.253568 0.176810 -0.311965
v 0.261645 0.088081 -0.308219
v -0.253564 0.088081 -0.312457
v 0.261564 0.059686 -0.298243
v -0.253646 0.059686 -0.302478
v 0.261094 -0.012016 -0.241270
v -0.254114 -0.012016 -0.245505
v 0.260644 -0.041106 -0.186474
v -0.254564 -0.041106 -0.190712
v 0.259678 -0.038474 -0.069000
v -0.255530 -0.038474 -0.073237
v 0.259281 -0.008353 -0.020769
v -0.255928 -0.008353 -0.025005
v 0.275077 -0.031246 -0.086648
v 0.275754 -0.032778 -0.168885
v 0.276372 0.007174 -0.244142
v 0.276763 0.077915 -0.291633
v 0.276819 0.159877 -0.298583
v -0.271077 0.002144 -0.037667
v -0.269123 0.216501 -0.275366
v -0.268895 0.159877 -0.303070
v -0.268952 0.077915 -0.296120
v -0.269343 0.007174 -0.248629
v -0.253774 0.227890 -0.286974
v 0.261436 0.227890 -0.282739
v 0.261642 0.176810 -0.307727
v -0.253568 0.176810 -0.311965
v 0.261645 0.088081 -0.308219
v -0.253564 0.088081 -0.312457
v -0.253646 0.059686 -0.302478
v 0.261564 0.059686 -0.298243
v -0.254114 -0.012016 -0.245505
v 0.261094 -0.012016 -0.241270
v 0.260644 -0.041106 -0.186474
v -0.254564 -0.041106 -0.190712
v -0.255530 -0.038474 -0.073237
v 0.259678 -0.038474 -0.069000
v 0.259281 -0.008353 -0.020769
v -0.255928 -0.008353 -0.025005
v -0.255602 -0.037896 -0.064618
v -0.248075 -0.041931 -0.071016
v -0.135869 -0.041931 -0.070095
v -0.136212 -0.015844 -0.028323
v -0.143739 -0.011810 -0.021924
v -0.248472 -0.011810 -0.022784
v -0.255892 -0.015844 -0.029306
v 0.121683 -0.037896 -0.061515
v 0.129210 -0.041931 -0.067915
v 0.252187 -0.041931 -0.066904
v 0.259607 -0.037896 -0.060381
v 0.259264 -0.011810 -0.018610
v 0.128813 -0.011810 -0.019682
v 0.121393 -0.015844 -0.026205
v -0.007119 -0.037896 -0.062574
v 0.000407 -0.041931 -0.068975
v 0.114262 -0.041931 -0.068038
v 0.113866 -0.011810 -0.019805
v -0.007463 -0.011810 -0.020803
v -0.014540 -0.041931 -0.069098
v -0.128792 -0.011810 -0.021801
v 0.281828 0.055576 -0.272227
v 0.281178 -0.015820 -0.193058
v 0.281577 0.009949 -0.241597
v -0.275725 -0.027936 -0.108030
v -0.275741 -0.022693 -0.106072
v -0.274157 0.151043 -0.298727
v -0.274206 0.079648 -0.292674
v -0.275152 -0.024027 -0.177710
v -0.275261 -0.028986 -0.164436
v 0.003864 0.229855 -0.288898
v 0.132667 0.229855 -0.287838
v 0.132834 0.190956 -0.308217
v 0.125410 0.179483 -0.314289
v 0.008090 0.179483 -0.315252
v 0.004035 0.190179 -0.309683
v 0.151710 -0.024100 -0.230763
v 0.156180 -0.016720 -0.244629
v 0.261115 -0.016720 -0.243766
v 0.260665 -0.045809 -0.188973
v 0.158847 -0.045809 -0.189808
v 0.151429 -0.042238 -0.196598
v 0.023022 -0.016720 -0.245726
v 0.148780 -0.016720 -0.244690
v 0.151340 -0.045809 -0.189870
v 0.027235 -0.045809 -0.190891
v 0.022654 -0.040436 -0.201054
v -0.254807 -0.053430 -0.161340
v -0.116247 -0.053430 -0.160202
v -0.116627 -0.052568 -0.113924
v -0.117695 -0.052322 -0.100732
v -0.251324 -0.052322 -0.101831
v -0.255233 -0.052464 -0.109479
v -0.274933 -0.012248 -0.204358
v -0.274941 -0.010719 -0.203287
v -0.274337 0.055576 -0.276802
v -0.274589 0.009949 -0.246170
v 0.282009 0.151043 -0.294154
v 0.280378 -0.027794 -0.095842
v 0.280905 -0.028986 -0.159864
v 0.281014 -0.024027 -0.173135
v 0.281959 0.079648 -0.288099
v -0.253479 0.146908 -0.322788
v -0.113081 0.146908 -0.321634
v -0.112202 0.139318 -0.320983
v -0.112238 0.087631 -0.316600
v -0.246047 0.087631 -0.317701
v -0.253515 0.095221 -0.318407
v 0.261469 0.229855 -0.286779
v 0.261686 0.179483 -0.313169
v 0.135356 0.179483 -0.314207
v -0.104722 0.146908 -0.321567
v 0.016606 0.146908 -0.320568
v 0.016574 0.100288 -0.316615
v 0.003421 0.087631 -0.315650
v -0.253658 0.047967 -0.301025
v -0.242761 0.056718 -0.306810
v -0.136171 0.056718 -0.305934
v -0.136421 0.011534 -0.275600
v -0.147397 0.005210 -0.271445
v -0.246421 0.005210 -0.272259
v -0.253835 0.015959 -0.279538
v 0.145408 0.146908 -0.319510
v 0.145367 0.087631 -0.314484
v 0.019357 0.087631 -0.315518
v -0.007430 0.045751 -0.297513
v 0.002836 0.056718 -0.304791
v 0.121433 0.056718 -0.303816
v 0.121184 0.011534 -0.273482
v 0.117580 0.005210 -0.269267
v -0.007654 0.005210 -0.270297
v -0.254169 -0.021552 -0.238902
v -0.246621 -0.016720 -0.247942
v -0.105780 -0.016720 -0.246783
v -0.106231 -0.045809 -0.191989
v -0.254545 -0.045809 -0.193207
v 0.261599 0.056718 -0.302663
v 0.261315 0.005210 -0.268086
v 0.124245 0.005210 -0.269211
v -0.014843 0.056718 -0.304936
v -0.131874 0.005210 -0.271318
v 0.141358 -0.053430 -0.158083
v 0.246726 -0.053430 -0.157217
v 0.260340 -0.053288 -0.149489
v 0.259913 -0.052322 -0.097629
v 0.146236 -0.052322 -0.098562
v 0.140978 -0.052568 -0.111842
v 0.012445 -0.053179 -0.145659
v 0.016625 -0.053430 -0.159109
v 0.133395 -0.052322 -0.098668
v 0.012067 -0.052322 -0.099667
v 0.018174 -0.045809 -0.190967
v 0.005082 -0.053430 -0.159205
v -0.109262 -0.052322 -0.100662
v -0.124889 0.218454 -0.295929
v -0.123026 0.229855 -0.289940
v -0.006684 0.179483 -0.315374
v -0.124721 0.179483 -0.316344
v -0.276200 -0.001363 -0.050167
v -0.276207 0.007773 -0.049363
v -0.274404 0.205491 -0.268610
v -0.274330 0.203750 -0.277616
v -0.274185 0.167581 -0.295310
v -0.274204 0.155638 -0.293001
v -0.275866 -0.026725 -0.090779
v -0.253689 0.217984 -0.297235
v -0.246267 0.229855 -0.290956
v -0.132412 0.229855 -0.290019
v -0.253524 0.179483 -0.317403
v 0.281835 0.203750 -0.273041
v 0.281726 0.201592 -0.259715
v 0.279979 0.010003 -0.047263
v 0.279988 -0.003126 -0.048418
v 0.280299 -0.026725 -0.086206
v 0.281962 0.155638 -0.288427
v 0.281967 0.170894 -0.289115
v 0.249653 0.146908 -0.318652
v 0.261726 0.140984 -0.318050
v 0.261698 0.100432 -0.314611
v 0.255856 0.087631 -0.313574
v -0.255573 -0.032193 -0.068180
v -0.255863 -0.010141 -0.032868
v -0.248443 -0.006106 -0.026347
v -0.143710 -0.006106 -0.025485
v -0.136183 -0.010141 -0.031885
v -0.135839 -0.036227 -0.073656
v -0.248046 -0.036227 -0.074578
v 0.121712 -0.032193 -0.065077
v 0.121422 -0.010141 -0.029767
v 0.128842 -0.006106 -0.023244
v 0.259293 -0.006106 -0.022172
v 0.259636 -0.032193 -0.063943
v 0.252216 -0.036227 -0.070466
v 0.129239 -0.036227 -0.071476
v -0.007090 -0.032193 -0.066136
v -0.007434 -0.006106 -0.024365
v 0.113895 -0.006106 -0.023366
v 0.114292 -0.036227 -0.071599
v 0.000437 -0.036227 -0.072537
v -0.128762 -0.006106 -0.025363
v -0.014511 -0.036227 -0.072659
v 0.275105 0.055576 -0.272285
v 0.274853 0.009949 -0.241653
v 0.274454 -0.015820 -0.193112
v -0.269001 -0.027936 -0.107976
v -0.268537 -0.028986 -0.164382
v -0.268428 -0.024027 -0.177653
v -0.267483 0.079648 -0.292617
v -0.267433 0.151043 -0.298671
v -0.269017 -0.022693 -0.106017
v 0.003815 0.226735 -0.282941
v 0.003986 0.187058 -0.303728
v 0.008041 0.176363 -0.309299
v 0.125361 0.176363 -0.308332
v 0.132785 0.187835 -0.302260
v 0.132618 0.226735 -0.281882
v 0.151684 -0.018161 -0.227613
v 0.151403 -0.036299 -0.193446
v 0.158821 -0.039871 -0.186657
v 0.260639 -0.039871 -0.185820
v 0.261089 -0.010781 -0.240613
v 0.156154 -0.010781 -0.241477
v 0.022996 -0.010781 -0.242571
v 0.022629 -0.034497 -0.197899
v 0.027209 -0.039871 -0.187738
v 0.151314 -0.039871 -0.186718
v 0.148754 -0.010781 -0.241538
v -0.254806 -0.046707 -0.161468
v -0.255232 -0.045741 -0.109604
v -0.251324 -0.045599 -0.101956
v -0.117694 -0.045599 -0.100857
v -0.116626 -0.045845 -0.114049
v -0.116246 -0.046707 -0.160327
v -0.268209 -0.012248 -0.204302
v -0.267865 0.009949 -0.246114
v -0.267613 0.055576 -0.276745
v -0.268218 -0.010719 -0.203231
v 0.275285 0.151043 -0.294209
v 0.275235 0.079648 -0.288157
v 0.274290 -0.024027 -0.173191
v 0.274181 -0.028986 -0.159918
v 0.273655 -0.027794 -0.095899
v -0.253534 0.147476 -0.316090
v -0.253571 0.095789 -0.311708
v -0.246102 0.088200 -0.311001
v -0.112293 0.088200 -0.309901
v -0.112257 0.139887 -0.314283
v -0.113136 0.147476 -0.314934
v 0.135307 0.176363 -0.308250
v 0.261637 0.176363 -0.307211
v 0.261420 0.226735 -0.280823
v 0.003366 0.088200 -0.308950
v 0.016519 0.100856 -0.309917
v 0.016551 0.147476 -0.313869
v -0.104778 0.147476 -0.314866
v -0.253704 0.051715 -0.295444
v -0.253881 0.019707 -0.273954
v -0.246466 0.008958 -0.266676
v -0.147443 0.008958 -0.265862
v -0.136467 0.015282 -0.270020
v -0.136217 0.060466 -0.300352
v -0.242807 0.060466 -0.301230
v 0.019302 0.088200 -0.308818
v 0.145312 0.088200 -0.307783
v 0.145353 0.147476 -0.312809
v -0.007476 0.049499 -0.291931
v -0.007699 0.008958 -0.264713
v 0.117534 0.008958 -0.263683
v 0.121138 0.015282 -0.267900
v 0.121387 0.060466 -0.298234
v 0.002790 0.060466 -0.299210
v -0.254195 -0.015613 -0.235748
v -0.254571 -0.039871 -0.190055
v -0.106257 -0.039871 -0.188836
v -0.105806 -0.010781 -0.243630
v -0.246646 -0.010781 -0.244789
v 0.124199 0.008958 -0.263629
v 0.261269 0.008958 -0.262504
v 0.261553 0.060466 -0.297081
v -0.131920 0.008958 -0.265737
v -0.014889 0.060466 -0.299356
v 0.141359 -0.046707 -0.158208
v 0.140979 -0.045846 -0.111967
v 0.146237 -0.045599 -0.098688
v 0.259914 -0.045599 -0.097754
v 0.260341 -0.046565 -0.149614
v 0.246727 -0.046707 -0.157342
v 0.012446 -0.046456 -0.145783
v 0.012068 -0.045599 -0.099792
v 0.133396 -0.045599 -0.098793
v 0.016626 -0.046707 -0.159234
v 0.018149 -0.039871 -0.187812
v -0.109261 -0.045599 -0.100789
v 0.005083 -0.046707 -0.159329
v -0.124938 0.215334 -0.289973
v -0.124770 0.176363 -0.310390
v -0.006733 0.176363 -0.309420
v -0.123075 0.226735 -0.283985
v -0.269477 -0.001363 -0.050110
v -0.269143 -0.026725 -0.090724
v -0.267480 0.155638 -0.292945
v -0.267461 0.167581 -0.295254
v -0.267606 0.203750 -0.277558
v -0.267681 0.205491 -0.268557
v -0.269483 0.007773 -0.049306
v -0.253738 0.214864 -0.291278
v -0.253573 0.176363 -0.311449
v -0.132461 0.226735 -0.284062
v -0.246316 0.226735 -0.284998
v 0.275111 0.203750 -0.273097
v 0.275244 0.170894 -0.289170
v 0.275238 0.155638 -0.288484
v 0.273575 -0.026725 -0.086261
v 0.273264 -0.003126 -0.048473
v 0.273255 0.010003 -0.047318
v 0.275002 0.201592 -0.259769
v 0.255801 0.088200 -0.306874
v 0.261642 0.101000 -0.307911
v 0.261671 0.141553 -0.311350
v 0.249598 0.147476 -0.311953
vt 0.914133 0.000000
vt 0.914133 0.400782
vt 0.884249 0.400782
vt 0.884248 0.000000
vt 0.977644 0.355634
vt 0.947760 0.355634
vt 0.947760 0.169052
vt 0.977644 0.169052
vt 0.930374 0.403622
vt 0.930374 0.804403
vt 0.900489 0.804403
vt 0.900489 0.403622
vt 0.914133 0.338105
vt 0.942023 0.338105
vt 0.942023 0.400525
vt 0.914133 0.400525
vt 0.257300 0.855026
vt 0.257300 0.980112
vt 0.229410 0.980112
vt 0.229410 0.855026
vt 0.504783 0.615583
vt 0.504783 0.740669
vt 0.474917 0.740669
vt 0.474917 0.615583
vt 0.598536 0.364496
vt 0.598536 0.178605
vt 0.629869 0.000000
vt 0.629869 0.399301
vt 0.031333 0.500023
vt 0.031333 0.673495
vt 0.000000 0.705974
vt 0.000000 0.333351
vt 0.093753 0.673495
vt 0.125085 0.705974
vt 0.093753 0.500023
vt 0.125085 0.333351
vt 0.536116 0.178605
vt 0.536116 0.364496
vt 0.504783 0.399301
vt 0.504783 0.000000
vt 0.389236 0.873169
vt 0.419102 0.873169
vt 0.419102 0.935589
vt 0.389236 0.935589
vt 0.960258 0.928307
vt 0.930374 0.928308
vt 0.930374 0.741726
vt 0.960258 0.741726
vt 0.854989 0.731554
vt 0.854989 0.890459
vt 0.829858 0.890459
vt 0.829858 0.731554
vt 0.811639 0.890459
vt 0.811639 0.731554
vt 0.718840 0.877051
vt 0.718840 0.718147
vt 0.742805 0.718147
vt 0.742805 0.877051
vt 0.765118 0.718147
vt 0.765118 0.877051
vt 0.765218 0.890459
vt 0.765218 0.731554
vt 0.788769 0.731554
vt 0.788769 0.890459
vt 0.795980 0.395317
vt 0.778204 0.377541
vt 0.778205 0.352403
vt 0.795980 0.334628
vt 0.821118 0.334628
vt 0.838894 0.352404
vt 0.838893 0.377542
vt 0.821118 0.395317
vt 0.811639 0.731554
vt 0.811639 0.890459
vt 0.925624 0.804403
vt 0.925624 0.963308
vt 0.900489 0.963308
vt 0.900489 0.804403
vt 0.229410 0.872802
vt 0.229410 0.897940
vt 0.211635 0.915716
vt 0.186496 0.915716
vt 0.168721 0.897940
vt 0.168721 0.872802
vt 0.186496 0.855026
vt 0.211635 0.855027
vt 0.222508 0.355977
vt 0.222508 0.355977
vt 0.222508 0.355977
vt 0.222508 0.355977
vt 0.222508 0.355977
vt 0.222508 0.355977
vt 0.222508 0.355977
vt 0.222508 0.355977
vt 0.222508 0.355977
vt 0.222508 0.355977
vt 0.222508 0.355977
vt 0.222508 0.355977
vt 0.222508 0.355977
vt 0.222508 0.355977
vt 0.222508 0.355977
vt 0.222508 0.355977
vt 0.222508 0.355977
vt 0.222508 0.355977
vt 0.222508 0.355977
vt 0.222508 0.355977
vt 0.222508 0.355977
vt 0.222508 0.355977
vt 0.222508 0.355977
vt 0.222508 0.355977
vt 0.222508 0.693802
vt 0.222508 0.358219
vt 0.228451 0.355977
vt 0.228451 0.696043
vt 0.790054 0.676522
vt 0.790054 0.340939
vt 0.797691 0.330141
vt 0.797691 0.687320
vt 0.651870 0.261787
vt 0.651870 0.215608
vt 0.656979 0.210173
vt 0.656979 0.267158
vt 0.743898 0.676522
vt 0.735784 0.687311
vt 0.099464 0.597806
vt 0.099464 0.933389
vt 0.094667 0.935640
vt 0.094667 0.595556
vt 0.743898 0.340939
vt 0.735784 0.330151
vt 0.646761 0.318708
vt 0.646761 0.272528
vt 0.651870 0.267158
vt 0.651870 0.324142
vt 0.921769 0.997130
vt 0.921769 0.661546
vt 0.928338 0.659276
vt 0.928338 0.999400
vt 0.680959 0.907310
vt 0.680959 0.571727
vt 0.689735 0.560959
vt 0.689735 0.918079
vt 0.667091 0.255191
vt 0.668391 0.212658
vt 0.671873 0.210173
vt 0.671873 0.260333
vt 0.638870 0.907310
vt 0.628691 0.917507
vt 0.985435 0.668567
vt 0.985435 0.332983
vt 0.989292 0.330141
vt 0.989292 0.671409
vt 0.638870 0.571727
vt 0.628691 0.561530
vt 0.668391 0.312886
vt 0.667091 0.270353
vt 0.671873 0.265212
vt 0.671873 0.315371
vt 0.914673 0.997129
vt 0.914673 0.661546
vt 0.921769 0.659276
vt 0.921769 0.999400
vt 0.099464 0.941907
vt 0.099464 0.606324
vt 0.108049 0.595556
vt 0.108049 0.952676
vt 0.662037 0.314810
vt 0.662035 0.270416
vt 0.667091 0.265212
vt 0.667091 0.320251
vt 0.355622 0.934572
vt 0.396692 0.934572
vt 0.402163 0.945341
vt 0.346451 0.945361
vt 0.115223 0.597806
vt 0.115223 0.933389
vt 0.108049 0.935640
vt 0.108049 0.595556
vt 0.355622 0.598989
vt 0.346451 0.588200
vt 0.662035 0.260007
vt 0.662037 0.215614
vt 0.667091 0.210173
vt 0.667091 0.265212
vt 0.396692 0.598989
vt 0.402163 0.588221
vt 0.993230 0.668567
vt 0.993230 0.332983
vt 0.996518 0.330141
vt 0.996518 0.671409
vt 0.809069 0.340910
vt 0.809069 0.676493
vt 0.797691 0.686690
vt 0.797691 0.330713
vt 0.673173 0.257848
vt 0.671873 0.215315
vt 0.676655 0.210173
vt 0.676655 0.260333
vt 0.851546 0.340910
vt 0.858775 0.330141
vt 0.939583 0.661546
vt 0.939583 0.997129
vt 0.934002 0.999400
vt 0.934002 0.659276
vt 0.851546 0.676493
vt 0.858775 0.687261
vt 0.671873 0.310230
vt 0.673173 0.267697
vt 0.676655 0.265212
vt 0.676655 0.315371
vt 0.565056 0.683773
vt 0.565056 0.892688
vt 0.561378 0.896365
vt 0.561378 0.678764
vt 0.452491 0.575007
vt 0.452491 0.361816
vt 0.461866 0.348622
vt 0.461866 0.588201
vt 0.677176 0.253888
vt 0.676655 0.211322
vt 0.680890 0.210173
vt 0.680890 0.256799
vt 0.409094 0.562476
vt 0.402366 0.572658
vt 0.466322 0.350318
vt 0.466322 0.384746
vt 0.462053 0.383660
vt 0.462073 0.348622
vt 0.372306 0.522831
vt 0.361399 0.528519
vt 0.466322 0.436902
vt 0.462044 0.436660
vt 0.358775 0.468411
vt 0.346451 0.468411
vt 0.466322 0.492642
vt 0.462053 0.493304
vt 0.372306 0.413992
vt 0.361399 0.408304
vt 0.466322 0.536818
vt 0.462073 0.538260
vt 0.409094 0.374347
vt 0.402366 0.364165
vt 0.680880 0.301289
vt 0.681409 0.266404
vt 0.685105 0.265212
vt 0.685105 0.302881
vt 0.561378 0.682441
vt 0.561378 0.891356
vt 0.557701 0.896365
vt 0.557701 0.678763
vt 0.106040 0.582362
vt 0.106040 0.369171
vt 0.115415 0.355977
vt 0.115415 0.595555
vt 0.677184 0.301688
vt 0.676655 0.266804
vt 0.680880 0.265212
vt 0.680880 0.302881
vt 0.062643 0.569831
vt 0.055915 0.580013
vt 0.557701 0.680205
vt 0.557701 0.724381
vt 0.553432 0.723720
vt 0.553452 0.678764
vt 0.025855 0.530186
vt 0.014948 0.535874
vt 0.557701 0.780122
vt 0.553422 0.780363
vt 0.012324 0.475766
vt 0.000000 0.475766
vt 0.557701 0.832277
vt 0.553432 0.833364
vt 0.025855 0.421347
vt 0.014948 0.415658
vt 0.557701 0.866705
vt 0.553452 0.868401
vt 0.062643 0.381701
vt 0.055915 0.371520
vt 0.462044 0.583737
vt 0.462565 0.541171
vt 0.466279 0.538260
vt 0.466279 0.584886
vt 0.928338 0.997109
vt 0.928338 0.661526
vt 0.934002 0.659276
vt 0.934002 0.999360
vt 0.905446 0.676522
vt 0.905446 0.340939
vt 0.914673 0.330151
vt 0.914673 0.687311
vt 0.651870 0.318708
vt 0.651870 0.272528
vt 0.656979 0.324142
vt 0.863770 0.676522
vt 0.858775 0.687320
vt 0.235286 0.358219
vt 0.235286 0.693802
vt 0.465969 0.598998
vt 0.465969 0.934581
vt 0.457291 0.945379
vt 0.457291 0.588201
vt 0.646761 0.261787
vt 0.646761 0.215608
vt 0.651870 0.210173
vt 0.863770 0.340939
vt 0.858775 0.330141
vt 0.087458 0.933389
vt 0.087458 0.597806
vt 0.222054 0.597583
vt 0.222054 0.933166
vt 0.212930 0.943955
vt 0.212930 0.586794
vt 0.656979 0.315046
vt 0.656981 0.270653
vt 0.662035 0.265212
vt 0.662035 0.320251
vt 0.042141 0.606344
vt 0.004182 0.606344
vt 0.000000 0.595556
vt 0.051489 0.595576
vt 0.729460 0.898813
vt 0.729460 0.563229
vt 0.735784 0.560959
vt 0.735784 0.901083
vt 0.042141 0.941927
vt 0.051489 0.952696
vt 0.656981 0.259771
vt 0.656979 0.215378
vt 0.662035 0.210173
vt 0.662035 0.265212
vt 0.004182 0.941927
vt 0.000000 0.952716
vt 0.993230 0.332983
vt 0.993230 0.668567
vt 0.226140 0.345780
vt 0.226140 0.010197
vt 0.237504 0.000000
vt 0.237504 0.355977
vt 0.567955 0.681027
vt 0.567955 0.898556
vt 0.565056 0.900820
vt 0.565056 0.678764
vt 0.010496 0.345780
vt 0.000000 0.355977
vt 1.000000 0.332983
vt 1.000000 0.668567
vt 0.010496 0.010197
vt 0.000000 0.000000
vt 0.567955 0.898556
vt 0.567955 0.681027
vt 0.570854 0.678764
vt 0.570854 0.900820
vt 0.212930 0.796968
vt 0.164172 0.782889
vt 0.128480 0.744424
vt 0.115415 0.691881
vt 0.128480 0.639338
vt 0.164172 0.600873
vt 0.212930 0.586794
vt 0.744275 0.210173
vt 0.695518 0.196094
vt 0.659825 0.157630
vt 0.646761 0.105087
vt 0.659825 0.052543
vt 0.695518 0.014079
vt 0.744275 0.000000
vt 0.879203 0.330141
vt 0.831376 0.330141
vt 0.831376 0.000000
vt 0.879203 0.000000
vt 0.466322 0.000000
vt 0.499724 0.000000
vt 0.499724 0.330141
vt 0.466322 0.330141
vt 0.550082 0.000000
vt 0.550082 0.330141
vt 0.603901 0.000000
vt 0.603901 0.330141
vt 0.646761 0.000000
vt 0.646761 0.330141
vt 0.918401 0.330141
vt 0.879203 0.330141
vt 0.879203 0.000000
vt 0.918401 0.000000
vt 0.466322 0.348622
vt 0.456089 0.339382
vt 0.456089 0.009240
vt 0.466322 0.000000
vt 0.237504 0.000000
vt 0.247736 0.009240
vt 0.247736 0.339382
vt 0.237504 0.348622
vt 0.735784 0.330142
vt 0.735784 0.560959
vt 0.725940 0.547787
vt 0.725940 0.343313
vt 0.682237 0.545497
vt 0.687563 0.536706
vt 0.643039 0.503254
vt 0.651966 0.498345
vt 0.628691 0.445550
vt 0.638839 0.445550
vt 0.643039 0.387846
vt 0.651967 0.392756
vt 0.682237 0.345603
vt 0.687563 0.354394
vt 0.222508 0.355977
vt 0.222508 0.586794
vt 0.212664 0.573623
vt 0.212664 0.369149
vt 0.168962 0.571333
vt 0.174287 0.562541
vt 0.129763 0.529090
vt 0.138691 0.524181
vt 0.115415 0.471386
vt 0.125564 0.471386
vt 0.129763 0.413681
vt 0.138691 0.418591
vt 0.168961 0.371439
vt 0.174287 0.380230
vt 0.237504 0.697244
vt 0.247336 0.358366
vt 0.247336 0.687500
vt 0.293138 0.348622
vt 0.283305 0.358366
vt 0.293138 0.697244
vt 0.283305 0.687500
vt 0.302287 0.358366
vt 0.302287 0.687500
vt 0.346451 0.348622
vt 0.337302 0.358366
vt 0.346451 0.697244
vt 0.337302 0.687500
vt 0.466322 0.678764
vt 0.466322 0.330141
vt 0.475279 0.339885
vt 0.475279 0.669020
vt 0.519984 0.330141
vt 0.511027 0.339885
vt 0.519984 0.678764
vt 0.511027 0.669020
vt 0.529904 0.339885
vt 0.529904 0.669020
vt 0.579416 0.330141
vt 0.569495 0.339885
vt 0.579416 0.678764
vt 0.569495 0.669020
vt 0.587872 0.339885
vt 0.587872 0.669020
vt 0.628691 0.330141
vt 0.620235 0.339885
vt 0.628691 0.678764
vt 0.620235 0.669020
vt 0.402163 0.936823
vt 0.402163 0.588201
vt 0.411906 0.597944
vt 0.411906 0.927079
vt 0.457291 0.588201
vt 0.447548 0.597944
vt 0.457291 0.936823
vt 0.447548 0.927079
vt 0.553422 0.678763
vt 0.553422 0.883238
vt 0.515045 0.872156
vt 0.479449 0.833796
vt 0.466322 0.781001
vt 0.479449 0.728206
vt 0.515045 0.689845
vt 0.831376 0.000000
vt 0.831376 0.204474
vt 0.792999 0.193393
vt 0.757402 0.155032
vt 0.744275 0.102237
vt 0.757402 0.049443
vt 0.792999 0.011081
vt 0.051489 0.924690
vt 0.051489 0.595556
vt 0.087458 0.595556
vt 0.087458 0.924690
vt 0.950421 0.659276
vt 0.950421 0.330141
vt 0.985435 0.330141
vt 0.985435 0.659276
vt 0.914672 0.659276
vt 0.914672 0.330141
vt 0.950420 0.330141
vt 0.950420 0.659276
vt 0.689735 0.890093
vt 0.689735 0.560959
vt 0.729326 0.560959
vt 0.729326 0.890093
vt 0.986406 0.000000
vt 0.986406 0.329134
vt 0.954043 0.329134
vt 0.954043 0.000000
vt 0.918401 0.329134
vt 0.918401 0.000000
vt 0.954043 0.000000
vt 0.954043 0.329134
vt 0.222508 0.355977
vt 0.222508 0.355977
vt 0.222508 0.355977
vt 0.222508 0.355977
vt 0.222508 0.355977
vt 0.222508 0.355977
vt 0.222508 0.355977
vt 0.222508 0.355977
vt 0.222508 0.355977
vt 0.222508 0.355977
vt 0.222508 0.355977
vt 0.222508 0.355977
vt 0.222508 0.355977
vt 0.222508 0.355977
vt 0.222508 0.355977
vt 0.222508 0.355977
vt 0.222508 0.355977
vt 0.222508 0.355977
vt 0.222508 0.355977
vt 0.222508 0.355977
vt 0.222508 0.355977
vt 0.222508 0.355977
vt 0.222508 0.355977
vt 0.222508 0.355977
vt 0.222508 0.355977
vt 0.222508 0.355977
vt 0.222508 0.355977
vt 0.222508 0.355977
vt 0.222508 0.355977
vt 0.222508 0.355977
vt 0.222508 0.355977
vt 0.222508 0.355977
vt 0.222508 0.355977
vt 0.222508 0.355977
vt 0.222508 0.355977
vt 0.222508 0.355977
vt 0.222508 0.355977
vt 0.222508 0.355977
vt 0.222508 0.355977
vt 0.222508 0.355977
vt 0.222508 0.355977
vt 0.222508 0.355977
vt 0.222508 0.355977
vt 0.222508 0.355977
vt 0.222508 0.355977
vt 0.222508 0.355977
vt 0.222508 0.355977
vt 0.222508 0.355977
vt 0.222508 0.355977
vt 0.222508 0.355977
vt 0.222508 0.355977
vt 0.222508 0.355977
vt 0.799234 0.423397
vt 0.793968 0.417262
vt 0.793968 0.325061
vt 0.828012 0.325016
vt 0.833277 0.331150
vt 0.833277 0.417210
vt 0.828012 0.423358
vt 0.799234 0.113379
vt 0.793968 0.107245
vt 0.793968 0.006194
vt 0.799234 0.000046
vt 0.833277 0.000000
vt 0.833277 0.107192
vt 0.828012 0.113340
vt 0.799234 0.219217
vt 0.793968 0.213083
vt 0.793968 0.119527
vt 0.833277 0.119475
vt 0.833277 0.219171
vt 0.793968 0.225365
vt 0.833277 0.318868
vt 0.082622 0.819717
vt 0.082622 0.907309
vt 0.071636 0.863512
vt 0.929656 0.423499
vt 0.933933 0.425182
vt 0.933933 0.637931
vt 0.893700 0.595062
vt 0.893700 0.468106
vt 0.897977 0.457296
vt 0.083445 0.608026
vt 0.083445 0.713864
vt 0.051459 0.713876
vt 0.042026 0.707738
vt 0.042026 0.611335
vt 0.050821 0.608038
vt 0.737187 0.333582
vt 0.748687 0.337174
vt 0.748687 0.423400
vt 0.703356 0.423351
vt 0.703356 0.339687
vt 0.708922 0.333552
vt 0.748687 0.227757
vt 0.748687 0.331093
vt 0.703356 0.333518
vt 0.703356 0.231540
vt 0.711731 0.227717
vt 0.451835 0.000000
vt 0.451835 0.113856
vt 0.413821 0.113858
vt 0.402978 0.113071
vt 0.402978 0.003267
vt 0.409234 0.000003
vt 0.184575 0.819721
vt 0.186098 0.819908
vt 0.186098 0.901090
vt 0.175112 0.857383
vt 0.890093 0.675138
vt 0.890093 0.894542
vt 0.854135 0.856132
vt 0.849858 0.845305
vt 0.849858 0.718112
vt 0.500536 0.000003
vt 0.500536 0.115369
vt 0.494300 0.116096
vt 0.451835 0.116093
vt 0.451835 0.006141
vt 0.458071 0.000000
vt 0.083445 0.819702
vt 0.042026 0.819717
vt 0.042026 0.715911
vt 0.500536 0.122237
vt 0.500536 0.221934
vt 0.462234 0.221932
vt 0.451835 0.211131
vt 0.154799 0.819708
vt 0.147615 0.810790
vt 0.147615 0.723204
vt 0.184708 0.723223
vt 0.189900 0.732216
vt 0.189900 0.813584
vt 0.181076 0.819721
vt 0.500536 0.327772
vt 0.451835 0.327769
vt 0.451835 0.224225
vt 0.156618 0.617371
vt 0.147615 0.608981
vt 0.147615 0.511528
vt 0.184708 0.511547
vt 0.189900 0.514482
vt 0.189900 0.617387
vt 0.741158 0.000041
vt 0.748687 0.006190
vt 0.748687 0.121919
vt 0.703356 0.121871
vt 0.703356 0.000000
vt 0.147615 0.396353
vt 0.189900 0.396374
vt 0.189900 0.509005
vt 0.147615 0.623508
vt 0.189900 0.719460
vt 0.451835 0.325531
vt 0.451835 0.412113
vt 0.445580 0.423351
vt 0.402978 0.423354
vt 0.402978 0.329945
vt 0.413850 0.325534
vt 0.440758 0.219694
vt 0.451835 0.223037
vt 0.402978 0.319394
vt 0.402978 0.219697
vt 0.703356 0.224095
vt 0.451835 0.213552
vt 0.402978 0.120000
vt 0.074070 0.502191
vt 0.083445 0.503759
vt 0.042026 0.599195
vt 0.042026 0.502203
vt 0.535514 0.660985
vt 0.541531 0.665508
vt 0.541531 0.907625
vt 0.535514 0.912157
vt 0.503707 0.903091
vt 0.497691 0.895129
vt 0.497691 0.671816
vt 0.073684 0.396353
vt 0.083445 0.402491
vt 0.083445 0.496047
vt 0.042026 0.396366
vt 0.786513 0.661127
vt 0.792530 0.670446
vt 0.792530 0.905494
vt 0.783882 0.912013
vt 0.748687 0.901938
vt 0.748688 0.678208
vt 0.757618 0.669394
vt 0.500536 0.413431
vt 0.495669 0.423354
vt 0.462352 0.423352
vt 0.451835 0.418558
vt 0.686062 0.820960
vt 0.657244 0.820837
vt 0.651972 0.814673
vt 0.651972 0.728615
vt 0.657244 0.722497
vt 0.691334 0.722642
vt 0.691334 0.814841
vt 0.686062 0.510948
vt 0.657244 0.510825
vt 0.651972 0.504662
vt 0.651972 0.397472
vt 0.686062 0.397617
vt 0.691334 0.403781
vt 0.691334 0.504829
vt 0.686062 0.616784
vt 0.651972 0.616638
vt 0.651972 0.516944
vt 0.691334 0.517112
vt 0.691334 0.610665
vt 0.651972 0.716333
vt 0.691334 0.622947
vt 0.158601 0.907150
vt 0.147615 0.863443
vt 0.158601 0.819721
vt 0.894370 0.675138
vt 0.926050 0.708980
vt 0.930327 0.719807
vt 0.930327 0.846999
vt 0.890093 0.889973
vt 0.890093 0.676828
vt 0.126602 0.608059
vt 0.093825 0.608035
vt 0.084990 0.604735
vt 0.084990 0.508332
vt 0.094467 0.502198
vt 0.126602 0.502221
vt 0.760175 0.333656
vt 0.788409 0.333559
vt 0.793968 0.339680
vt 0.793968 0.423343
vt 0.748687 0.423499
vt 0.748687 0.337274
vt 0.748687 0.227860
vt 0.785603 0.227733
vt 0.793968 0.231535
vt 0.793968 0.333511
vt 0.748687 0.331194
vt 0.402978 0.423352
vt 0.360374 0.423344
vt 0.354118 0.420079
vt 0.354118 0.310277
vt 0.364961 0.309491
vt 0.402978 0.309499
vt 0.173589 0.901242
vt 0.164126 0.863516
vt 0.175112 0.819721
vt 0.175112 0.901055
vt 0.923383 0.218996
vt 0.883150 0.176126
vt 0.883150 0.049170
vt 0.887427 0.038361
vt 0.923383 0.000000
vt 0.500536 0.000006
vt 0.542967 0.000000
vt 0.549197 0.006140
vt 0.549197 0.116093
vt 0.506767 0.116098
vt 0.500536 0.115372
vt 0.084990 0.500160
vt 0.084990 0.396353
vt 0.126602 0.396383
vt 0.549197 0.211131
vt 0.538807 0.221932
vt 0.500536 0.221937
vt 0.500536 0.122240
vt 0.034886 0.819712
vt 0.008770 0.819737
vt 0.000000 0.813605
vt 0.000000 0.732236
vt 0.005160 0.723241
vt 0.042026 0.723205
vt 0.042026 0.810790
vt 0.549197 0.224225
vt 0.549197 0.327768
vt 0.500536 0.327775
vt 0.033078 0.617376
vt 0.000000 0.617408
vt 0.000000 0.514502
vt 0.005160 0.511565
vt 0.042026 0.511529
vt 0.042026 0.608981
vt 0.756208 0.000130
vt 0.793968 0.000000
vt 0.793968 0.121868
vt 0.748687 0.122024
vt 0.748687 0.006297
vt 0.000000 0.509026
vt 0.000000 0.396394
vt 0.042026 0.396353
vt 0.000000 0.719481
vt 0.042026 0.623508
vt 0.402978 0.097827
vt 0.364991 0.097820
vt 0.354118 0.093407
vt 0.354118 0.000000
vt 0.396722 0.000008
vt 0.402978 0.011247
vt 0.391901 0.203661
vt 0.354118 0.203653
vt 0.354118 0.103959
vt 0.402978 0.200320
vt 0.793968 0.224091
vt 0.354118 0.303348
vt 0.402978 0.209804
vt 0.117183 0.713890
vt 0.084990 0.713867
vt 0.084990 0.616875
vt 0.126602 0.712326
vt 0.855875 0.423499
vt 0.893700 0.434327
vt 0.893700 0.658057
vt 0.887683 0.666037
vt 0.855875 0.675138
vt 0.849858 0.670602
vt 0.849858 0.428034
vt 0.116796 0.819728
vt 0.084990 0.819705
vt 0.126602 0.720038
vt 0.126602 0.813594
vt 0.408995 0.661160
vt 0.437888 0.669396
vt 0.446819 0.678187
vt 0.446819 0.901501
vt 0.411626 0.911579
vt 0.402978 0.905078
vt 0.402978 0.670466
vt 0.549197 0.418558
vt 0.538689 0.423352
vt 0.505399 0.423357
vt 0.500536 0.413433
vt 0.993119 0.194334
vt 0.997802 0.194336
vt 0.997802 0.295387
vt 0.993119 0.295385
vt 0.988573 0.194340
vt 0.993119 0.194334
vt 0.993119 0.297239
vt 0.988573 0.297246
vt 0.696218 0.397472
vt 0.701743 0.397481
vt 0.701743 0.410381
vt 0.696218 0.410372
vt 0.327279 0.996263
vt 0.321754 0.996252
vt 0.321676 0.989989
vt 0.327200 0.990000
vt 0.246735 0.894913
vt 0.242182 0.894892
vt 0.242182 0.795197
vt 0.246735 0.795218
vt 0.931613 0.412584
vt 0.926088 0.412583
vt 0.926088 0.406325
vt 0.931613 0.406325
vt 0.321754 0.949522
vt 0.327279 0.949533
vt 0.993119 0.399312
vt 0.988573 0.399318
vt 0.888675 0.229029
vt 0.894197 0.229152
vt 0.894197 0.235759
vt 0.888675 0.235635
vt 0.992976 0.423503
vt 0.997632 0.423499
vt 0.997632 0.530691
vt 0.992976 0.530695
vt 0.547280 0.989455
vt 0.542733 0.989461
vt 0.542733 0.876830
vt 0.547280 0.876823
vt 0.169651 0.960636
vt 0.164126 0.960653
vt 0.164126 0.951191
vt 0.169651 0.951175
vt 0.287070 0.955824
vt 0.292584 0.955822
vt 0.292584 0.990029
vt 0.287070 0.990031
vt 0.738557 0.960815
vt 0.733034 0.960767
vt 0.733034 0.951142
vt 0.738557 0.951190
vt 0.292197 0.996245
vt 0.286683 0.996247
vt 0.591195 0.704738
vt 0.596078 0.704736
vt 0.596078 0.790962
vt 0.591195 0.790964
vt 0.589087 0.961137
vt 0.583570 0.961233
vt 0.583570 0.950285
vt 0.589087 0.950189
vt 0.301325 0.987095
vt 0.296643 0.987092
vt 0.296643 0.894891
vt 0.301325 0.894893
vt 0.969989 0.909419
vt 0.974895 0.909423
vt 0.974895 0.993087
vt 0.969989 0.993083
vt 0.569167 0.950189
vt 0.574691 0.950230
vt 0.574691 0.961269
vt 0.569167 0.961229
vt 0.578045 0.950229
vt 0.583570 0.950189
vt 0.583570 0.961110
vt 0.578045 0.961149
vt 0.993151 0.189871
vt 0.988495 0.189875
vt 0.988495 0.103816
vt 0.993151 0.103812
vt 0.696218 0.500808
vt 0.691334 0.500810
vt 0.691334 0.397474
vt 0.952224 0.661387
vt 0.957741 0.661488
vt 0.957741 0.672529
vt 0.952224 0.672428
vt 0.286683 0.949523
vt 0.292197 0.949520
vt 0.989819 0.874536
vt 0.994726 0.874539
vt 0.994726 0.976517
vt 0.989819 0.976514
vt 0.559206 0.950216
vt 0.564731 0.950211
vt 0.564731 0.961064
vt 0.559206 0.961069
vt 0.396127 0.739304
vt 0.401034 0.739308
vt 0.401034 0.841533
vt 0.396127 0.841529
vt 0.946708 0.661387
vt 0.952224 0.661531
vt 0.952224 0.672611
vt 0.946708 0.672467
vt 0.993422 0.000000
vt 0.998104 0.000002
vt 0.998104 0.093558
vt 0.993422 0.093556
vt 0.311989 0.949522
vt 0.317505 0.949572
vt 0.317232 0.985274
vt 0.311717 0.985223
vt 0.994475 0.874532
vt 0.989820 0.874536
vt 0.989820 0.774839
vt 0.994475 0.774835
vt 0.446936 0.661160
vt 0.452460 0.661164
vt 0.452396 0.763658
vt 0.446872 0.763655
vt 0.317505 0.996125
vt 0.311989 0.996075
vt 0.296643 0.795195
vt 0.301325 0.795197
vt 0.691334 0.722377
vt 0.696857 0.722377
vt 0.696857 0.822074
vt 0.691334 0.822074
vt 0.998041 0.388941
vt 0.993119 0.388957
vt 0.993119 0.295404
vt 0.998041 0.295387
vt 0.989820 0.675143
vt 0.994475 0.675138
vt 0.792530 0.774983
vt 0.798053 0.774983
vt 0.798053 0.874680
vt 0.792530 0.874679
vt 0.518612 0.990022
vt 0.513087 0.990028
vt 0.513087 0.949872
vt 0.518612 0.949866
vt 0.696857 0.921770
vt 0.691334 0.921771
vt 0.341595 0.955567
vt 0.347117 0.955553
vt 0.347303 0.998115
vt 0.341781 0.998129
vt 0.527482 0.949870
vt 0.533007 0.949868
vt 0.533007 0.987325
vt 0.527482 0.987327
vt 0.739735 0.829308
vt 0.745260 0.829301
vt 0.745347 0.862400
vt 0.739823 0.862407
vt 0.446960 0.861474
vt 0.452460 0.861477
vt 0.452460 0.976841
vt 0.446960 0.976838
vt 0.993151 0.103812
vt 0.998676 0.103812
vt 0.998676 0.162469
vt 0.993151 0.162469
vt 0.883150 0.229030
vt 0.888675 0.229029
vt 0.888675 0.236542
vt 0.883150 0.236542
vt 1.000000 0.733796
vt 0.994475 0.733796
vt 0.994475 0.675139
vt 1.000000 0.675138
vt 0.988573 0.383655
vt 0.983048 0.383624
vt 0.982996 0.201716
vt 0.988521 0.201747
vt 0.548679 0.770960
vt 0.543181 0.770936
vt 0.543699 0.660985
vt 0.549197 0.661009
vt 0.847447 0.897661
vt 0.841922 0.897664
vt 0.841922 0.860207
vt 0.847447 0.860204
vt 0.983048 0.194334
vt 0.988573 0.194365
vt 0.341781 0.948991
vt 0.347303 0.948977
vt 0.554722 0.996466
vt 0.549197 0.996467
vt 0.549197 0.949743
vt 0.554722 0.949742
vt 0.984729 0.423499
vt 0.979204 0.423497
vt 0.979200 0.393758
vt 0.984725 0.393759
vt 0.645311 0.959973
vt 0.650836 0.959976
vt 0.650827 0.991591
vt 0.645302 0.991588
vt 0.983495 0.520490
vt 0.988422 0.520495
vt 0.988422 0.626333
vt 0.983495 0.626328
vt 0.979204 0.383947
vt 0.984729 0.383948
vt 0.650869 0.999670
vt 0.645344 0.999667
vt 0.331636 0.948977
vt 0.337161 0.948977
vt 0.337161 0.999948
vt 0.331636 0.999948
vt 0.739823 0.661213
vt 0.745347 0.661206
vt 0.246735 0.982496
vt 0.242182 0.982475
vt 0.202242 0.948972
vt 0.207767 0.948972
vt 0.207767 0.999945
vt 0.202242 0.999944
vt 0.090519 0.926255
vt 0.096044 0.926249
vt 0.096102 0.972583
vt 0.090577 0.972589
vt 0.401034 0.963404
vt 0.396127 0.963400
vt 0.442494 0.917104
vt 0.442494 0.911579
vt 0.446818 0.911581
vt 0.446818 0.917106
vt 0.686394 0.902437
vt 0.681850 0.902265
vt 0.685049 0.820959
vt 0.689593 0.821132
vt 0.792530 0.661127
vt 0.798053 0.661127
vt 0.084990 0.819728
vt 0.090515 0.819760
vt 0.090515 0.979603
vt 0.084990 0.979570
vt 0.645344 0.948968
vt 0.650869 0.948971
vt 0.401034 0.529188
vt 0.396112 0.529204
vt 0.396112 0.423369
vt 0.401034 0.423352
vt 0.090577 0.819734
vt 0.096102 0.819728
vt 0.096039 0.915291
vt 0.090515 0.915298
vt 0.645303 0.999502
vt 0.639779 0.999527
vt 0.639647 0.957090
vt 0.645171 0.957065
vt 0.401034 0.635023
vt 0.396112 0.635040
vt 0.639779 0.948993
vt 0.645302 0.948968
vt 0.591237 0.503351
vt 0.596737 0.503352
vt 0.596782 0.609188
vt 0.591282 0.609187
vt 0.533007 0.949874
vt 0.538532 0.949868
vt 0.538532 0.984458
vt 0.533007 0.984464
vt 0.696218 0.722375
vt 0.691334 0.722377
vt 0.691334 0.606648
vt 0.696218 0.606646
vt 0.083724 0.401878
vt 0.083724 0.396353
vt 0.084990 0.396354
vt 0.084990 0.401879
vt 0.988422 0.520949
vt 0.992976 0.520970
vt 0.992976 0.636143
vt 0.988422 0.636122
vt 0.979949 0.910707
vt 0.985474 0.910739
vt 0.985474 0.971733
vt 0.979949 0.971700
vt 0.452342 0.850240
vt 0.446818 0.850237
vt 0.518612 0.962400
vt 0.524137 0.962402
vt 0.524140 0.989417
vt 0.518615 0.989416
vt 0.452460 0.861474
vt 0.446936 0.861470
vt 0.973676 0.236230
vt 0.979200 0.236261
vt 0.979150 0.247230
vt 0.973625 0.247199
vt 0.507562 0.949866
vt 0.513087 0.949866
vt 0.513087 0.992488
vt 0.507562 0.992487
vt 0.969989 0.977731
vt 0.964464 0.977698
vt 0.964464 0.912011
vt 0.969989 0.912044
vt 0.847447 0.829400
vt 0.841922 0.829407
vt 0.842004 0.661312
vt 0.847529 0.661305
vt 0.792530 0.874680
vt 0.798052 0.874680
vt 0.798052 0.968089
vt 0.792530 0.968089
vt 0.164126 0.984289
vt 0.158601 0.984257
vt 0.158601 0.819721
vt 0.164126 0.819754
vt 0.518615 0.949866
vt 0.524140 0.949867
vt 0.352821 0.991576
vt 0.347303 0.991568
vt 0.347446 0.948977
vt 0.352964 0.948985
vt 0.615492 0.961125
vt 0.609976 0.961069
vt 0.609976 0.950537
vt 0.615492 0.950593
vt 0.191690 0.978832
vt 0.186165 0.978838
vt 0.186102 0.926249
vt 0.191627 0.926242
vt 0.778541 0.950979
vt 0.784065 0.950939
vt 0.784065 0.961465
vt 0.778541 0.961506
vt 0.186098 0.915291
vt 0.191623 0.915285
vt 0.745258 0.972212
vt 0.739735 0.972212
vt 0.739735 0.862408
vt 0.745258 0.862407
vt 0.950249 0.950357
vt 0.955773 0.950395
vt 0.955773 0.961087
vt 0.950249 0.961048
vt 0.186165 0.819727
vt 0.191690 0.819721
vt 0.352964 0.997956
vt 0.347446 0.997948
vt 0.619877 0.950523
vt 0.625392 0.950470
vt 0.625392 0.961162
vt 0.619877 0.961214
vt 0.979200 0.423499
vt 0.973676 0.423468
vt 0.401034 0.739288
vt 0.396112 0.739304
vt 0.733034 0.961194
vt 0.727510 0.961135
vt 0.727510 0.951142
vt 0.733034 0.951202
vt 0.262507 0.961127
vt 0.256982 0.961127
vt 0.256982 0.950330
vt 0.262507 0.950329
vt 0.503205 0.961086
vt 0.497690 0.961183
vt 0.497690 0.951178
vt 0.503205 0.951081
vt 0.847529 0.860197
vt 0.842004 0.860204
vt 0.983495 0.423499
vt 0.988422 0.423504
vt 0.591789 0.397474
vt 0.597288 0.397475
vt 0.596695 0.403658
vt 0.591195 0.403657
vt 0.596819 0.694845
vt 0.591319 0.694843
vt 0.931613 0.406329
vt 0.937138 0.406325
vt 0.937138 0.412573
vt 0.931613 0.412578
vt 0.597288 0.704736
vt 0.591789 0.704735
vt 0.898487 0.406670
vt 0.903990 0.406325
vt 0.903990 0.412553
vt 0.898487 0.412898
vt 0.993422 0.103812
vt 0.988495 0.103806
vt 0.988495 0.000000
vt 0.993422 0.000005
vt 0.549197 0.876823
vt 0.543699 0.876799
vt 0.542733 0.865972
vt 0.548232 0.865997
vt 0.589109 0.949770
vt 0.594634 0.949773
vt 0.594612 0.983211
vt 0.589087 0.983208
vt 0.910821 0.229120
vt 0.916345 0.229200
vt 0.916345 0.235464
vt 0.910821 0.235384
vt 0.997903 0.627103
vt 0.992976 0.627098
vt 0.992976 0.530695
vt 0.997903 0.530700
vt 0.955773 0.950389
vt 0.961295 0.950357
vt 0.961295 0.960901
vt 0.955773 0.960933
vt 0.594634 0.993830
vt 0.589109 0.993827
vt 0.899701 0.229374
vt 0.905204 0.229029
vt 0.905204 0.235257
vt 0.899701 0.235602
vt 0.784065 0.950939
vt 0.789590 0.950963
vt 0.789590 0.961264
vt 0.784065 0.961241
vt 0.988495 0.194333
vt 0.982996 0.194334
vt 0.982996 0.103545
vt 0.988495 0.103544
vt 0.909515 0.406325
vt 0.915039 0.406404
vt 0.915039 0.412668
vt 0.909515 0.412589
vt 0.000000 0.950361
vt 0.005525 0.950365
vt 0.005525 0.961128
vt 0.000000 0.961124
vt 0.915039 0.406405
vt 0.920563 0.406325
vt 0.920563 0.412580
vt 0.915039 0.412660
vt 0.926088 0.412626
vt 0.920563 0.412629
vt 0.920563 0.406328
vt 0.926088 0.406325
vt 0.892983 0.406249
vt 0.898487 0.406585
vt 0.898487 0.412898
vt 0.892983 0.412562
vt 0.982996 0.000001
vt 0.988495 0.000000
vt 0.905204 0.229038
vt 0.910729 0.229029
vt 0.910729 0.235436
vt 0.905204 0.235445
vt 0.921869 0.235384
vt 0.916345 0.235464
vt 0.916345 0.229209
vt 0.921869 0.229129
vt 0.689593 0.911571
vt 0.685050 0.911399
vt 0.894197 0.229029
vt 0.899701 0.229365
vt 0.899700 0.235678
vt 0.894197 0.235342
vt 0.988422 0.423499
vt 0.992976 0.423519
vt 0.903990 0.406339
vt 0.909515 0.406325
vt 0.909515 0.412809
vt 0.903990 0.412823
vt 0.701741 0.423084
vt 0.696218 0.423132
vn -1.0000 -0.0000 -0.0082
vn 1.0000 0.0001 0.0082
vn -0.0063 0.6477 0.7619
vn 0.0063 -0.6477 -0.7619
vn 0.0053 0.7619 -0.6477
vn -0.0054 -0.7619 0.6477
vn -0.0053 -0.7619 0.6477
vn -0.0052 -0.7619 0.6477
vn 1.0000 -0.0000 0.0082
vn -0.0078 0.3069 0.9517
vn -0.0038 0.8900 0.4560
vn 0.0025 0.9517 -0.3069
vn 0.0073 0.4561 -0.8899
vn 0.0079 -0.3067 -0.9518
vn 0.0038 -0.8900 -0.4560
vn -0.0025 -0.9517 0.3069
vn 0.0000 0.0000 1.0000
vn 0.0030 -0.0002 -1.0000
vn 0.0020 0.0068 -1.0000
vn 0.0046 -0.0054 -1.0000
vn -0.0025 -0.0014 -1.0000
vn 0.1544 -0.3733 -0.9148
vn -0.3698 -0.1531 -0.9164
vn 0.3697 -0.1533 -0.9164
vn 0.1546 0.3732 -0.9148
vn -0.1999 -0.6729 -0.7122
vn -0.4546 0.5349 -0.7122
vn -0.7026 0.0570 -0.7093
vn 0.6198 0.3359 -0.7093
vn -0.0911 0.2225 -0.9707
vn 0.2259 0.0932 -0.9697
vn -0.2254 0.0945 -0.9697
vn -0.0923 -0.2220 -0.9707
vn -0.7581 0.0001 0.6521
vn -0.7637 -0.0000 0.6455
vn -0.6373 0.0000 0.7706
vn -0.6452 -0.0000 0.7640
vn -0.0077 0.3447 0.9387
vn -0.0005 -0.9978 0.0657
vn -0.9094 0.3703 0.1892
vn -0.4072 -0.8053 -0.4309
vn 0.0020 0.9698 -0.2438
vn 0.0071 -0.5067 -0.8621
vn 0.9061 0.3704 0.2042
vn 0.4142 -0.8053 -0.4242
vn -0.0015 0.9832 0.1825
vn -0.0073 -0.4496 0.8932
vn -0.8427 0.4609 -0.2782
vn -0.3682 -0.7836 0.5003
vn 0.0082 0.0427 -0.9991
vn -0.0022 -0.9645 0.2640
vn 0.8471 0.4610 -0.2643
vn 0.3600 -0.7837 0.5063
vn -0.0065 -0.6108 0.7918
vn 0.0066 -0.5899 -0.8075
vn -0.9101 0.0358 0.4128
vn -0.4035 -0.0771 -0.9117
vn -0.0056 0.7304 0.6830
vn 0.0073 0.4501 -0.8930
vn 0.9032 0.0358 0.4277
vn 0.4184 -0.0771 -0.9050
vn -0.0012 -0.9894 0.1454
vn 0.0081 0.1632 -0.9866
vn -0.8489 -0.2224 0.4795
vn -0.3573 0.4199 -0.8343
vn -0.0079 0.2828 0.9591
vn 0.0044 0.8422 -0.5392
vn 0.8409 -0.2223 0.4934
vn 0.3710 0.4199 -0.8283
vn 0.6766 -0.5496 -0.4901
vn -0.9360 -0.2575 -0.2399
vn 0.5310 -0.3554 0.7692
vn -0.9405 -0.1524 0.3036
vn 0.3790 0.0780 0.9221
vn -0.9406 0.0295 0.3382
vn 0.3786 0.5145 0.7694
vn -0.9398 0.1941 0.2813
vn 0.3810 0.8152 0.4361
vn -0.9387 0.3075 0.1556
vn 0.3867 0.9221 -0.0139
vn -0.9377 0.3472 -0.0140
vn 0.5408 0.7242 -0.4279
vn -0.9364 0.2941 -0.1914
vn -0.6684 -0.5496 -0.5012
vn 0.9398 -0.2576 -0.2245
vn -0.5337 0.7242 -0.4368
vn 0.9395 0.2941 -0.1760
vn -0.3863 0.9221 -0.0202
vn 0.9378 0.3471 0.0014
vn -0.3884 0.8152 0.4296
vn 0.9361 0.3075 0.1710
vn -0.3911 0.5145 0.7631
vn 0.9350 0.1941 0.2967
vn -0.3942 0.0780 0.9157
vn 0.9349 0.0295 0.3536
vn -0.5437 -0.3554 0.7603
vn 0.9354 -0.1524 0.3191
vn -0.0081 -0.1426 0.9898
vn 0.0034 -0.9098 -0.4151
vn -0.9106 0.2339 0.3407
vn -0.4045 -0.5082 -0.7603
vn -0.0020 0.9692 0.2462
vn 0.0082 -0.0374 -0.9993
vn 0.9049 0.2338 0.3556
vn 0.4169 -0.5082 -0.7536
vn -0.0054 0.7546 0.6561
vn -0.0044 -0.8418 0.5397
vn -0.9066 0.4216 -0.0151
vn -0.4111 -0.9115 0.0136
vn 0.0057 0.7246 -0.6891
vn 0.0041 -0.8640 -0.5035
vn 0.9067 0.4218 -0.0002
vn 0.4108 -0.9115 0.0203
vn 0.0082 0.1325 -0.9911
vn -0.0035 0.9036 0.4284
vn -0.7544 -0.4844 -0.4430
vn -0.3133 0.7065 0.6346
vn -0.0019 -0.9723 0.2339
vn -0.0070 0.5192 0.8546
vn 0.7616 -0.4844 -0.4306
vn 0.3029 0.7065 0.6396
vn -0.0074 -0.4395 0.8982
vn -0.0082 0.0845 0.9964
vn -0.0068 0.5574 0.8302
vn -0.0039 0.8833 0.4689
vn 0.0002 0.9998 -0.0186
vn 0.0044 0.8482 -0.5297
vn -0.0055 0.7426 0.6697
vn -0.0055 0.7427 0.6696
vn -0.0055 0.7427 0.6697
vn -0.8472 -0.0003 0.5312
vn -0.8471 -0.0000 0.5314
vn -0.7610 0.0005 0.6488
vn -0.7580 -0.0002 0.6522
vn -0.7567 -0.0006 0.6537
vn 0.0074 0.4395 -0.8982
vn 0.0074 0.4394 -0.8982
vn 0.0082 -0.0845 -0.9964
vn 0.0068 -0.5574 -0.8302
vn 0.0039 -0.8833 -0.4689
vn 0.0038 -0.8833 -0.4689
vn -0.0001 -0.9998 0.0186
vn -0.0002 -0.9998 0.0186
vn -0.0043 -0.8482 0.5297
vn -0.0044 -0.8482 0.5297
vn -0.0044 -0.8482 0.5296
vn -0.0043 -0.8482 0.5296
vn -0.3858 0.0022 0.9226
vn -0.3846 -0.0010 0.9231
vn -0.6376 -0.0001 0.7703
vn -0.6425 -0.0007 0.7663
vn -0.6446 -0.0008 0.7645
vn 0.3372 0.1396 -0.9310
vn -0.3371 0.1398 -0.9310
vn -0.1380 0.3337 -0.9325
vn -0.1382 -0.3336 -0.9325
vn 0.2296 -0.5731 -0.7867
vn -0.5683 -0.2328 -0.7892
vn 0.5646 -0.2416 -0.7892
vn 0.2384 0.5695 -0.7867
vn 0.1145 0.0469 -0.9923
vn -0.1138 0.0487 -0.9923
vn -0.0445 0.1111 -0.9928
vn -0.0462 -0.1104 -0.9928
vn -0.5598 0.2254 -0.7974
vn -0.2278 -0.5553 -0.7999
vn -0.2352 0.5522 -0.7999
vn 0.5568 0.2328 -0.7974
vn 0.1069 -0.2559 -0.9608
vn -0.2524 -0.1049 -0.9619
vn 0.2529 -0.1038 -0.9619
vn 0.1058 0.2563 -0.9608
vn 0.0536 0.1305 -0.9900
vn 0.0553 -0.1298 -0.9900
vn 0.4496 0.1868 -0.8735
vn -0.4504 0.1849 -0.8735
vn 0.1271 -0.0512 -0.9906
vn -0.1264 -0.0529 -0.9906
vn -0.1863 0.4459 -0.8755
vn -0.1845 -0.4466 -0.8755
vn 0.1956 -0.4778 -0.8564
vn -0.4740 -0.1956 -0.8585
vn 0.4729 -0.1982 -0.8585
vn 0.1982 0.4767 -0.8564
vn 0.0073 0.4641 -0.8858
vn 0.0073 0.4640 -0.8858
vn -0.0073 -0.4641 0.8858
vn 0.0070 -0.5296 -0.8482
vn -0.0046 -0.8303 0.5573
vn 0.9831 0.0890 -0.1597
vn 0.7187 -0.3709 -0.5881
vn 0.0046 0.8302 -0.5575
vn 0.9999 -0.0021 0.0121
vn -0.0046 -0.8302 0.5574
vn -0.7189 -0.3283 0.6127
vn -0.0070 0.5297 0.8482
vn 0.9310 -0.1682 0.3239
vn -0.9290 -0.1767 0.3253
vn -0.7088 -0.3711 -0.5999
vn 0.0073 0.4689 -0.8832
vn -0.9550 -0.0054 -0.2967
vn -0.0073 -0.4689 0.8832
vn 0.8786 -0.0089 -0.4774
vn 0.8667 0.0091 0.4987
vn 0.0073 0.4690 -0.8832
vn -0.9298 0.0070 0.3680
vn -0.7186 0.3710 0.5881
vn 0.9967 0.0014 0.0807
vn -0.0073 -0.4691 0.8831
vn -0.0073 -0.4690 0.8832
vn -0.8743 0.0092 0.4854
vn -0.0070 0.5296 0.8482
vn 0.0082 -0.0186 -0.9998
vn -0.8752 0.4315 0.2188
vn -0.0082 0.0186 0.9998
vn -0.0082 0.0187 0.9998
vn -0.0038 0.8859 0.4639
vn 0.0082 -0.0187 -0.9998
vn 0.0082 -0.0185 -0.9998
vn -0.0082 0.0184 0.9998
vn -1.0000 0.0000 -0.0083
vn 0.0070 -0.5574 -0.8302
vn 0.0007 0.9964 -0.0845
vn 0.0084 -0.0845 -0.9964
vn -0.0084 -0.0877 0.9961
vn -0.0007 -0.9964 0.0846
vn 0.0016 0.9818 -0.1898
vn -0.7142 -0.6979 0.0533
vn 0.0076 0.4395 -0.8982
vn 0.0038 -0.8858 -0.4641
vn 0.0082 -0.1898 -0.9818
vn -0.6935 0.5954 -0.4056
vn 0.0055 -0.7426 -0.6697
vn -0.0076 -0.3499 0.9367
vn 0.0082 -0.0188 -0.9998
vn -0.8683 -0.4151 0.2715
vn -0.0038 0.8858 0.4640
vn 0.0057 -0.7426 -0.6697
vn 0.0029 -0.9368 -0.3500
vn -0.8052 0.2754 -0.5251
vn -0.0068 -0.5737 0.8190
vn 0.0046 0.8302 -0.5574
vn -0.0056 0.7426 0.6697
vn 0.4937 -0.0162 -0.8695
vn -0.0013 0.9871 0.1598
vn 0.0056 -0.7426 -0.6697
vn 0.0083 -0.0450 -0.9990
vn -0.9897 0.1302 0.0601
vn 0.8628 0.4449 0.2401
vn 0.0029 -0.9367 -0.3500
vn 0.8680 -0.4427 -0.2248
vn -0.8905 0.0085 0.4549
vn -0.9815 -0.1661 -0.0951
vn -0.0054 0.7426 0.6697
vn 0.7489 -0.5895 -0.3027
vn -0.0081 -0.0876 0.9961
vn -0.9478 -0.2791 -0.1541
vn -0.7132 0.6979 -0.0651
vn 0.9934 0.1149 -0.0016
vn 0.4422 0.8940 -0.0722
vn -0.7089 -0.3710 -0.5999
vn 0.0038 -0.8859 -0.4639
vn 0.6944 -0.7165 0.0665
vn 1.0000 -0.0000 0.0083
vn 0.7187 -0.3710 -0.5881
vn -0.9768 -0.2139 0.0101
vn 0.9102 -0.4119 0.0425
vn -0.7090 -0.3709 -0.5998
vn -0.7885 0.5076 -0.3473
vn 0.7187 -0.3709 -0.5882
vn 0.8726 0.4088 -0.2674
vn 0.7089 0.3710 0.5999
vn 0.9035 -0.3523 0.2439
vn -0.9281 -0.3126 0.2023
vn 0.5676 -0.6813 0.4622
vn -0.7187 0.3709 0.5881
vn -0.8592 -0.4280 0.2803
vn -0.9618 0.1250 -0.2435
usemtl metal.002
s 1
f 1/1/1 2/2/1 3/3/1 4/4/1
f 5/5/1 6/6/1 7/7/1 8/8/1
f 9/9/2 10/10/2 11/11/2 12/12/2
f 13/13/3 14/14/3 6/15/3 5/16/3
f 4/17/3 9/18/3 12/19/3 1/20/3
f 10/21/4 3/22/4 2/23/4 11/24/4
f 15/25/5 13/26/5 2/27/5 1/28/5
f 14/29/6 16/30/6 4/31/6 3/32/7
f 16/30/6 7/33/7 9/34/7 4/31/6
f 6/35/8 14/29/6 3/32/7 10/36/7
f 7/33/7 6/35/8 10/36/7 9/34/7
f 5/37/5 8/38/5 12/39/5 11/40/5
f 8/38/5 15/25/5 1/28/5 12/39/5
f 13/26/5 5/37/5 11/40/5 2/27/5
f 8/41/4 7/42/4 16/43/4 15/44/4
f 15/45/9 16/46/9 14/47/9 13/48/9
f 17/49/10 18/50/10 19/51/10 20/52/10
f 20/52/11 19/51/11 21/53/11 22/54/11
f 22/55/12 21/56/12 23/57/12 24/58/12
f 24/58/13 23/57/13 25/59/13 26/60/13
f 26/61/14 25/62/14 27/63/14 28/64/14
f 18/65/9 29/66/9 30/67/9 27/68/9 25/69/9 23/70/9 21/71/9 19/72/9
f 28/64/15 27/63/15 30/73/15 31/74/15
f 31/75/16 30/76/16 29/77/16 32/78/16
f 32/79/1 17/80/1 20/81/1 22/82/1 24/83/1 26/84/1 28/85/1 31/86/1
usemtl madera.002
f 33/87/17 34/88/17 35/89/17 36/90/17
f 37/91/18 38/92/19 39/93/20 40/94/21
f 41/95/22 42/96/23 43/97/24 44/98/25
f 45/99/26 37/91/18 40/94/21 46/100/27
f 38/92/19 47/101/28 48/102/29 39/93/20
f 49/103/30 50/104/31 51/105/32 52/106/33
f 53/107/34 54/108/35 55/109/36 56/110/37
f 47/101/28 45/99/26 46/100/27 48/102/29
f 57/111/38 58/112/38 59/113/38 60/114/38
f 58/115/39 57/116/39 61/117/39 62/118/39
f 58/119/40 63/120/40 64/121/40 59/122/40
f 63/123/41 58/115/41 62/118/41 65/124/41
f 63/125/42 66/126/42 67/127/42 64/128/42
f 66/129/43 63/123/43 65/124/43 68/130/43
f 66/131/44 57/132/44 60/133/44 67/134/44
f 57/116/45 66/129/45 68/130/45 61/117/45
f 69/135/46 70/136/46 71/137/46 72/138/46
f 70/139/47 69/140/47 73/141/47 74/142/47
f 70/143/48 75/144/48 76/145/48 71/146/48
f 75/147/49 70/139/49 74/142/49 77/148/49
f 75/149/50 78/150/50 79/151/50 76/152/50
f 78/153/51 75/147/51 77/148/51 80/154/51
f 78/155/52 69/156/52 72/157/52 79/158/52
f 69/140/53 78/153/53 80/154/53 73/141/53
f 81/159/54 82/160/54 83/161/54 84/162/54
f 82/163/55 81/164/55 85/165/55 86/166/55
f 82/167/56 87/168/56 88/169/56 83/170/56
f 87/171/57 82/172/57 86/173/57 89/174/57
f 87/175/58 90/176/58 91/177/58 88/178/58
f 90/179/59 87/171/59 89/174/59 92/180/59
f 90/181/60 81/182/60 84/183/60 91/184/60
f 81/185/61 90/179/61 92/180/61 85/186/61
f 93/187/62 94/188/62 95/189/62 96/190/62
f 94/191/63 93/192/63 97/193/63 98/194/63
f 94/195/64 99/196/64 83/197/64 95/198/64
f 99/199/65 94/191/65 98/194/65 86/200/65
f 99/201/66 100/202/66 84/203/66 83/204/66
f 100/205/67 99/199/67 86/200/67 85/206/67
f 100/207/68 93/208/68 96/209/68 84/210/68
f 93/192/69 100/205/69 85/206/69 97/193/69
f 101/211/70 102/212/70 96/213/70 79/214/70
f 102/215/71 101/216/71 80/217/71 97/218/71
f 102/219/72 103/220/72 84/221/72 96/222/72
f 103/223/73 102/215/73 97/218/73 85/224/73
f 103/225/74 104/226/74 91/227/74 84/228/74
f 104/229/75 103/223/75 85/224/75 92/230/75
f 104/226/76 105/231/76 60/232/76 91/227/76
f 105/233/77 104/229/77 92/230/77 61/234/77
f 105/231/78 106/235/78 67/236/78 60/232/78
f 106/237/79 105/233/79 61/234/79 68/238/79
f 106/235/80 107/239/80 72/240/80 67/236/80
f 107/241/81 106/237/81 68/238/81 73/242/81
f 107/243/82 101/244/82 79/245/82 72/246/82
f 101/216/83 107/241/83 73/242/83 80/217/83
f 108/247/84 109/248/84 76/249/84 95/250/84
f 109/251/85 108/252/85 98/253/85 77/254/85
f 109/255/86 110/256/86 71/257/86 76/258/86
f 110/259/87 109/251/87 77/254/87 74/260/87
f 110/261/88 111/262/88 64/263/88 71/264/88
f 111/265/89 110/259/89 74/260/89 65/266/89
f 111/262/90 112/267/90 59/268/90 64/263/90
f 112/269/91 111/265/91 65/266/91 62/270/91
f 112/267/92 113/271/92 88/272/92 59/268/92
f 113/273/93 112/269/93 62/270/93 89/274/93
f 113/271/94 114/275/94 83/276/94 88/272/94
f 114/277/95 113/273/95 89/274/95 86/278/95
f 114/279/96 108/280/96 95/281/96 83/282/96
f 108/252/97 114/277/97 86/278/97 98/253/97
f 115/283/98 116/284/98 88/285/98 91/286/98
f 116/287/99 115/288/99 92/289/99 89/290/99
f 116/291/100 117/292/100 59/122/100 88/293/100
f 117/294/101 116/287/101 89/290/101 62/295/101
f 117/296/102 118/297/102 60/114/102 59/113/102
f 118/298/103 117/299/103 62/300/103 61/301/103
f 118/302/104 115/303/104 91/304/104 60/133/104
f 115/288/105 118/305/105 61/306/105 92/289/105
f 119/307/106 120/308/106 64/128/106 67/127/106
f 120/309/107 119/310/107 68/311/107 65/312/107
f 120/313/108 121/314/108 71/315/108 64/316/108
f 121/317/109 120/318/109 65/319/109 74/320/109
f 121/321/110 122/322/110 72/323/110 71/324/110
f 122/325/111 121/317/111 74/320/111 73/326/111
f 122/327/112 119/328/112 67/329/112 72/330/112
f 119/331/113 122/325/113 73/326/113 68/332/113
f 123/333/114 124/334/114 76/152/114 79/151/114
f 124/335/115 123/336/115 80/337/115 77/338/115
f 124/339/116 125/340/116 95/341/116 76/342/116
f 125/343/117 124/335/117 77/338/117 98/344/117
f 125/345/118 126/346/118 96/190/118 95/189/118
f 126/347/119 125/343/119 98/344/119 97/348/119
f 126/349/120 123/350/120 79/351/120 96/352/120
f 123/336/121 126/347/121 97/348/121 80/337/121
f 127/353/1 128/354/1 129/355/1 130/356/1 131/357/1 132/358/1 133/359/1
f 134/360/9 135/361/9 136/362/9 137/363/9 138/364/9 139/365/9 140/366/9
f 140/367/122 139/368/122 128/369/122 127/370/122
f 139/371/123 138/372/123 129/373/123 128/374/123
f 138/372/124 137/375/124 130/376/124 129/373/124
f 137/375/125 136/377/125 131/378/125 130/376/125
f 136/377/126 135/379/126 132/380/126 131/378/126
f 135/381/127 134/382/127 133/383/127 132/384/127
f 141/385/128 133/386/128 134/387/128 142/388/128
f 143/389/129 140/390/130 127/391/130 144/392/129
f 144/392/129 127/391/130 133/386/128 141/385/128
f 142/388/128 134/387/128 140/390/130 143/389/129
f 144/393/9 141/394/9 34/395/9 33/396/9
f 141/394/9 145/397/9 146/398/9 34/395/9
f 145/397/9 147/399/9 148/400/9 146/398/9
f 147/399/9 149/401/9 150/402/9 148/400/9
f 149/401/9 151/403/9 152/404/9 150/402/9
f 151/403/9 153/405/9 154/406/9 152/404/9
f 153/405/9 144/393/9 33/396/9 154/406/9
f 142/407/1 143/408/1 155/409/131 156/410/132
f 143/408/1 157/411/1 158/412/133 155/409/131
f 157/411/1 159/413/1 160/414/134 158/412/133
f 159/413/1 161/415/1 162/416/135 160/414/134
f 161/415/1 163/417/1 53/418/34 162/416/135
f 163/417/1 164/419/1 54/420/35 53/418/34
f 164/419/1 142/407/1 156/410/132 54/420/35
f 143/421/136 144/392/137 165/422/137 166/423/136
f 144/392/137 153/424/136 167/425/136 165/422/137
f 153/424/136 157/426/136 168/427/136 167/425/136
f 157/426/136 143/421/136 166/423/136 168/427/136
f 157/426/138 153/424/138 42/428/138 41/429/138
f 153/424/138 151/430/138 169/431/138 42/428/138
f 151/430/138 159/432/138 170/433/138 169/431/138
f 159/432/138 157/426/138 41/429/138 170/433/138
f 159/434/139 151/435/139 171/436/139 172/437/139
f 151/435/139 149/438/139 49/439/139 171/436/139
f 149/438/139 161/440/139 50/441/139 49/439/139
f 161/440/139 159/434/139 172/437/139 50/441/139
f 161/440/140 149/438/141 173/442/141 174/443/140
f 149/438/141 147/444/140 175/445/140 173/442/141
f 147/444/140 163/446/140 176/447/140 175/445/140
f 163/446/140 161/440/140 174/443/140 176/447/140
f 163/446/142 147/444/143 45/448/143 47/449/142
f 147/444/143 145/450/143 37/451/143 45/448/143
f 145/450/143 164/452/142 38/453/142 37/451/143
f 164/452/142 163/446/142 47/449/142 38/453/142
f 164/454/144 145/455/145 177/456/145 178/457/144
f 145/455/145 141/458/146 179/459/146 177/456/145
f 141/458/146 142/460/147 180/461/147 179/459/146
f 142/460/147 164/454/144 178/457/144 180/461/147
f 36/462/9 35/463/9 181/464/9 182/465/9 183/466/9 184/467/9 185/468/9
f 186/469/148 187/470/149 188/471/150 189/472/151 190/473/152 56/474/37 55/475/36
f 191/476/136 192/477/136 193/478/136 194/479/136
f 44/480/138 43/481/138 195/482/138 196/483/138
f 197/484/139 198/485/139 52/486/139 51/487/139
f 199/488/140 200/489/140 201/490/140 202/491/140
f 48/492/143 46/493/143 40/494/143 39/495/143
f 203/496/145 204/497/145 205/498/145 206/499/145
f 170/500/153 41/95/22 44/98/25 196/501/154
f 154/502/17 33/87/17 36/90/17 185/503/17
f 42/96/23 169/504/155 195/505/156 43/97/24
f 34/88/17 146/506/17 181/507/17 35/89/17
f 174/508/157 173/509/158 200/510/159 199/511/160
f 169/504/155 170/500/153 196/501/154 195/505/156
f 146/506/17 148/512/17 182/513/17 181/507/17
f 176/514/161 174/508/157 199/511/160 202/515/162
f 148/512/17 150/516/17 183/517/17 182/513/17
f 173/509/158 175/518/163 201/519/164 200/510/159
f 156/520/132 155/521/131 187/522/149 186/523/148
f 178/524/165 177/525/166 204/526/167 203/527/168
f 150/516/17 152/528/17 184/529/17 183/517/17
f 166/530/169 165/531/170 192/532/171 191/533/172
f 175/518/163 176/514/161 202/515/162 201/519/164
f 54/108/35 156/520/132 186/523/148 55/109/36
f 180/534/173 178/524/165 203/527/168 206/535/174
f 152/528/17 154/502/17 185/503/17 184/529/17
f 168/536/175 166/530/169 191/533/172 194/537/176
f 155/521/131 158/538/133 188/539/150 187/522/149
f 177/525/166 179/540/177 205/541/178 204/526/167
f 165/531/170 167/542/179 193/543/180 192/532/171
f 158/538/133 160/544/134 189/545/151 188/539/150
f 172/546/181 171/547/182 198/548/183 197/549/184
f 179/540/177 180/534/173 206/535/174 205/541/178
f 167/542/179 168/536/175 194/537/176 193/543/180
f 160/544/134 162/550/135 190/551/152 189/545/151
f 50/104/31 172/546/181 197/549/184 51/105/32
f 162/550/135 53/107/34 56/110/37 190/551/152
f 171/547/182 49/103/30 52/106/33 198/548/183
usemtl madera_a.001
f 207/552/145 208/553/145 209/554/145 210/555/145 211/556/145 212/557/145 213/558/145
f 214/559/145 215/560/145 216/561/145 217/562/145 218/563/145 219/564/145 220/565/145
f 221/566/145 222/567/145 223/568/145 214/559/145 220/565/145 224/569/145 225/570/145
f 209/554/145 226/571/145 221/566/145 225/570/145 227/572/145 210/555/145
f 228/573/9 229/574/9 230/575/9
f 231/576/1 232/577/1 233/578/1 234/579/1 235/580/1 236/581/1
f 237/582/185 238/583/185 239/584/185 240/585/185 241/586/185 242/587/185
f 243/588/140 244/589/140 245/590/140 246/591/140 247/592/140 248/593/140
f 249/594/140 250/595/140 243/588/140 248/593/140 251/596/140 252/597/140 253/598/140
f 254/599/143 255/600/143 256/601/143 257/602/143 258/603/143 259/604/143
f 260/605/1 261/606/1 262/607/1 263/608/1
f 264/609/9 265/610/9 266/611/9 267/612/9 268/613/9
f 269/614/138 270/615/138 271/616/138 272/617/138 273/618/138 274/619/138
f 238/583/185 275/620/185 276/621/185 277/622/185 239/584/185
f 271/616/138 278/623/138 279/624/138 280/625/138 281/626/138 272/617/138
f 282/627/139 283/628/139 284/629/139 285/630/139 286/631/139 287/632/139 288/633/139
f 279/624/138 289/634/138 290/635/138 291/636/138 280/625/138
f 292/637/139 293/638/139 294/639/139 295/640/139 296/641/139 297/642/139
f 298/643/140 299/644/140 300/645/140 301/646/140 302/647/140
f 294/639/139 303/648/139 304/649/139 305/650/139 295/640/139
f 284/629/139 306/651/139 292/637/139 297/642/139 307/652/139 285/630/139
f 308/653/143 309/654/143 310/655/143 311/656/143 312/657/143 313/658/143
f 314/659/143 315/660/143 308/653/143 313/658/143 316/661/143 317/662/143
f 300/645/140 249/594/140 253/598/140 318/663/141 301/646/140
f 255/600/143 319/664/143 314/659/143 317/662/143 320/665/143 256/601/143
f 321/666/186 322/667/185 237/582/185 242/587/185 323/668/185 324/669/186
f 325/670/1 326/671/1 327/672/1 328/673/1 329/674/1 330/675/1 331/676/1
f 332/677/186 333/678/186 334/679/186 321/666/186 324/669/186 335/680/186
f 336/681/9 337/682/9 338/683/9 339/684/9 340/685/9 341/686/9 342/687/9
f 289/634/138 343/688/138 344/689/138 345/690/138 346/691/138 290/635/138
f 347/692/127 348/693/127 349/694/127 350/695/127 351/696/127 352/697/127 353/698/127
f 354/699/127 355/700/127 356/701/127 357/702/127 358/703/127 359/704/127 360/705/127
f 361/706/127 362/707/127 363/708/127 355/700/127 354/699/127 364/709/127 365/710/127
f 352/697/127 351/696/127 366/711/127 362/707/127 361/706/127 367/712/127
f 368/713/1 369/714/1 370/715/1
f 371/716/9 372/717/9 373/718/9 374/719/9 375/720/9 376/721/9
f 377/722/187 378/723/187 379/724/187 380/725/187 381/726/187 382/727/187
f 383/728/125 384/729/125 385/730/125 386/731/125 387/732/125 388/733/125
f 389/734/125 390/735/125 391/736/125 392/737/125 384/729/125 383/728/125 393/738/125
f 394/739/126 395/740/126 396/741/126 397/742/126 398/743/126 399/744/126
f 400/745/9 401/746/9 402/747/9 403/748/9
f 404/749/1 405/750/1 406/751/1 407/752/1 408/753/1
f 409/754/123 410/755/123 411/756/123 412/757/123 413/758/123 414/759/123
f 382/727/187 381/726/187 415/760/187 416/761/187 417/762/187
f 413/758/123 412/757/123 418/763/123 419/764/123 420/765/123 421/766/123
f 422/767/124 423/768/124 424/769/124 425/770/124 426/771/124 427/772/124 428/773/124
f 420/765/123 419/764/123 429/774/123 430/775/123 431/776/123
f 432/777/124 433/778/124 434/779/124 435/780/124 436/781/124 437/782/124
f 438/783/125 439/784/125 440/785/125 441/786/125 442/787/125
f 436/781/124 435/780/124 443/788/124 444/789/124 445/790/124
f 427/772/124 426/771/124 446/791/124 433/778/124 432/777/124 447/792/124
f 448/793/126 449/794/126 450/795/126 451/796/126 452/797/126 453/798/126
f 454/799/126 455/800/126 456/801/126 449/794/126 448/793/126 457/802/126
f 441/786/125 440/785/125 458/803/125 390/735/125 389/734/125
f 399/744/126 398/743/126 459/804/126 455/800/126 454/799/126 460/805/126
f 461/806/187 462/807/187 463/808/187 378/723/187 377/722/187 464/809/187
f 465/810/9 466/811/9 467/812/9 468/813/9 469/814/9 470/815/9 471/816/9
f 472/817/187 473/818/187 462/807/187 461/806/187 474/819/187 475/820/187
f 476/821/1 477/822/1 478/823/1 479/824/1 480/825/1 481/826/1 482/827/1
f 431/776/123 430/775/123 483/828/123 484/829/123 485/830/123 486/831/123
f 215/832/188 360/833/188 359/834/188 216/835/188
f 296/836/189 434/837/189 433/838/189 297/839/189
f 250/840/190 393/841/190 383/842/190 243/843/190
f 216/844/191 359/845/191 358/846/191 217/847/191
f 284/848/192 427/849/192 447/850/192 306/851/192
f 248/852/193 384/853/193 392/854/193 251/855/193
f 217/847/9 358/846/9 357/856/9 218/857/9
f 297/839/189 433/838/189 446/858/194 307/859/194
f 247/860/195 385/861/195 384/862/195 248/863/195
f 218/864/196 357/865/196 356/866/196 219/867/196
f 304/868/194 444/869/194 443/870/194 305/871/194
f 253/872/197 390/873/197 458/874/197 318/875/197
f 213/876/1 348/877/1 347/878/1 207/879/1
f 252/880/198 391/881/198 390/882/198 253/883/198
f 207/879/199 347/878/199 353/884/199 208/885/199
f 244/886/200 388/887/200 387/888/200 245/889/200
f 314/890/201 454/891/201 457/892/201 315/893/201
f 208/894/188 353/895/188 352/896/188 209/897/188
f 246/898/202 386/899/202 385/900/202 247/901/202
f 319/902/203 460/903/203 454/904/203 314/905/203
f 313/906/204 449/907/204 456/908/204 316/909/204
f 211/910/196 350/911/196 349/912/196 212/913/196
f 249/914/205 389/915/205 393/916/205 250/840/205
f 312/917/206 450/918/206 449/919/206 313/920/206
f 212/921/207 349/922/207 348/877/207 213/876/207
f 251/923/202 392/924/202 391/925/202 252/926/202
f 256/927/208 398/928/208 397/929/208 257/930/208
f 318/931/209 458/932/209 440/933/210 301/934/210
f 320/935/211 459/936/211 398/937/211 256/938/211
f 222/939/188 365/940/188 364/941/188 223/942/188
f 335/943/1 473/944/1 472/945/1 332/946/1
f 224/947/212 363/948/212 362/949/196 225/950/196
f 315/951/213 457/952/213 448/953/213 308/954/213
f 332/946/214 472/945/214 475/955/214 333/956/214
f 209/897/188 352/896/188 367/957/188 226/958/188
f 316/959/215 456/960/215 455/961/216 317/962/216
f 333/963/217 475/964/217 474/965/217 334/966/217
f 225/950/196 362/949/196 366/967/196 227/968/196
f 255/969/218 399/970/218 460/971/219 319/972/219
f 229/973/141 370/974/141 369/975/141 230/976/141
f 317/962/216 455/961/216 459/977/220 320/978/220
f 274/979/221 410/980/221 409/981/221 269/982/221
f 230/983/222 369/984/222 368/985/222 228/986/222
f 331/987/145 466/988/145 465/989/145 325/990/145
f 269/991/223 409/992/223 414/993/223 270/994/223
f 268/995/224 405/996/224 404/997/224 264/998/224
f 325/999/225 465/1000/225 471/1001/225 326/1002/225
f 233/1003/224 375/1004/224 374/1005/224 234/1006/224
f 326/1007/128 471/1008/128 470/1009/128 327/1010/128
f 272/1011/226 412/1012/226 411/1013/226 273/1014/226
f 262/1015/222 402/1016/222 401/1017/222 263/1018/222
f 327/1010/227 470/1009/227 469/1019/227 328/1020/227
f 273/1021/228 411/1022/228 410/980/228 274/979/228
f 275/1023/9 417/1024/9 416/1025/9 276/1026/9
f 328/1027/229 469/1028/229 468/1029/229 329/1030/229
f 288/1031/1 423/1032/1 422/1033/1 282/1034/1
f 324/1035/230 462/1036/230 473/1037/230 335/1038/230
f 329/1030/231 468/1029/231 467/1039/231 330/1040/231
f 282/1034/232 422/1033/232 428/1041/232 283/1042/232
f 303/1043/9 445/1044/9 444/1045/9 304/1046/9
f 330/1047/233 467/1048/233 466/988/233 331/987/233
f 283/1049/192 428/1050/192 427/849/192 284/848/192
f 245/1051/9 387/1052/9 386/1053/9 246/1054/9
f 236/1055/142 372/1056/142 371/1057/142 231/1058/142
f 301/934/210 440/933/210 439/1059/202 302/1060/202
f 231/1061/234 371/1062/234 376/1063/234 232/1064/234
f 286/1065/189 425/1066/189 424/1067/189 287/1068/189
f 254/1069/235 394/1070/235 399/970/218 255/969/218
f 232/1071/128 376/1072/128 375/1073/128 233/1074/128
f 287/1075/236 424/1076/236 423/1032/236 288/1031/236
f 238/1077/237 382/1078/237 417/1079/237 275/1080/237
f 234/1081/238 374/1082/238 373/1083/238 235/1084/238
f 302/1085/1 439/1086/1 438/1087/1 298/1088/1
f 237/1089/237 377/1090/237 382/1078/237 238/1077/237
f 235/1084/239 373/1083/239 372/1056/239 236/1055/239
f 298/1088/240 438/1087/240 442/1091/240 299/1092/240
f 279/1093/223 420/1094/223 431/1095/223 289/1096/223
f 263/1097/140 401/1098/140 400/1099/140 260/1100/140
f 299/1101/200 442/1102/200 441/1103/205 300/1104/205
f 260/1105/241 400/1106/241 403/1107/241 261/1108/241
f 294/1109/242 436/1110/242 445/1111/242 303/1112/242
f 261/1113/243 403/1114/243 402/1115/243 262/1116/243
f 308/954/213 448/953/213 453/1117/213 309/1118/213
f 300/1104/205 441/1103/205 389/915/205 249/914/205
f 342/1119/136 477/1120/136 476/1121/136 336/1122/136
f 309/1118/244 453/1117/244 452/1123/244 310/1124/244
f 336/1125/245 476/1126/245 482/1127/245 337/1128/245
f 310/1129/9 452/1130/9 451/1131/9 311/1132/9
f 228/1133/243 368/1134/243 370/1135/243 229/1136/243
f 340/1137/246 479/1138/246 478/1139/246 341/1140/246
f 311/1141/216 451/1142/216 450/1143/216 312/1144/216
f 264/1145/243 404/1146/243 408/1147/243 265/1148/243
f 341/1149/247 478/1150/247 477/1120/247 342/1119/247
f 259/1151/1 395/1152/1 394/1153/1 254/1154/1
f 321/1155/248 461/1156/248 464/1157/248 322/1158/248
f 265/1159/143 408/1160/143 407/1161/143 266/1162/143
f 334/1163/249 474/1164/249 461/1165/249 321/1166/249
f 266/1162/250 407/1161/250 406/1167/250 267/1168/250
f 257/1169/215 397/1170/215 396/1171/215 258/1172/215
f 239/1173/251 381/1174/251 380/1175/251 240/1176/251
f 267/1168/238 406/1167/238 405/1177/238 268/1178/238
f 258/1179/252 396/1180/252 395/1152/252 259/1151/252
f 277/1181/253 415/1182/253 381/1183/253 239/1184/253
f 337/1128/254 482/1127/254 481/1185/254 338/1186/254
f 322/1187/237 464/1188/237 377/1090/237 237/1089/237
f 242/1189/255 378/1190/255 463/1191/255 323/1192/255
f 338/1193/256 481/1194/256 480/1195/256 339/1196/256
f 241/1197/257 379/1198/257 378/1199/257 242/1200/257
f 339/1201/144 480/1202/144 479/1138/144 340/1137/144
f 323/1203/230 463/1204/230 462/1036/230 324/1035/230
f 271/1205/258 413/1206/258 421/1207/258 278/1208/258
f 289/1096/223 431/1095/223 486/1209/223 343/1210/223
f 270/1211/259 414/1212/259 413/1213/259 271/1214/259
f 343/1210/260 486/1209/260 485/1215/260 344/1216/260
f 214/1217/261 354/1218/261 360/1219/261 215/1220/261
f 276/1221/262 416/1222/262 415/1223/262 277/1224/262
f 280/1225/263 419/1226/263 418/1227/263 281/1228/263
f 344/1229/264 485/1230/264 484/1231/264 345/1232/264
f 223/1233/265 364/1234/265 354/1235/265 214/1236/265
f 240/1237/230 380/1238/230 379/1239/230 241/1240/230
f 291/1241/266 429/1242/266 419/1243/266 280/1244/266
f 345/1232/267 484/1231/267 483/1245/267 346/1246/267
f 221/1247/268 361/1248/268 365/1249/268 222/1250/268
f 278/1208/223 421/1207/223 420/1094/223 279/1093/223
f 292/1251/269 432/1252/269 437/1253/269 293/1254/269
f 346/1255/226 483/1256/226 430/1257/226 290/1258/226
f 226/1259/270 367/1260/270 361/1261/270 221/1262/270
f 306/1263/271 447/1264/271 432/1265/271 292/1266/271
f 210/1267/272 351/1268/272 350/1269/272 211/1270/272
f 281/1228/226 418/1227/226 412/1012/226 272/1011/226
f 295/1271/273 435/1272/273 434/1273/273 296/1274/273
f 227/1275/207 366/1276/207 351/1277/207 210/1278/207
f 290/1258/226 430/1257/226 429/1279/226 291/1280/226
f 305/1281/274 443/1282/274 435/1283/274 295/1284/274
f 220/1285/272 355/1286/272 363/1287/272 224/1288/272
f 285/1289/275 426/1290/275 425/1066/275 286/1065/275
f 219/1291/276 356/1292/276 355/1293/276 220/1294/276
f 293/1295/242 437/1296/242 436/1110/242 294/1109/242
f 307/1297/277 446/1298/277 426/1299/277 285/1300/277
f 243/843/278 383/842/278 388/1301/278 244/1302/278
