^E:\ISAAC\ESCUELA\COMPUTACION GRAFICA\LABORATORIO\PROYECTO\GRAVITY_FALLS\GRAVITY_FALLS\DEBUG\SOLANOMORALESISAACURIEL_PROYECTOFINAL_GPO9.OBJ
/OUT:"E:\ISAAC\ESCUELA\COMPUTACION GRAFICA\LABORATORIO\PROYECTO\GRAVITY_FALLS\DEBUG\GRAVITY_FALLS.EXE" /INCREMENTAL /ILK:"DEBUG\GRAVITY_FALLS.ILK" /NOLOGO /LIBPATH:"E:\ISAAC\ESCUELA\COMPUTACION GRAFICA\LABORATORIO\PROYECTO\GRAVITY_FALLS\/EXTERNAL LIBRARIES/GLEW/LIB/RELEASE/WIN32" /LIBPATH:"E:\ISAAC\ESCUELA\COMPUTACION GRAFICA\LABORATORIO\PROYECTO\GRAVITY_FALLS\/EXTERNAL LIBRARIES/GLFW/LIB-VC2015" /LIBPATH:"E:\ISAAC\ESCUELA\COMPUTACION GRAFICA\LABORATORIO\PROYECTO\GRAVITY_FALLS\/EXTERNAL LIBRARIES/GLM" /LIBPATH:"E:\ISAAC\ESCUELA\COMPUTACION GRAFICA\LABORATORIO\PROYECTO\GRAVITY_FALLS\/EXTERNAL LIBRARIES/SOIL2/LIB" /LIBPATH:"E:\ISAAC\ESCUELA\COMPUTACION GRAFICA\LABORATORIO\PROYECTO\GRAVITY_FALLS\/EXTERNAL LIBRARIES/ASSIMP/LIB" OPENGL32.LIB GLEW32.LIB GLFW3.LIB "SOIL2-DEBUG.LIB" "ASSIMP-VC140-MT.LIB" KERNEL32.LIB USER32.LIB GDI32.LIB WINSPOOL.LIB COMDLG32.LIB ADVAPI32.LIB SHELL32.LIB OLE32.LIB OLEAUT32.LIB UUID.LIB ODBC32.LIB ODBCCP32.LIB /MANIFEST /MANIFESTUAC:"level='asInvoker' uiAccess='false'" /manifest:embed /DEBUG /PDB:"E:\ISAAC\ESCUELA\COMPUTACION GRAFICA\LABORATORIO\PROYECTO\GRAVITY_FALLS\DEBUG\GRAVITY_FALLS.PDB" /SUBSYSTEM:CONSOLE /TLBID:1 /DYNAMICBASE /NXCOMPAT /IMPLIB:"E:\ISAAC\ESCUELA\COMPUTACION GRAFICA\LABORATORIO\PROYECTO\GRAVITY_FALLS\DEBUG\GRAVITY_FALLS.LIB" /MACHINE:X86 DEBUG\SOLANOMORALESISAACURIEL_PROYECTOFINAL_GPO9.OBJ
^C:\USERS\ISAAC\DESKTOP\PROYECTO\PROYECTO_LAB_COMPUTACION_GRAFICA\GRAVITY_FALLS\GRAVITY_FALLS\DEBUG\SOLANOMORALESISAACURIEL_PROYECTOFINAL_GPO9.OBJ
/OUT:"C:\USERS\ISAAC\DESKTOP\PROYECTO\PROYECTO_LAB_COMPUTACION_GRAFICA\GRAVITY_FALLS\DEBUG\GRAVITY_FALLS.EXE" /INCREMENTAL /ILK:"DEBUG\GRAVITY_FALLS.ILK" /NOLOGO /LIBPATH:"C:\USERS\ISAAC\DESKTOP\PROYECTO\PROYECTO_LAB_COMPUTACION_GRAFICA\GRAVITY_FALLS\/EXTERNAL LIBRARIES/GLEW/LIB/RELEASE/WIN32" /LIBPATH:"C:\USERS\ISAAC\DESKTOP\PROYECTO\PROYECTO_LAB_COMPUTACION_GRAFICA\GRAVITY_FALLS\/EXTERNAL LIBRARIES/GLFW/LIB-VC2015" /LIBPATH:"C:\USERS\ISAAC\DESKTOP\PROYECTO\PROYECTO_LAB_COMPUTACION_GRAFICA\GRAVITY_FALLS\/EXTERNAL LIBRARIES/GLM" /LIBPATH:"C:\USERS\ISAAC\DESKTOP\PROYECTO\PROYECTO_LAB_COMPUTACION_GRAFICA\GRAVITY_FALLS\/EXTERNAL LIBRARIES/SOIL2/LIB" /LIBPATH:"C:\USERS\ISAAC\DESKTOP\PROYECTO\PROYECTO_LAB_COMPUTACION_GRAFICA\GRAVITY_FALLS\/EXTERNAL LIBRARIES/ASSIMP/LIB" OPENGL32.LIB GLEW32.LIB GLFW3.LIB "SOIL2-DEBUG.LIB" "ASSIMP-VC140-MT.LIB" KERNEL32.LIB USER32.LIB GDI32.LIB WINSPOOL.LIB COMDLG32.LIB ADVAPI32.LIB SHELL32.LIB OLE32.LIB OLEAUT32.LIB UUID.LIB ODBC32.LIB ODBCCP32.LIB /MANIFEST /MANIFESTUAC:"level='asInvoker' uiAccess='false'" /manifest:embed /DEBUG /PDB:"C:\USERS\ISAAC\DESKTOP\PROYECTO\PROYECTO_LAB_COMPUTACION_GRAFICA\GRAVITY_FALLS\DEBUG\GRAVITY_FALLS.PDB" /SUBSYSTEM:CONSOLE /TLBID:1 /DYNAMICBASE /NXCOMPAT /IMPLIB:"C:\USERS\ISAAC\DESKTOP\PROYECTO\PROYECTO_LAB_COMPUTACION_GRAFICA\GRAVITY_FALLS\DEBUG\GRAVITY_FALLS.LIB" /MACHINE:X86 DEBUG\SOLANOMORALESISAACURIEL_PROYECTOFINAL_GPO9.OBJ
