^C:\USERS\ISAAC\DESKTOP\PROYECTO\PROYECTO_LAB_COMPUTACION_GRAFICA\GRAVITY_FALLS\GRAVITY_FALLS\DEBUG\SOLANOMORALESISAACURIEL_PROYECTOFINAL_GPO9.OBJ
C:\PROGRAM FILES (X86)\WINDOWS KITS\10\LIB\10.0.19041.0\UM\X86\OPENGL32.LIB
C:\USERS\ISAAC\DESKTOP\PROYECTO\PROYECTO_LAB_COMPUTACION_GRAFICA\GRAVITY_FALLS\EXTERNAL LIBRARIES\GLEW\LIB\RELEASE\WIN32\GLEW32.LIB
C:\USERS\ISAAC\DESKTOP\PROYECTO\PROYECTO_LAB_COMPUTACION_GRAFICA\GRAVITY_FALLS\EXTERNAL LIBRARIES\GLFW\LIB-VC2015\GLFW3.LIB
C:\USERS\ISAAC\DESKTOP\PROYECTO\PROYECTO_LAB_COMPUTACION_GRAFICA\GRAVITY_FALLS\EXTERNAL LIBRARIES\SOIL2\LIB\SOIL2-DEBUG.LIB
C:\USERS\ISAAC\DESKTOP\PROYECTO\PROYECTO_LAB_COMPUTACION_GRAFICA\GRAVITY_FALLS\EXTERNAL LIBRARIES\ASSIMP\LIB\ASSIMP-VC140-MT.LIB
C:\PROGRAM FILES (X86)\WINDOWS KITS\10\LIB\10.0.19041.0\UM\X86\KERNEL32.LIB
C:\PROGRAM FILES (X86)\WINDOWS KITS\10\LIB\10.0.19041.0\UM\X86\USER32.LIB
C:\PROGRAM FILES (X86)\WINDOWS KITS\10\LIB\10.0.19041.0\UM\X86\GDI32.LIB
C:\PROGRAM FILES (X86)\WINDOWS KITS\10\LIB\10.0.19041.0\UM\X86\WINSPOOL.LIB
C:\PROGRAM FILES (X86)\WINDOWS KITS\10\LIB\10.0.19041.0\UM\X86\COMDLG32.LIB
C:\PROGRAM FILES (X86)\WINDOWS KITS\10\LIB\10.0.19041.0\UM\X86\ADVAPI32.LIB
C:\PROGRAM FILES (X86)\WINDOWS KITS\10\LIB\10.0.19041.0\UM\X86\SHELL32.LIB
C:\PROGRAM FILES (X86)\WINDOWS KITS\10\LIB\10.0.19041.0\UM\X86\OLE32.LIB
C:\PROGRAM FILES (X86)\WINDOWS KITS\10\LIB\10.0.19041.0\UM\X86\OLEAUT32.LIB
C:\PROGRAM FILES (X86)\WINDOWS KITS\10\LIB\10.0.19041.0\UM\X86\UUID.LIB
C:\PROGRAM FILES (X86)\WINDOWS KITS\10\LIB\10.0.19041.0\UM\X86\ODBC32.LIB
C:\PROGRAM FILES (X86)\WINDOWS KITS\10\LIB\10.0.19041.0\UM\X86\ODBCCP32.LIB
C:\USERS\ISAAC\DESKTOP\PROYECTO\PROYECTO_LAB_COMPUTACION_GRAFICA\GRAVITY_FALLS\GRAVITY_FALLS\DEBUG\SOLANOMORALESISAACURIEL_PROYECTOFINAL_GPO9.OBJ
C:\USERS\ISAAC\DESKTOP\PROYECTO\PROYECTO_LAB_COMPUTACION_GRAFICA\GRAVITY_FALLS\GRAVITY_FALLS\DEBUG\GRAVITY_FALLS.ILK
C:\WINDOWS\SYSTEM32\TZRES.DLL
C:\WINDOWS\GLOBALIZATION\SORTING\SORTDEFAULT.NLS
C:\PROGRAM FILES (X86)\MICROSOFT VISUAL STUDIO\2019\COMMUNITY\VC\TOOLS\MSVC\14.29.30037\LIB\X86\MSVCPRTD.LIB
C:\PROGRAM FILES (X86)\MICROSOFT VISUAL STUDIO\2019\COMMUNITY\VC\TOOLS\MSVC\14.29.30037\LIB\X86\MSVCRTD.LIB
C:\PROGRAM FILES (X86)\MICROSOFT VISUAL STUDIO\2019\COMMUNITY\VC\TOOLS\MSVC\14.29.30037\LIB\X86\OLDNAMES.LIB
C:\PROGRAM FILES (X86)\MICROSOFT VISUAL STUDIO\2019\COMMUNITY\VC\TOOLS\MSVC\14.29.30037\LIB\X86\MSVCRT.LIB
C:\PROGRAM FILES (X86)\MICROSOFT VISUAL STUDIO\2019\COMMUNITY\VC\TOOLS\MSVC\14.29.30037\LIB\X86\VCRUNTIMED.LIB
C:\PROGRAM FILES (X86)\WINDOWS KITS\10\LIB\10.0.19041.0\UCRT\X86\UCRTD.LIB
C:\PROGRAM FILES (X86)\MICROSOFT VISUAL STUDIO\2019\COMMUNITY\VC\TOOLS\MSVC\14.29.30037\BIN\HOSTX86\X86\3082\LINKUI.DLL
C:\PROGRAM FILES (X86)\MICROSOFT VISUAL STUDIO\2019\COMMUNITY\VC\TOOLS\MSVC\14.29.30037\BIN\HOSTX86\X86\CVTRES.EXE
C:\PROGRAM FILES (X86)\MICROSOFT VISUAL STUDIO\2019\COMMUNITY\VC\TOOLS\MSVC\14.29.30037\BIN\HOSTX86\X86\MSPDBSRV.EXE
